# HEADER_START,,,,,,,,,,,,,,,,,,,
time_zone,GMT,,,,,,,,,,,,,,,,,,
end_date,20180831,,,,,,,,,,,,,,,,,,
time_zone_offset,0,,,,,,,,,,,,,,,,,,
cpcode,580006,371633,600833,371632,643315,652942,643313,653432,653431,653430,675790,658393,368226,368225,653429,643310,653406,653405,643311
start_date,20180801,,,,,,,,,,,,,,,,,,
# HEADER_END,,,,,,,,,,,,,,,,,,,
# COLUMN_DEFINITION_START,,,,,,,,,,,,,,,,,,,
URL,Ok Volume (MB),Error Volume (MB),Ok Hits,0XX,200,206,2XX,302,304,3XX,404,4XX,Offloaded Hits,Origin Hits,Origin OK Volume (MB),Origin Error Volume (MB),Error Hits,,
# COLUMN_DEFINITION_END,,,,,,,,,,,,,,,,,,,
,,,1723080136,,,,,,,,,,,,,,,,
# ROW_DATA_START,,,,,,,,,,,,,,,,,,,
www.canada.ca/etc/designs/canada/cdts/gcweb/v4_0_26/css/theme.min.css,248610.5378,0,29603507,1,3795442,395,3795837,0,25807669,25807669,0,0,29602540,967,39.33348,0,0,,
www.canada.ca/etc/designs/canada/cdts/gcweb/v4_0_26/js/wet-boew.min.js,171432.889,0,31390735,1,3233211,1025,3234236,0,28156498,28156498,0,0,31389789,946,29.330292,0,0,,
www.canada.ca/etc/designs/canada/cdts/gcweb/v4_0_26/assets/wmms-blk.svg,144726.7832,13.080912,470903015,0,18950952,28,18950980,0,451952035,451952035,0,0,470901569,1446,2.509716,0,35583,,
www.canada.ca/etc/designs/canada/cdts/gcweb/v4_0_26/js/jquery/2.1.4/jquery.min.js,129162.1678,0,49346953,0,3414540,1690,3416230,0,45930723,45930723,0,0,49345984,969,20.863819,0,0,,
www.canada.ca/etc/designs/canada/cdts/gcweb/v4_0_24/css/theme.min.css,123155.5445,0,4832434,0,1939136,126,1939262,0,2893172,2893172,0,0,4831446,988,46.807982,0,0,,
www.canada.ca/etc/designs/canada/cdts/gcweb/v4_0_28/css/theme.min.css,93258.93579,0,3803173,0,1386372,132,1386504,0,2416669,2416669,0,0,3802227,946,43.561947,0,0,,
www.canada.ca/etc/designs/canada/cdts/gcweb/v4_0_24/js/wet-boew.min.js,90675.35215,0,5576311,1,1839735,82,1839817,0,3736493,3736493,0,0,5575385,926,31.273156,0.000219,0,,
www.canada.ca/etc/designs/canada/cdts/gcweb/v4_0_26/fonts/glyphicons-halflings-regular.woff,87846.08036,0,36787472,0,2967149,468,2967617,0,33819855,33819855,0,0,36786478,994,15.422973,0,0,,
www.canada.ca/etc/designs/canada/cdts/gcweb/v4_0_28/js/wet-boew.min.js,66956.06482,0,3170785,1,1312249,132,1312381,0,1858403,1858403,0,0,3169851,934,32.827558,0,0,,
www.canada.ca/etc/designs/canada/cdts/gcweb/v4_0_24/js/jquery/2.1.4/jquery.min.js,64686.30288,0,8087883,0,1882211,93,1882304,0,6205579,6205579,0,0,8086936,947,21.238536,0,0,,
www.canada.ca/etc/designs/canada/cdts/gcweb/v4_0_27/css/theme.min.css,61605.56307,0,2714997,2,939140,40,939180,0,1775815,1775815,0,0,2714066,931,40.186355,0,0,,
www.canada.ca/etc/designs/canada/cdts/gcweb/v4_0_27/js/wet-boew.min.js,53696.53538,0,2736439,1,1050493,55,1050548,0,1685890,1685890,0,0,2735513,926,30.331805,0,0,,
www.canada.ca/etc/designs/canada/cdts/gcweb/v4_0_26/js/deps/jquery.magnific-popup.min.js,53554.04517,0,59520551,0,4386879,167949,4554828,0,54965723,54965723,0,0,59519619,932,6.007288,0.000219,0,,
www.canada.ca/etc/designs/canada/cdts/gcweb/v4_0_26/assets/sig-blk-en.svg,53463.16856,15.844139,150704613,0,13314295,39,13314334,0,137390279,137390279,0,0,150703144,1469,2.675239,0,39462,,
www.canada.ca/etc/designs/canada/cdts/gcweb/v4_0_26/js/theme.min.js,53047.94424,0,34530693,0,3368895,239,3369134,0,31161559,31161559,0,0,34529748,945,8.470398,0,0,,
www.canada.ca/etc/designs/canada/cdts/gcweb/v4_0_26/assets/favicon.ico,45998.5793,0,12694194,0,7773749,28,7773777,0,4920417,4920417,0,0,12693249,945,3.144892,0,0,,
www.canada.ca/etc/designs/canada/cdts/gcweb/v4_0_24/fonts/glyphicons-halflings-regular.woff,45515.58797,0,5855775,0,1615868,38,1615906,0,4239869,4239869,0,0,5854843,932,16.820147,0,0,,
www.canada.ca/etc/designs/canada/cdts/gcweb/v4_0_28/js/jquery/2.1.4/jquery.min.js,44219.73938,0.087709,4758616,1,1324260,166,1324426,0,3434189,3434189,0,88,4757683,933,19.643455,0.000219,88,,
www.canada.ca/etc/designs/canada/cdts/gcweb/v4_0_26/cdts/compiled/soyutils.js,40650.1865,0,39507136,1,3339666,714,3340380,0,36166755,36166755,0,0,39506087,1049,5.477281,0,0,,
www.canada.ca/etc/designs/canada/cdts/gcweb/v4_0_27/js/jquery/2.1.4/jquery.min.js,36049.29613,0,3505992,0,1072635,62,1072697,0,2433295,2433295,0,0,3505038,954,20.749965,0,0,,
www.canada.ca/etc/designs/canada/cdts/gcweb/v4_0_27/assets/wmms-blk.svg,31413.83751,12.235421,96169096,1,5676485,27,5676512,0,90492583,90492583,0,0,96167432,1664,2.78884,0,27627,,
www.canada.ca/etc/designs/canada/cdts/gcweb/v4_0_28/fonts/glyphicons-halflings-regular.woff,30864.22929,0.000399,3484011,0,1173372,83,1173455,0,2310556,2310556,0,0,3483050,961,16.467363,0.000219,1,,
www.canada.ca/etc/designs/canada/cdts/gcweb/v4_0_26/cdts/compiled/wet-en.js,27301.15693,0,25194952,1,2681940,562,2682502,0,22512449,22512449,0,0,25193880,1072,5.885328,0,0,,
www.canada.ca/etc/designs/canada/cdts/gcweb/v4_0_26/js/i18n/en.min.js,23037.83792,0,36964787,2,4170122,54004,4224126,0,32740659,32740659,0,0,36963836,951,2.520411,0,0,,
www.canada.ca/etc/designs/canada/cdts/gcweb/v4_0_24/js/deps/jquery.magnific-popup.min.js,21108.53531,0,8344472,0,2254352,61405,2315757,0,6028715,6028715,0,0,8343471,1001,6.546264,0,0,,
www.canada.ca/etc/designs/canada/cdts/gcweb/v4_0_28/js/theme.min.js,17894.05289,0,3268352,3,1318700,32,1318732,0,1949617,1949617,0,0,3267407,945,8.998497,0,0,,
www.canada.ca/etc/designs/canada/cdts/gcweb/v4_0_27/fonts/glyphicons-halflings-regular.woff,17677.1288,0,1958063,0,647520,48,647568,0,1310495,1310495,0,0,1957154,909,15.607347,0,0,,
www.canada.ca/etc/designs/canada/cdts/gcweb/v4_0_26/assets/sig-blk-fr.svg,17614.40569,3.556561,47025217,0,5097606,8,5097614,0,41927603,41927603,0,0,47024134,1083,2.086652,0,9006,,
www.canada.ca/etc/designs/canada/cdts/gcweb/v4_0_24/assets/wmms-blk.svg,17431.98766,0.799618,47855359,1,4281167,2,4281169,0,43574189,43574189,0,0,47854056,1303,2.316512,0.000219,2080,,
www.canada.ca/etc/designs/canada/cdts/gcweb/v4_0_28/js/deps/jquery.magnific-popup.min.js,14318.2976,0,6648215,1,1491487,36656,1528143,0,5120071,5120071,0,0,6647289,926,5.786197,0,0,,
www.canada.ca/etc/designs/canada/cdts/gcweb/v4_0_24/cdts/compiled/soyutils.js,14295.37372,0,6181740,2,1574614,86,1574700,0,4607038,4607038,0,0,6180797,943,5.156803,0,0,,
www.canada.ca/etc/designs/canada/cdts/gcweb/v4_0_27/js/theme.min.js,14183.90732,0,2490605,0,1039862,25,1039887,0,1450718,1450718,0,0,2489684,921,9.026431,0,0,,
www.canada.ca/etc/designs/canada/cdts/gcweb/v4_0_26/cdts/cdtsapps.css,13144.58534,0,27067767,1,2140748,10,2140758,0,24927008,24927008,0,0,27066942,825,2.208965,0,0,,
www.canada.ca/etc/designs/canada/cdts/gcweb/v4_0_26/cdts/cdtsfixes.css,11727.76758,0,35826841,1,3714086,4,3714090,0,32112750,32112750,0,0,35825902,939,1.097845,0,0,,
www.canada.ca/etc/designs/canada/cdts/gcweb/v4_0_24/cdts/compiled/wet-en.js,11189.93177,0,5678527,2,1312553,48,1312601,0,4365924,4365924,0,0,5677597,930,5.008029,0,0,,
www.canada.ca/etc/designs/canada/cdts/gcweb/v4_0_25/assets/wmms-blk.svg,11118.74754,0.090052,12456238,0,11874918,208,11875126,0,581112,581112,0,0,12454994,1244,2.036353,0,189,,
www.canada.ca/etc/designs/canada/cdts/gcweb/v4_0_27/js/deps/jquery.magnific-popup.min.js,10830.14445,0,3737060,0,1173093,24908,1198001,0,2539059,2539059,0,0,3736120,940,5.390808,0,0,,
www.canada.ca/etc/designs/canada/cdts/gcweb/v4_0_26/js/deps/jquery.dataTables.min.js,10620.48147,0,1507801,0,336705,4280,340985,0,1166816,1166816,0,0,1507157,644,16.855866,0,0,,
www.canada.ca/etc/designs/canada/cdts/gcweb/v4_0_26/js/polyfills/datalist.min.js,10423.79221,0,16314487,0,2688830,2,2688832,0,13625655,13625655,0,0,16313439,1048,2.656123,0,0,,
www.canada.ca/etc/designs/canada/cdts/gcweb/v4_0_27/cdts/compiled/soyutils.js,10342.80663,0,3197488,0,924284,557,924841,0,2272647,2272647,0,0,3196485,1003,5.530036,0,0,,
www.canada.ca/etc/designs/canada/cdts/gcweb/v4_0_26/js/i18n/fr.min.js,9512.089312,0,14635254,0,1273792,32345,1306137,0,13329117,13329117,0,0,14634518,736,2.943905,0,0,,
www.canada.ca/etc/designs/canada/cdts/gcweb/v4_0_26/fonts/glyphicons-halflings-regular.eot,8721.847069,0,4346710,0,311407,0,311407,0,4035303,4035303,0,0,4344224,2486,52.865037,0,0,,
www.canada.ca/etc/designs/canada/cdts/gcweb/v4_0_26/cdts/exitScript.js,8591.482592,0,22610464,2,2296695,2,2296697,0,20313765,20313765,0,0,22609612,852,1.109095,0,0,,
www.canada.ca/etc/designs/canada/cdts/gcweb/v4_0_24/js/i18n/en.min.js,8566.370087,0,10560777,1,1779483,24415,1803898,0,8756878,8756878,0,0,10559836,941,2.6154,0,0,,
www.canada.ca/etc/designs/canada/cdts/gcweb/v4_0_26/cdts/compiled/wet-fr.js,7493.319419,0,7844890,0,736751,130,736881,0,7108009,7108009,0,0,7844161,729,4.31882,0,0,,
www.canada.ca/etc/designs/canada/cdts/gcweb/v4_0_27/cdts/compiled/wet-en.js,7262.724188,0,2467758,1,774338,360,774698,0,1693059,1693059,0,0,2466802,956,5.446097,0,0,,
www.canada.ca/etc/designs/canada/cdts/gcweb/v4_0_24/assets/sig-blk-en.svg,6836.373368,0.427152,8515727,0,5215333,4,5215337,0,3300390,3300390,0,0,8514432,1295,2.606354,0.000219,984,,
www.canada.ca/etc/designs/canada/cdts/gcweb/v4_0_26/cdts/compiled/plugins-en.js,6667.455016,0.004282,20354454,1,1978749,0,1978749,0,18375704,18375704,0,0,20353517,937,0.880043,0,14,,
www.canada.ca/etc/designs/canada/cdts/gcweb/rn/cdts/compiled/soyutils.js,6559.039801,0,1463148,0,638612,872,639484,0,823664,823664,0,0,1462217,931,5.235199,0,0,,
www.canada.ca/etc/designs/canada/cdts/gcweb/v4_0_27/assets/sig-blk-en.svg,6483.218218,8.357436,5516048,1,4227742,26,4227768,0,1288279,1288279,0,0,5514354,1694,2.959001,0.000219,17812,,
www.canada.ca/etc/designs/canada/cdts/gcweb/v4_0_24/assets/favicon.ico,6300.629114,0,2170559,0,1315003,13,1315016,0,855543,855543,0,0,2169641,918,3.319042,0,0,,
www.canada.ca/etc/designs/canada/cdts/gcweb/v4_0_28/cdts/compiled/soyutils.js,5607.900592,0.094015,2630970,0,691563,16,691579,0,1939391,1939391,0,111,2630147,823,4.744443,0.000219,112,,
www.canada.ca/etc/designs/canada/cdts/gcweb/v4_0_26/js/polyfills/details.min.js,5575.274804,0,13789883,0,731031,15,731046,0,13058837,13058837,0,0,13788908,975,1.570369,0,0,,
www.canada.ca/etc/designs/canada/cdts/gcweb/v4_0_28/js/i18n/en.min.js,5399.86908,0,4747142,0,1294373,13736,1308109,0,3439033,3439033,0,0,4746177,965,2.55901,0,0,,
www.canada.ca/etc/designs/canada/cdts/gcweb/v4_0_27/js/deps/jquery.dataTables.min.js,5310.3796,0,499726,0,168919,6536,175455,0,324271,324271,0,0,498890,836,20.716053,0,0,,
www.canada.ca/etc/designs/canada/cdts/gcweb/v4_0_26/js/polyfills/datepicker.min.js,5157.100819,0,9372028,0,725111,7,725118,0,8646910,8646910,0,0,9371111,917,2.291861,0,0,,
www.canada.ca/etc/designs/canada/cdts/gcweb/v4_0_26/css/polyfills/details.min.css,5135.027895,0,14226778,1,704455,2,704457,0,13522320,13522320,0,0,14225859,919,1.016526,0,0,,
www.canada.ca/etc/designs/canada/cdts/gcweb/v4_0_26/css/polyfills/datalist.min.css,5042.155789,0,15034395,0,2696168,0,2696168,0,12338227,12338227,0,0,15033470,925,1.141436,0,0,,
www.canada.ca/etc/designs/canada/cdts/gcweb/v4_0_27/fonts/glyphicons-halflings-regular.eot,4976.771574,0,856521,0,206871,0,206871,0,649650,649650,0,0,854118,2403,51.59157,0,0,,
www.canada.ca/etc/designs/canada/cdts/gcweb/rn/cdts/compiled/wet-en.js,4898.360895,0,1303455,0,562798,809,563607,0,739848,739848,0,0,1302524,931,5.294176,0.000472,0,,
www.canada.ca/etc/designs/canada/cdts/gcweb/v4_0_28/cdts/compiled/wet-en.js,4779.472941,0,2195811,0,572263,8,572271,0,1623540,1623540,0,0,2194969,842,5.22854,0,0,,
www.canada.ca/etc/designs/canada/cdts/gcweb/v4_0_26/css/polyfills/datepicker.min.css,4638.12675,0,11684820,0,689238,0,689238,0,10995582,10995582,0,0,11683915,905,1.109664,0,0,,
www.canada.ca/etc/designs/canada/cdts/gcweb/v4_0_28/assets/favicon.ico,4568.301757,0.004217,1457422,0,938920,5,938925,0,518497,518497,0,0,1456530,892,3.104046,0.000219,1,,
www.canada.ca/etc/designs/canada/cdts/gcweb/v4_0_26/css/polyfills/meter.min.css,4541.959486,0,10589922,0,664476,0,664476,0,9925446,9925446,0,0,10589076,846,1.062112,0,0,,
www.canada.ca/etc/designs/canada/cdts/gcweb/v4_0_26/js/polyfills/meter.min.js,4530.537524,0,9540173,0,675464,0,675464,0,8864709,8864709,0,0,9539326,847,1.429317,0,0,,
www.canada.ca/etc/designs/canada/cdts/gcweb/v4_0_26/assets/favicon-mobile.png,4423.353725,0,4578450,0,915892,57,915949,0,3662501,3662501,0,0,4577590,860,2.651667,0,0,,
www.canada.ca/etc/designs/canada/cdts/gcweb/v4_0_27/js/i18n/en.min.js,4322.209765,0,3653522,0,1006688,10149,1016837,0,2636685,2636685,0,0,3652559,963,2.705344,0,0,,
www.canada.ca/etc/designs/canada/cdts/gcweb/v4_0_24/js/theme.min.js,3965.098979,0,6203293,0,1809690,15,1809705,0,4393588,4393588,0,0,6202352,941,1.539677,0,0,,
www.canada.ca/etc/designs/canada/cdts/gcweb/v4_0_24/fonts/glyphicons-halflings-regular.eot,3937.230336,0,850981,0,163757,0,163757,0,687224,687224,0,0,848988,1993,42.522042,0,0,,
www.canada.ca/etc/designs/canada/cdts/gcweb/v4_0_24/cdts/cdtsfixes.css,3899.688657,0,5074489,0,1898994,2,1898996,0,3175493,3175493,0,0,5073539,950,1.637755,0,0,,
www.canada.ca/etc/designs/canada/cdts/gcweb/v4_0_25/assets/sig-blk-en.svg,3819.164449,0.040783,5799079,0,4936674,99,4936773,0,862306,862306,0,0,5797737,1342,2.355975,0,83,,
www.canada.ca/etc/designs/canada/cdts/gcweb/v4_0_28/assets/sig-blk-en.svg,3785.283681,0.224567,3221848,0,1203992,1194,1205186,0,2016662,2016662,0,165,3220872,976,2.233035,0.000219,166,,
www.canada.ca/etc/designs/canada/cdts/gcweb/v4_0_27/assets/favicon.ico,3763.317196,0,1136236,1,737792,1,737793,0,398442,398442,0,0,1135347,889,3.042345,0,0,,
www.canada.ca/etc/designs/canada/cdts/gcweb/v4_0_26/js/deps/template.min.js,3667.181961,0,8273332,0,527655,0,527655,0,7745677,7745677,0,0,8272450,882,1.063748,0,0,,
www.canada.ca/etc/designs/canada/cdts/gcweb/v4_0_28/assets/wmms-blk.svg,3661.88479,0.108127,3422312,2,1386382,137,1386519,0,2035791,2035791,0,110,3421313,999,2.079078,0.000219,112,,
www.canada.ca/etc/designs/canada/cdts/gcweb/v4_0_26/cdts/compiled/plugins-fr.js,3632.33176,0.002086,11133339,0,579907,0,579907,0,10553432,10553432,0,0,11132693,646,0.563985,0,8,,
www.canada.ca/etc/designs/canada/cdts/gcweb/v4_0_23/assets/wmms-blk.svg,3397.51691,0.37739,9949381,0,2446907,1,2446908,0,7502473,7502473,0,0,9948233,1148,1.825046,0,826,,
www.canada.ca/etc/designs/canada/cdts/gcweb/v4_0_26/js/deps/jquery.validate.min.js,3245.277764,0,795942,0,358712,58607,417319,0,378623,378623,0,0,795275,667,4.838068,0,0,,
www.canada.ca/etc/designs/canada/cdts/gcweb/v4_0_28/js/deps/jquery.dataTables.min.js,3131.923842,0,209999,0,100169,4135,104304,0,105695,105695,0,0,209283,716,19.23717,0,0,,
www.canada.ca/etc/designs/canada/cdts/gcweb/v4_0_28/fonts/glyphicons-halflings-regular.eot,3036.464728,0.000074,529641,0,128452,6,128458,0,401183,401183,0,0,527682,1959,41.182741,0.000219,1,,
www.canada.ca/etc/designs/canada/cdts/gcweb/v4_0_22/assets/wmms-blk.svg,2949.132926,0.016405,11058443,0,247091,6,247097,0,10811346,10811346,0,0,11057350,1093,1.983819,0,35,,
www.canada.ca/etc/designs/canada/cdts/gcweb/v4_0_24/js/polyfills/datalist.min.js,2665.126152,0,3467424,1,782460,0,782460,0,2684963,2684963,0,0,3466419,1005,2.613907,0.003753,0,,
www.canada.ca/etc/designs/canada/cdts/gcweb/v4_0_24/cdts/exitScript.js,2633.17801,0,4824361,1,1460739,0,1460739,0,3363621,3363621,0,0,4823456,905,1.23554,0,0,,
www.canada.ca/etc/designs/canada/cdts/gcweb/v4_0_27/js/wet-boew.min.js.map,2628.457707,0,17792,0,14964,0,14964,0,2828,2828,0,0,17541,251,11.851527,0,0,,
www.canada.ca/etc/designs/canada/cdts/gcweb/v4_0_26/js/deps/additional-methods.min.js,2278.683344,0,835304,0,340431,67002,407433,0,427871,427871,0,0,834633,671,3.653868,0,0,,
www.canada.ca/etc/designs/canada/cdts/gcweb/v4_0_24/js/deps/jquery.dataTables.min.js,2253.502598,0,411472,0,71838,1247,73085,0,338387,338387,0,0,410837,635,17.123621,0,0,,
www.canada.ca/etc/designs/canada/cdts/gcweb/v4_0_24/js/polyfills/datepicker.min.js,2219.358618,0,3653740,1,329623,1,329624,0,3324115,3324115,0,0,3652896,844,2.299102,0,0,,
www.canada.ca/etc/designs/canada/cdts/gcweb/v4_0_24/js/i18n/fr.min.js,2193.032328,0,1896152,0,402268,8572,410840,0,1485312,1485312,0,0,1895503,649,2.589237,0,0,,
www.canada.ca/etc/designs/canada/cdts/gcweb/v4_0_24/cdts/compiled/wet-fr.js,2192.945684,0,1106533,0,306590,8,306598,0,799935,799935,0,0,1105954,579,3.169003,0,0,,
www.canada.ca/etc/designs/canada/cdts/gcweb/v4_0_22/css/theme.min.css,2166.740601,0,226878,1,32622,0,32622,0,194255,194255,0,0,226240,638,33.881451,0,0,,
www.canada.ca/etc/designs/canada/cdts/gcweb/v4_0_26/js/wet-boew.min.js.map,2095.564496,0,19936,0,16398,0,16398,0,3538,3538,0,0,19546,390,16.655908,0,0,,
www.canada.ca/etc/designs/canada/cdts/gcweb/v4_0_28/js/polyfills/datalist.min.js,1822.182244,0,2070969,2,550990,0,550990,0,1519977,1519977,0,0,2069971,998,2.552198,0,0,,
www.canada.ca/etc/designs/canada/cdts/gcweb/v4_0_24/css/polyfills/datepicker.min.css,1781.186972,0,3806564,0,312545,0,312545,0,3494019,3494019,0,0,3805746,818,1.066641,0,0,,
www.canada.ca/etc/designs/canada/cdts/gcweb/v4_0_28/js/wet-boew.min.js.map,1760.899696,0,11500,0,10245,0,10245,0,1255,1255,0,0,11325,175,8.187893,0,0,,
www.canada.ca/etc/designs/canada/cdts/gcweb/v4_0_28/cdts/cdtsfixes.css,1751.103496,0,3899835,2,1359803,1,1359804,0,2540029,2540029,0,0,3898870,965,1.116546,0,0,,
www.canada.ca/etc/designs/canada/cdts/gcweb/v4_0_24/js/polyfills/details.min.js,1742.304802,0,3380228,0,353937,2,353939,0,3026289,3026289,0,0,3379338,890,1.502289,0,0,,
www.canada.ca/etc/designs/canada/cdts/gcweb/v4_0_27/js/polyfills/datepicker.min.js,1683.663944,0,1875274,0,387707,0,387707,0,1487567,1487567,0,0,1874408,866,2.453473,0,0,,
www.canada.ca/etc/designs/canada/cdts/gcweb/v4_0_24/cdts/compiled/plugins-en.js,1654.298419,0,1294290,0,108056,21,108077,0,1186213,1186213,0,0,1293571,719,1.014096,0,0,,
www.canada.ca/etc/designs/canada/cdts/gcweb/v4_0_27/js/jquery/2.1.4/jquery.min.map,1651.35302,0,16292,0,13823,0,13823,0,2469,2469,0,0,16040,252,8.783699,0,0,,
www.canada.ca/etc/designs/canada/cdts/gcweb/v4_0_24/js/polyfills/meter.min.js,1646.99613,0,2952165,0,242080,0,242080,0,2710085,2710085,0,0,2951425,740,1.22236,0,0,,
www.canada.ca/etc/designs/canada/cdts/gcweb/v4_0_24/assets/favicon-mobile.png,1645.244574,0,1000232,0,410773,3,410776,0,589456,589456,0,0,999430,802,2.597698,0,0,,
www.canada.ca/etc/designs/canada/cdts/gcweb/v4_0_25/assets/sig-blk-fr.svg,1602.22898,0.038802,2400890,0,2070192,45,2070237,0,330653,330653,0,0,2400066,824,1.464108,0,33,,
www.canada.ca/etc/designs/canada/cdts/gcweb/v4_0_27/cdts/compiled/wet-fr.js,1581.346869,0,681805,0,160523,195,160718,0,521087,521087,0,0,681167,638,3.842797,0,0,,
www.canada.ca/etc/designs/canada/cdts/gcweb/v4_0_23/assets/sig-blk-en.svg,1458.034796,0.172166,2062678,2,1849713,11,1849724,0,212952,212952,0,0,2061539,1139,1.949409,0,353,,
www.canada.ca/etc/designs/canada/cdts/gcweb/v4_0_26/js/jquery/2.1.4/jquery.min.map,1454.319353,0,20939,0,16582,0,16582,0,4357,4357,0,0,20543,396,12.468803,0,0,,
www.canada.ca/etc/designs/canada/cdts/gcweb/v4_0_28/js/i18n/fr.min.js,1355.549896,0,978092,0,242087,4746,246833,0,731259,731259,0,0,977378,714,3.054325,0,0,,
www.canada.ca/etc/designs/canada/cdts/gcweb/v4_0_24/assets/sig-blk-fr.svg,1338.844663,0.026964,1410380,1,602765,2,602767,0,807612,807612,0,0,1409499,881,1.847238,0,73,,
www.canada.ca/etc/designs/canada/cdts/gcweb/v4_0_27/cdts/cdtsfixes.css,1323.835358,0,2607472,0,941778,0,941778,0,1665694,1665694,0,0,2606544,928,1.08241,0,0,,
www.canada.ca/etc/designs/canada/cdts/gcweb/v4_0_23/css/theme.min.css,1306.923896,0,61047,0,20450,0,20450,0,40597,40597,0,0,60618,429,24.449369,0,0,,
www.canada.ca/etc/designs/canada/cdts/gcweb/v4_0_24/css/polyfills/details.min.css,1285.624545,0,3144262,0,319004,0,319004,0,2825258,2825258,0,0,3143448,814,0.917624,0,0,,
www.canada.ca/etc/designs/canada/cdts/gcweb/v4_0_28/js/deps/jquery.validate.min.js,1271.082466,0,330290,1,146015,2158,148173,0,182116,182116,0,0,329468,822,5.714128,0,0,,
www.canada.ca/etc/designs/canada/cdts/gcweb/v4_0_27/assets/sig-blk-fr.svg,1233.292653,0.961441,1102752,0,836605,4,836609,0,266143,266143,0,0,1101654,1098,2.120937,0,2092,,
www.canada.ca/etc/designs/canada/cdts/gcweb/v4_0_27/js/polyfills/meter.min.js,1213.969155,0,1861559,0,326703,0,326703,0,1534856,1534856,0,0,1860739,820,1.469425,0,0,,
www.canada.ca/etc/designs/canada/cdts/gcweb/v4_0_27/js/i18n/fr.min.js,1213.192136,0,993595,1,202327,2524,204851,0,788743,788743,0,0,992897,698,2.9876,0,0,,
www.canada.ca/etc/designs/canada/cdts/gcweb/v4_0_28/js/jquery/2.1.4/jquery.min.map,1201.242124,0,12021,0,10454,0,10454,0,1567,1567,0,0,11837,184,6.02546,0,0,,
www.canada.ca/etc/designs/canada/cdts/gcweb/v4_0_28/js/polyfills/datepicker.min.js,1188.040685,0,1550977,1,250014,2,250016,0,1300960,1300960,0,0,1550122,855,2.292157,0,0,,
www.canada.ca/etc/designs/canada/cdts/gcweb/v4_0_28/cdts/exitScript.js,1186.713418,0,2188027,1,674237,0,674237,0,1513789,1513789,0,0,2187277,750,0.973618,0,0,,
www.canada.ca/etc/designs/canada/cdts/gcweb/v4_0_28/assets/favicon-mobile.png,1167.599815,0,674193,0,292761,16,292777,0,381416,381416,0,0,673379,814,2.530591,0,0,,
www.canada.ca/etc/designs/canada/cdts/gcweb/v4_0_24/css/polyfills/datalist.min.css,1165.960447,0,3215717,0,766106,0,766106,0,2449611,2449611,0,0,3214820,897,1.088684,0.004225,0,,
www.canada.ca/etc/designs/canada/cdts/gcweb/v4_0_24/js/deps/jquery.validate.min.js,1165.398815,0,769692,0,117835,1537,119372,0,650320,650320,0,0,768968,724,5.371335,0,0,,
www.canada.ca/etc/designs/canada/cdts/gcweb/v4_0_27/js/polyfills/details.min.js,1142.351875,0,1940171,1,387665,0,387665,0,1552505,1552505,0,0,1939232,939,1.564698,0,0,,
www.canada.ca/etc/designs/canada/cdts/gcweb/v4_0_27/css/polyfills/meter.min.css,1032.383811,0,1828106,0,324659,0,324659,0,1503447,1503447,0,0,1827281,825,1.095406,0,0,,
www.canada.ca/etc/designs/canada/cdts/gcweb/v4_0_24/css/polyfills/meter.min.css,986.03529,0,1855600,0,235621,0,235621,0,1619979,1619979,0,0,1854891,709,0.905736,0,0,,
www.canada.ca/etc/designs/canada/cdts/gcweb/v4_0_23/js/wet-boew.min.js,961.397826,0,44920,0,18946,2,18948,0,25972,25972,0,0,44517,403,17.976112,0,0,,
www.canada.ca/etc/designs/canada/cdts/gcweb/v4_0_24/js/deps/jquery.flot.min.js,953.7443,0,437966,0,60206,876,61082,0,376884,376884,0,0,437351,615,7.815263,0,0,,
www.canada.ca/etc/designs/canada/cdts/gcweb/v4_0_28/cdts/compiled/wet-fr.js,951.289012,0,346928,0,127334,3,127337,0,219591,219591,0,0,346466,462,2.915087,0,0,,
www.canada.ca/etc/designs/canada/cdts/gcweb/v4_0_28/js/deps/additional-methods.min.js,906.520346,0,347061,0,142338,1776,144114,0,202947,202947,0,0,346259,802,4.022356,0,0,,
www.canada.ca/etc/designs/canada/cdts/gcweb/v4_0_27/css/polyfills/datepicker.min.css,870.857882,0,1508834,0,366840,0,366840,0,1141994,1141994,0,0,1507988,846,1.138245,0,0,,
www.canada.ca/etc/designs/canada/cdts/gcweb/v4_0_27/css/polyfills/details.min.css,843.470411,0,1755059,0,362206,0,362206,0,1392853,1392853,0,0,1754153,906,1.043395,0,0,,
www.canada.ca/etc/designs/canada/cdts/gcweb/v4_0_24/js/deps/additional-methods.min.js,839.609557,0,866189,0,104695,1357,106052,0,760137,760137,0,0,865503,686,3.75001,0,0,,
www.canada.ca/etc/designs/canada/cdts/gcweb/v4_0_27/js/deps/template.min.js,828.479329,0,1552903,0,350422,0,350422,0,1202481,1202481,0,0,1552047,856,1.032816,0,0,,
www.canada.ca/etc/designs/canada/cdts/gcweb/v4_0_28/js/polyfills/details.min.js,826.091458,0,1537023,0,244494,2,244496,0,1292527,1292527,0,0,1536167,856,1.39902,0,0,,
www.canada.ca/etc/designs/canada/cdts/gcweb/rn/assets/social.png,793.104289,0,607886,0,275728,65,275793,0,332093,332093,0,0,607034,852,2.033564,0,0,,
www.canada.ca/etc/designs/canada/cdts/gcweb/v4_0_26/fonts/glyphicons-halflings-regular.ttf,787.307586,0,37442,0,30969,38,31007,0,6435,6435,0,0,36595,847,12.791816,0,0,,
www.canada.ca/etc/designs/canada/cdts/gcweb/v4_0_27/js/polyfills/datalist.min.js,745.522409,0,637901,1,257276,0,257276,0,380624,380624,0,0,636916,985,2.658549,0,0,,
www.canada.ca/etc/designs/canada/cdts/gcweb/v4_0_28/assets/sig-blk-fr.svg,740.108536,0,663649,0,212454,32,212486,0,451163,451163,0,0,663040,609,1.668855,0,0,,
www.canada.ca/etc/designs/canada/cdts/gcweb/v4_0_22/fonts/glyphicons-halflings-regular.woff,690.59576,0,171875,0,22653,0,22653,0,149222,149222,0,0,171246,629,13.945728,0,0,,
www.canada.ca/etc/designs/canada/cdts/gcweb/v4_0_28/css/polyfills/datalist.min.css,684.735728,0,1708901,3,539485,0,539485,0,1169413,1169413,0,0,1708000,901,1.079174,0,0,,
www.canada.ca/etc/designs/canada/cdts/gcweb/v4_0_23/js/jquery/2.1.4/jquery.min.js,679.822891,0,68384,0,19400,1,19401,0,48983,48983,0,0,67971,413,12.19764,0,0,,
www.canada.ca/etc/designs/canada/cdts/gcweb/rn/cdts/compiled/wet-fr.js,677.943386,0.000074,163590,0,83436,56,83492,0,80098,80098,0,0,163028,562,3.490286,0.000472,1,,
www.canada.ca/etc/designs/canada/cdts/gcweb/v4_0_28/js/polyfills/meter.min.js,671.496562,0,1103694,1,175791,0,175791,0,927902,927902,0,0,1102951,743,1.226911,0,0,,
www.canada.ca/etc/designs/canada/cdts/gcweb/v4_0_28/css/polyfills/meter.min.css,623.237928,0,1167199,0,174445,0,174445,0,992754,992754,0,0,1166486,713,0.876676,0,0,,
www.canada.ca/etc/designs/canada/cdts/gcweb/v4_0_28/css/polyfills/details.min.css,610.354579,0,1471966,0,219625,0,219625,0,1252341,1252341,0,0,1471226,740,0.794799,0,0,,
www.canada.ca/etc/designs/canada/cdts/gcweb/v4_0_28/css/polyfills/datepicker.min.css,583.935889,0,1169545,1,234889,0,234889,0,934655,934655,0,0,1168751,794,1.022373,0,0,,
www.canada.ca/etc/designs/canada/cdts/gcweb/v4_0_27/assets/favicon-mobile.png,573.695136,0,289378,0,146676,3,146679,0,142699,142699,0,0,288587,791,2.574232,0,0,,
www.canada.ca/etc/designs/canada/cdts/gcweb/v4_0_25/js/wet-boew.min.js.map,499.490868,0,2671,0,2567,0,2567,0,104,104,0,0,2615,56,3.167553,0,0,,
www.canada.ca/etc/designs/canada/cdts/gcweb/v4_0_28/js/deps/template.min.js,485.920398,0,902515,0,190579,0,190579,0,711936,711936,0,0,901721,794,0.96771,0,0,,
www.canada.ca/etc/designs/canada/cdts/gcweb/v4_0_27/cdts/compiled/plugins-en.js,484.547904,0.005195,614361,1,202837,0,202837,0,411523,411523,0,0,613552,809,0.799551,0,3,,
www.canada.ca/etc/designs/canada/cdts/gcweb/v4_0_22/js/wet-boew.min.js,483.902811,0,20941,0,10070,0,10070,0,10871,10871,0,0,20383,558,24.352105,0,0,,
www.canada.ca/etc/designs/canada/cdts/gcweb/v4_0_24/js/deps/tableparser.min.js,479.536648,0,453948,1,54626,494,55120,0,398827,398827,0,0,453351,597,3.921498,0,0,,
www.canada.ca/etc/designs/canada/cdts/gcweb/rn/assets/feedback.png,459.824218,0,547399,0,277109,61,277170,0,270229,270229,0,0,546580,819,1.165355,0,0,,
www.canada.ca/etc/designs/canada/cdts/gcweb/v4_0_23/assets/sig-blk-fr.svg,453.348154,0.007684,686099,0,641348,3,641351,0,44748,44748,0,0,685475,624,1.077086,0,10,,
www.canada.ca/etc/designs/canada/cdts/gcweb/v4_0_23/fonts/glyphicons-halflings-regular.woff,437.744243,0,33051,0,15566,0,15566,0,17485,17485,0,0,32649,402,9.378723,0,0,,
www.canada.ca/etc/designs/canada/cdts/gcweb/v4_0_28/js/deps/OpenLayers.min.js,434.875713,0,3353,0,2181,90,2271,0,1082,1082,0,0,3203,150,28.435683,0,0,,
www.canada.ca/etc/designs/canada/cdts/gcweb/rn/assets/mobile.png,427.449028,0,592844,0,276093,56,276149,0,316695,316695,0,0,592003,841,1.263995,0,0,,
www.canada.ca/etc/designs/canada/cdts/gcweb/v4_0_25/js/jquery/2.1.4/jquery.min.map,339.778086,0,2711,0,2568,0,2568,0,143,143,0,0,2655,56,2.643501,0,0,,
www.canada.ca/etc/designs/canada/cdts/gcweb/v4_0_26/css/theme-srv.min.css,332.932569,0,10155,0,9135,2,9137,0,1018,1018,0,0,9864,291,9.509029,0,0,,
www.canada.ca/etc/designs/canada/cdts/gcweb/rn/assets/sig-blk-en.svg,329.875158,0.005041,344861,1,336691,11,336702,0,8158,8158,0,0,343605,1256,2.228847,0,2,,
www.canada.ca/etc/designs/canada/cdts/gcweb/v4_0_22/js/jquery/2.1.4/jquery.min.js,329.156792,0,30665,0,10115,0,10115,0,20550,20550,0,0,30101,564,16.364058,0,0,,
www.canada.ca/etc/designs/canada/cdts/gcweb/v4_0_27/cdts/exitScript.js,327.566555,0,543654,0,195836,0,195836,0,347818,347818,0,0,542950,704,0.961863,0,0,,
www.canada.ca/etc/designs/canada/cdts/gcweb/v4_0_27/css/polyfills/datalist.min.css,325.703567,0,790053,0,262522,0,262522,0,527531,527531,0,0,789126,927,1.261973,0,0,,
www.canada.ca/etc/designs/canada/cdts/gcweb/v4_0_24/js/deps/jquery.flot.pie.min.js,316.318591,0,456814,0,53802,360,54162,0,402652,402652,0,0,456214,600,2.325044,0,0,,
www.canada.ca/etc/designs/canada/cdts/gcweb/rn/css/theme.min.css,309.467009,0,3126,0,2667,0,2667,0,459,459,0,0,2814,312,19.498288,0,0,,
www.canada.ca/etc/designs/canada/cdts/gcweb/v4_0_25/css/theme.min.css,287.786535,0,18406,0,4222,2,4224,0,14182,14182,0,0,18158,248,14.739634,0,0,,
www.canada.ca/etc/designs/canada/cdts/gcweb/v4_0_23/js/deps/jquery.magnific-popup.min.js,285.869421,0,99821,0,25407,88,25495,0,74326,74326,0,0,99347,474,3.806286,0,0,,
www.canada.ca/etc/designs/canada/cdts/gcweb/rn/assets/wmms-blk.svg,285.5122,0.970622,339832,0,334221,0,334221,0,5611,5611,0,248,338561,1271,1.988713,0,249,,
www.canada.ca/etc/designs/canada/cdts/gcweb/v4_0_26/js/deps/unorm.min.js,264.7995,0,29677,1,6451,198,6649,0,23027,23027,0,0,29277,400,14.982698,0,0,,
www.canada.ca/etc/designs/canada/cdts/gcweb/v4_0_27/js/deps/jquery.validate.min.js,260.946897,0,88417,0,28713,226,28939,0,59478,59478,0,0,87869,548,4.426847,0,0,,
www.canada.ca/etc/designs/canada/cdts/gcweb/v4_0_27/js/deps/OpenLayers.min.js,255.170521,0,1672,0,1288,56,1344,0,328,328,0,0,1604,68,13.17142,0,0,,
www.canada.ca/etc/designs/canada/cdts/gcweb/v4_0_22/assets/sig-blk-en.svg,239.05818,0.011124,284593,0,191758,2,191760,0,92833,92833,0,0,283569,1024,2.014276,0,27,,
www.canada.ca/etc/designs/canada/cdts/gcweb/v4_0_24/js/deps/jquery.flot.canvas.min.js,237.502158,0,553794,1,52514,118,52632,0,501161,501161,0,0,553209,585,1.339268,0,0,,
www.canada.ca/etc/designs/canada/cdts/gcweb/v4_0_23/assets/favicon.ico,236.221495,0,36808,0,32771,0,32771,0,4037,4037,0,0,36396,412,1.695901,0,0,,
www.canada.ca/etc/designs/canada/cdts/gcweb/v4_0_26/js/polyfills/slider.min.js,230.111035,0,38512,0,31209,0,31209,0,7303,7303,0,0,38201,311,2.155,0,0,,
www.canada.ca/etc/designs/canada/cdts/gcweb/v4_0_24/js/deps/jquery.flot.orderBars.min.js,225.549921,0,527889,1,52541,59,52600,0,475288,475288,0,0,527298,591,1.311936,0,0,,
www.canada.ca/etc/designs/canada/cdts/gcweb/v4_0_26/js/wet-boew.js,225.124899,0,6666,0,1040,0,1040,0,5626,5626,0,0,6580,86,8.119898,0,0,,
www.canada.ca/etc/designs/canada/cdts/gcweb/v4_0_27/img/splash/sp-bg-2.jpg,223.115013,0,5910,0,5242,1,5243,0,667,667,0,0,5746,164,6.125357,0,0,,
www.canada.ca/etc/designs/canada/cdts/gcweb/v4_0_24/js/wet-boew.min.js.map,215.123947,0,3559,0,1878,0,1878,0,1681,1681,0,0,3386,173,7.246814,0,0,,
www.canada.ca/etc/designs/canada/cdts/gcweb/v4_0_26/js/jquery/2.1.4/jquery.js,184.876762,0,5901,0,1452,0,1452,0,4449,4449,0,0,5839,62,4.617222,0,0,,
www.canada.ca/etc/designs/canada/cdts/gcweb/v4_0_27/assets/sprites_share.png,183.900284,0,2901,0,2449,1,2450,0,451,451,0,0,2614,287,20.392714,0,0,,
www.canada.ca/etc/designs/canada/cdts/gcweb/v4_0_27/js/deps/additional-methods.min.js,176.908838,0,79441,0,26514,216,26730,0,52711,52711,0,0,78930,511,3.023713,0,0,,
www.canada.ca/etc/designs/canada/cdts/gcweb/v4_0_23/cdts/compiled/soyutils.js,168.275538,0,65259,0,12482,0,12482,0,52777,52777,0,0,64892,367,2.405623,0,0,,
www.canada.ca/etc/designs/canada/cdts/gcweb/v4_0_26/img/splash/sp-bg-2.jpg,168.211432,0,5731,0,4096,19,4115,0,1616,1616,0,0,5474,257,9.584752,0,0,,
www.canada.ca/etc/designs/canada/cdts/gcweb/v4_0_24/css/theme.css,161.2394,0,2866,0,1894,0,1894,0,972,972,0,0,2637,229,16.588735,0,0,,
www.canada.ca/etc/designs/canada/cdts/gcweb/v4_0_22/js/deps/jquery.dataTables.min.js,143.266688,0,17456,0,4747,56,4803,0,12653,12653,0,0,17036,420,11.398781,0,0,,
www.canada.ca/etc/designs/canada/cdts/gcweb/v4_0_23/js/i18n/en.min.js,138.65441,0,81162,0,22511,56,22567,0,58595,58595,0,0,80750,412,1.312285,0,0,,
www.canada.ca/etc/designs/canada/cdts/gcweb/v4_0_23/cdts/compiled/wet-en.js,136.019179,0,63126,0,11814,0,11814,0,51312,51312,0,0,62750,376,2.377477,0,0,,
www.canada.ca/etc/designs/canada/cdts/gcweb/v4_0_22/cdts/compiled/soyutils.js,127.568757,0,35768,1,12689,4,12693,0,23074,23074,0,0,35157,611,4.056171,0,0,,
www.canada.ca/etc/designs/canada/cdts/gcweb/v4_0_22/assets/favicon.ico,121.205215,0,41996,1,23041,0,23041,0,18954,18954,0,0,41373,623,2.623423,0,0,,
www.canada.ca/etc/designs/canada/cdts/gcweb/v4_0_24/js/jquery/2.1.4/jquery.min.map,115.464881,0,3015,0,1527,0,1527,0,1488,1488,0,0,2856,159,5.417248,0,0,,
www.canada.ca/etc/designs/canada/cdts/gcweb/v4_0_22/cdts/cdtsfixes.css,113.373824,0,219656,0,31335,0,31335,0,188321,188321,0,0,218987,669,0.793812,0,0,,
www.canada.ca/etc/designs/canada/cdts/gcweb/v4_0_22/js/deps/jquery.magnific-popup.min.js,111.231647,0,33530,0,12128,112,12240,0,21290,21290,0,0,32939,591,4.812119,0,0,,
www.canada.ca/etc/designs/canada/cdts/gcweb/rn/assets/sig-blk-en.png,106.320767,0,12469,0,6150,1,6151,0,6318,6318,0,0,12173,296,4.051595,0,0,,
www.canada.ca/etc/designs/canada/cdts/gcweb/v4_0_25/assets/favicon.ico,102.620477,0,19569,0,14469,0,14469,0,5100,5100,0,0,19177,392,1.715325,0,0,,
www.canada.ca/etc/designs/canada/cdts/gcweb/v4_0_24/css/ie8-theme.min.css,102.255716,0,1896,0,1581,0,1581,0,315,315,0,0,1733,163,10.178381,0,0,,
www.canada.ca/etc/designs/canada/cdts/gcweb/v4_0_28/css/ie8-theme.min.css,102.055693,0,2063,0,1513,1,1514,0,451,549,0,0,1909,154,9.882785,0,0,,
www.canada.ca/etc/designs/canada/cdts/gcweb/v4_0_27/css/noscript.min.css,99.872077,0,111005,1,15868,0,15868,0,95136,95136,0,0,110640,365,0.509387,0,0,,
www.canada.ca/etc/designs/canada/cdts/gcweb/v4_0_27/cdts/compiled/plugins-fr.js,97.745566,0.001093,123091,0,42099,0,42099,0,80992,80992,0,0,122578,513,0.417047,0,2,,
www.canada.ca/etc/designs/canada/cdts/gcweb/v4_0_26/js/polyfills/progress.min.js,96.811098,0,96421,0,42757,0,42757,0,53664,53664,0,0,96093,328,0.474598,0,0,,
www.canada.ca/etc/designs/canada/cdts/gcweb/v4_0_27/fonts/glyphicons-halflings-regular.ttf,93.557097,0,5992,0,3467,11,3478,0,2514,2514,0,0,5512,480,8.592157,0,0,,
www.canada.ca/etc/designs/canada/cdts/gcweb/v4_0_22/fonts/glyphicons-halflings-regular.eot,93.386565,0,25279,0,3732,0,3732,0,21547,21547,0,0,24555,724,15.66285,0,0,,
www.canada.ca/etc/designs/canada/cdts/gcweb/v4_0_23/fonts/glyphicons-halflings-regular.eot,92.048435,0,22724,0,3559,0,3559,0,19165,19165,0,0,22377,347,7.560302,0,0,,
www.canada.ca/etc/designs/canada/cdts/gcweb/v4_0_28/cdts/cdtsapps.css,91.291355,0,187967,0,13642,1,13643,0,174324,174324,0,0,187751,216,0.635633,0,0,,
www.canada.ca/etc/designs/canada/cdts/gcweb/v4_0_26/css/ie8-theme.min.css,89.436634,0,2008,0,1361,0,1361,0,647,647,0,0,1773,235,14.428428,0,0,,
www.canada.ca/etc/designs/canada/cdts/gcweb/v4_0_27/cdts/cdtsnoscript.css,87.618092,0,103698,1,15413,0,15413,0,88284,88284,0,0,103341,357,0.422674,0,0,,
www.canada.ca/etc/designs/canada/cdts/gcweb/v4_0_27/js/polyfills/datepicker.min.js.map,83.613651,0,15075,0,14016,0,14016,0,1059,1059,0,0,14919,156,0.379882,0,0,,
www.canada.ca/etc/designs/canada/cdts/gcweb/v4_0_22/cdts/compiled/wet-en.js,82.041825,0,34179,1,11303,4,11307,0,22871,22871,0,0,33553,626,3.272685,0,0,,
www.canada.ca/etc/designs/canada/cdts/gcweb/v4_0_25/js/wet-boew.min.js,80.430945,0,12247,0,1547,0,1547,0,10700,10700,0,0,12122,125,5.895735,0,0,,
www.canada.ca/etc/designs/canada/cdts/gcweb/v4_0_24/fonts/glyphicons-halflings-regular.ttf,78.505029,0,3849,0,3040,4,3044,0,805,805,0,0,3363,486,7.724526,0,0,,
www.canada.ca/etc/designs/canada/cdts/gcweb/v4_0_26/js/deps/jquery.dataTables.js,77.272658,0,612,0,192,0,192,0,420,420,0,0,609,3,0.353931,0,0,,
www.canada.ca/etc/designs/canada/cdts/gcweb/v4_0_23/cdts/cdtsfixes.css,76.877613,0,51265,0,20228,0,20228,0,31037,31037,0,0,50854,411,0.717675,0,0,,
www.canada.ca/etc/designs/canada/cdts/gcweb/v4_0_22/js/deps/jquery.validate.min.js,76.760861,0,17328,0,9129,84,9213,0,8115,8115,0,0,16733,595,4.603885,0,0,,
www.canada.ca/etc/designs/canada/cdts/gcweb/v4_0_25/fonts/glyphicons-halflings-regular.woff,75.37809,0,10623,0,2926,0,2926,0,7697,7697,0,0,10399,224,5.148009,0,0,,
www.canada.ca/etc/designs/canada/cdts/gcweb/v4_0_23/js/theme.min.js,72.535794,0,52837,1,19095,0,19095,0,33741,33741,0,0,52420,417,0.666189,0,0,,
www.canada.ca/etc/designs/canada/cdts/gcweb/v4_0_26/css/polyfills/progress.min.css,71.567986,0,98506,0,43827,0,43827,0,54679,54679,0,0,98176,330,0.281524,0,0,,
www.canada.ca/etc/designs/canada/cdts/gcweb/v4_0_28/assets/sprites_share.png,71.249703,0,1039,0,948,0,948,0,91,91,0,0,880,159,11.05105,0,0,,
www.canada.ca/etc/designs/canada/cdts/gcweb/v4_0_28/js/ie8-wet-boew2.min.js,60.227074,0,1747,0,1345,0,1345,0,402,402,0,0,1586,161,6.948162,0,0,,
www.canada.ca/etc/designs/canada/cdts/gcweb/v4_0_24/js/ie8-wet-boew2.min.js,58.542824,0,1663,0,1375,0,1375,0,288,288,0,0,1505,158,6.469134,0,0,,
www.canada.ca/etc/designs/canada/cdts/gcweb/v4_0_26/js/ie8-wet-boew2.min.js,57.607514,0,1956,0,1318,0,1318,0,638,638,0,0,1725,231,9.826366,0,0,,
www.canada.ca/etc/designs/canada/cdts/gcweb/rn/assets/sig-blk-fr.svg,56.77164,0,61204,0,59773,0,59773,0,1431,1431,0,0,60496,708,1.232972,0,0,,
www.canada.ca/etc/designs/canada/cdts/gcweb/v4_0_27/css/ie8-theme.min.css,56.342894,0,1119,0,843,0,843,0,276,276,0,0,947,172,10.251022,0,0,,
www.canada.ca/etc/designs/canada/cdts/gcweb/v4_0_22/js/deps/additional-methods.min.js,54.714724,0,20345,1,8684,100,8784,0,11560,11560,0,0,19780,565,3.164404,0,0,,
www.canada.ca/etc/designs/canada/cdts/gcweb/v4_0_28/js/polyfills/datepicker.min.js.map,54.38318,0,9296,0,9020,0,9020,0,276,276,0,0,9182,114,0.255041,0,0,,
www.canada.ca/etc/designs/canada/cdts/gcweb/v4_0_27/js/ie8-wet-boew2.min.js,54.293486,0,1487,0,1209,0,1209,0,278,278,0,0,1320,167,7.059283,0,0,,
www.canada.ca/etc/designs/canada/cdts/gcweb/rn/assets/favicon.ico,54.245136,0,7045,0,6608,2,6610,0,435,435,0,0,6622,423,1.960456,0,0,,
www.canada.ca/etc/designs/canada/cdts/gcweb/v4_0_22/assets/sig-blk-fr.svg,52.992024,0.000556,75439,0,36592,0,36592,0,38847,38847,0,0,74953,486,1.013347,0,1,,
www.canada.ca/etc/designs/canada/cdts/gcweb/v4_0_28/fonts/glyphicons-halflings-regular.ttf,51.408798,0.000399,2716,0,1996,4,2000,0,716,716,0,0,2233,483,8.329917,0.000219,1,,
www.canada.ca/etc/designs/canada/cdts/gcweb/v4_0_26/js/polyfills/datepicker.min.js.map,47.245654,0,7907,0,7650,0,7650,0,257,257,0,0,7719,188,0.463166,0,0,,
www.canada.ca/etc/designs/canada/cdts/gcweb/v4_0_26/js/jquery/1.11.1/jquery.min.js,47.130266,0,1973,0,1304,0,1304,0,669,669,0,0,1746,227,7.743386,0,0,,
www.canada.ca/etc/designs/canada/cdts/gcweb/v4_0_28/js/deps/proj4.min.js,46.487717,0,3138,0,1817,29,1846,0,1292,1292,0,0,2980,158,3.80473,0,0,,
www.canada.ca/etc/designs/canada/cdts/gcweb/v4_0_26/css/polyfills/slider.min.css,45.305516,0,29070,0,22698,0,22698,0,6372,6372,0,0,28762,308,0.594856,0,0,,
www.canada.ca/etc/designs/canada/cdts/gcweb/v4_0_22/js/i18n/en.min.js,44.55104,0,42574,0,10223,46,10269,0,32305,32305,0,0,42016,558,1.800862,0,0,,
www.canada.ca/etc/designs/canada/cdts/gcweb/v4_0_25/js/jquery/2.1.4/jquery.min.js,44.159967,0,11082,0,1262,0,1262,0,9820,9820,0,0,10952,130,3.984335,0,0,,
www.canada.ca/etc/designs/canada/cdts/gcweb/v4_0_24/js/jquery/1.11.1/jquery.min.js,44.154986,0,1476,0,1201,0,1201,0,275,275,0,0,1333,143,5.026224,0,0,,
www.canada.ca/etc/designs/canada/cdts/gcweb/v4_0_26/js/theme.js,42.236963,0,5450,0,428,0,428,0,5022,5022,0,0,5427,23,0.551088,0,0,,
www.canada.ca/etc/designs/canada/cdts/gcweb/v4_0_27/css/polyfills/,38.822414,0,70164,0,0,0,0,0,0,70164,0,0,70164,0,0,0,0,,
www.canada.ca/etc/designs/canada/cdts/gcweb/v4_0_27/cdts/cdtsapps.css,37.632628,0,27729,0,8862,0,8862,0,18867,18867,0,0,27242,487,1.551338,0,0,,
www.canada.ca/etc/designs/canada/cdts/gcweb/v4_0_24/cdts/compiled/plugins-fr.js,37.520042,0,42402,0,9469,2,9471,0,32931,32931,0,0,42046,356,0.519917,0,0,,
www.canada.ca/etc/designs/canada/cdts/gcweb/v4_0_27/js/wet-boew.js,35.393107,0,327,0,163,0,163,0,164,164,0,0,313,14,1.338285,0,0,,
www.canada.ca/etc/designs/canada/cdts/gcweb/v4_0_26/js/polyfills/slider_wrapper.min.js,35.252075,0,33310,0,26395,0,26395,0,6915,6915,0,0,33014,296,0.364469,0,0,,
www.canada.ca/etc/designs/canada/cdts/gcweb/rn/assets/wmms-alt.png,34.822961,0,12435,0,6186,1,6187,0,6248,6248,0,0,12126,309,1.102843,0,0,,
www.canada.ca/etc/designs/canada/cdts/gcweb/v4_0_27/js/polyfills/meter.min.js.map,34.797705,0,14896,0,13884,0,13884,0,1012,1012,0,0,14726,170,0.232364,0,0,,
www.canada.ca/etc/designs/canada/cdts/gcweb/v4_0_24/js/ie8-wet-boew.min.js,32.899252,0,1679,0,1411,0,1411,0,268,268,0,0,1526,153,3.316588,0,0,,
www.canada.ca/etc/designs/canada/cdts/gcweb/v4_0_27/js/polyfills/details.min.js.map,32.67416,0,15223,0,14142,0,14142,0,1081,1081,0,0,15030,193,0.264801,0,0,,
www.canada.ca/etc/designs/canada/cdts/gcweb/v4_0_27/js/deps/tableparser.min.js,31.937214,0,14480,0,4439,6,4445,0,10035,10035,0,0,14180,300,1.935109,0,0,,
www.canada.ca/etc/designs/canada/cdts/gcweb/v4_0_23/js/polyfills/datepicker.min.js,30.879463,0,46302,0,4791,0,4791,0,41511,41511,0,0,46068,234,0.65732,0,0,,
www.canada.ca/etc/designs/canada/cdts/gcweb/v4_0_26/js/ie8-wet-boew.min.js,29.959721,0,1940,0,1313,0,1313,0,627,627,0,0,1706,234,5.019043,0,0,,
www.canada.ca/etc/designs/canada/cdts/gcweb/v4_0_26/cdts/cdtscustom.js,27.55027,0,22386,0,11855,0,11855,0,10531,10531,0,0,22251,135,0.273267,0,0,,
www.canada.ca/etc/designs/canada/cdts/gcweb/v4_0_28/js/ie8-wet-boew.min.js,25.939653,0,1603,0,1198,1,1199,0,404,404,0,0,1454,149,2.975465,0,0,,
www.canada.ca/etc/designs/canada/cdts/gcweb/v4_0_26/assets/sig-blk-en.png,25.0779,0,1952,0,1688,0,1688,0,264,264,0,0,1844,108,1.490684,0,0,,
www.canada.ca/etc/designs/canada/cdts/gcweb/v4_0_27/js/deps/proj4.min.js,24.340102,0,1449,0,980,9,989,0,460,460,0,0,1370,79,1.898716,0,0,,
www.canada.ca/etc/designs/canada/cdts/gcweb/v4_0_23/js/polyfills/details.min.js,23.941121,0,46364,0,5491,0,5491,0,40873,40873,0,0,46135,229,0.337116,0,0,,
www.canada.ca/etc/designs/canada/cdts/gcweb/v4_0_23/img/splash/sp-bg-2.jpg,23.53364,0,862,0,561,0,561,0,301,301,0,0,804,58,2.201715,0,0,,
www.canada.ca/etc/designs/canada/cdts/gcweb/v4_0_23/js/polyfills/meter.min.js,23.37726,0,36501,0,4208,0,4208,0,32293,32293,0,0,36315,186,0.289025,0,0,,
www.canada.ca/etc/designs/canada/cdts/gcweb/v4_0_23/css/polyfills/datepicker.min.css,23.360967,0,45880,0,4512,0,4512,0,41368,41368,0,0,45659,221,0.270049,0,0,,
www.canada.ca/etc/designs/canada/cdts/gcweb/v4_0_23/css/polyfills/meter.min.css,23.292617,0,43273,0,4058,0,4058,0,39215,39215,0,0,43084,189,0.217816,0,0,,
www.canada.ca/etc/designs/canada/cdts/gcweb/v4_0_23/js/wet-boew.min.js.map,22.983923,0,534,0,123,0,123,0,411,411,0,0,520,14,0.569445,0,0,,
www.canada.ca/etc/designs/canada/cdts/gcweb/v4_0_22/js/theme.min.js,22.710752,0,34184,0,10018,0,10018,0,24166,24166,0,0,33626,558,1.020638,0,0,,
www.canada.ca/etc/designs/canada/cdts/gcweb/v4_0_28/js/polyfills/meter.min.js.map,22.573475,0,9241,0,8984,0,8984,0,257,257,0,0,9128,113,0.153036,0,0,,
www.canada.ca/etc/designs/canada/cdts/gcweb/v4_0_28/js/deps/geomap-lib.min.js,22.266507,0,2987,0,1566,26,1592,0,1395,1395,0,0,2847,140,1.868052,0,0,,
www.canada.ca/etc/designs/canada/cdts/gcweb/v4_0_22/cdts/compiled/plugins-en.js,22.225857,0,26074,0,6177,1,6178,0,19896,19896,0,0,25599,475,0.66467,0,0,,
www.canada.ca/etc/designs/canada/cdts/gcweb/v4_0_28/js/polyfills/details.min.js.map,21.052326,0,9382,0,9104,0,9104,0,278,278,0,0,9255,127,0.146613,0,0,,
www.canada.ca/etc/designs/canada/cdts/gcweb/v4_0_23/css/polyfills/details.min.css,20.407941,0,46705,1,4799,0,4799,0,41905,41905,0,0,46497,208,0.171086,0,0,,
www.canada.ca/etc/designs/canada/cdts/gcweb/v4_0_22/js/polyfills/datepicker.min.js,20.056269,0,22073,0,4396,0,4396,0,17677,17677,0,0,21639,434,1.202659,0,0,,
www.canada.ca/etc/designs/canada/cdts/gcweb/v4_0_26/js/polyfills/meter.min.js.map,19.504426,0,7857,0,7611,0,7611,0,246,246,0,0,7681,176,0.241621,0,0,,
www.canada.ca/etc/designs/canada/cdts/gcweb/v4_0_27/js/jquery/2.1.4/jquery.js,19.00696,0,246,0,83,0,83,0,163,163,0,0,239,7,0.538347,0,0,,
www.canada.ca/etc/designs/canada/cdts/gcweb/v4_0_27/assets/sig-spl.svg,18.99561,0,11101,0,10826,0,10826,0,275,275,0,0,10734,367,0.570851,0,0,,
www.canada.ca/etc/designs/canada/cdts/gcweb/v4_0_25/cdts/compiled/soyutils.js,18.980321,0,11006,0,1318,0,1318,0,9688,9688,0,0,10886,120,0.815044,0,0,,
www.canada.ca/etc/designs/canada/cdts/gcweb/v4_0_22/assets/favicon-mobile.png,18.964278,0,10599,0,4561,0,4561,0,6038,6038,0,0,10266,333,1.206864,0,0,,
www.canada.ca/etc/designs/canada/cdts/gcweb/v4_0_26/js/polyfills/details.min.js.map,18.891576,0,8446,0,8142,0,8142,0,304,304,0,0,8240,206,0.285874,0,0,,
www.canada.ca/etc/designs/canada/cdts/gcweb/v4_0_26/assets/sig-spl.svg,18.319342,0.005596,12130,0,11468,0,11468,0,662,662,0,0,11536,594,1.062208,0,16,,
www.canada.ca/etc/designs/canada/cdts/gcweb/v4_0_25/js/theme.min.js,18.049293,0,10497,0,1252,0,1252,0,9245,9245,0,0,10380,117,1.373786,0,0,,
www.canada.ca/etc/designs/canada/cdts/gcweb/v4_0_27/cdts/cdtscustom.js,18.024167,0,19558,0,7128,0,7128,0,12430,12430,0,0,19060,498,1.01773,0,0,,
www.canada.ca/etc/designs/canada/cdts/gcweb/v4_0_27/js/jquery/1.11.1/jquery.min.js,17.695065,0,620,0,488,0,488,0,132,132,0,0,504,116,4.029155,0,0,,
www.canada.ca/etc/designs/canada/cdts/gcweb/v4_0_27/assets/wmms-spl.svg,16.747979,0,11069,0,10800,0,10800,0,269,269,0,0,10713,356,0.503386,0,0,,
www.canada.ca/etc/designs/canada/cdts/gcweb/v4_0_24/js/polyfills/slider.min.js,16.64871,0,2885,0,2187,0,2187,0,698,698,0,0,2705,180,1.26512,0,0,,
www.canada.ca/etc/designs/canada/cdts/gcweb/v4_0_25/cdts/compiled/wet-en.js,16.63917,0,12183,0,1376,0,1376,0,10807,10807,0,0,12076,107,0.763478,0,0,,
www.canada.ca/etc/designs/canada/cdts/gcweb/v4_0_26/assets/wmms-spl.svg,15.945307,0.00457,12104,0,11481,2,11483,0,621,621,0,0,11558,546,0.891723,0,14,,
www.canada.ca/etc/designs/canada/cdts/gcweb/v4_0_25/fonts/glyphicons-halflings-regular.eot,15.780331,0,5736,0,632,0,632,0,5104,5104,0,0,5563,173,3.729016,0,0,,
www.canada.ca/etc/designs/canada/cdts/gcweb/v4_0_25/js/polyfills/datepicker.min.js.map,15.723598,0,2523,0,2448,0,2448,0,75,75,0,0,2481,42,0.104053,0,0,,
www.canada.ca/etc/designs/canada/cdts/gcweb/v4_0_25/css/theme-srv.min.css,15.710186,0,930,0,409,0,409,0,521,521,0,0,877,53,1.86386,0,0,,
www.canada.ca/etc/designs/canada/cdts/gcweb/v4_0_23/js/jquery/2.1.4/jquery.min.map,15.705218,0,534,0,120,0,120,0,414,414,0,0,522,12,0.486027,0,0,,
www.canada.ca/etc/designs/canada/cdts/gcweb/v4_0_26/assets/wmms-blk.png,14.910764,0,2640,0,2286,0,2286,0,354,354,0,0,2509,131,0.683782,0,0,,
www.canada.ca/etc/designs/canada/cdts/gcweb/v4_0_22/css/polyfills/datepicker.min.css,14.125575,0,24862,0,4228,0,4228,0,20634,20634,0,0,24456,406,0.507564,0,0,,
www.canada.ca/etc/designs/canada/cdts/gcweb/v4_0_22/js/polyfills/meter.min.js,14.053361,0,19445,0,2861,0,2861,0,16584,16584,0,0,19058,387,0.698823,0,0,,
www.canada.ca/etc/designs/canada/cdts/gcweb/rn/css/noscript.min.css,13.953133,0,4330,0,3848,0,3848,0,482,482,0,0,4029,301,0.438762,0,0,,
www.canada.ca/etc/designs/canada/cdts/gcweb/v4_0_25/js/deps/jquery.dataTables.min.js,13.82952,0,1900,0,444,0,444,0,1456,1456,0,0,1857,43,1.29393,0,0,,
www.canada.ca/etc/designs/canada/cdts/gcweb/v4_0_28/js/polyfills/slider.min.js,13.670119,0,2162,0,1826,0,1826,0,336,336,0,0,2050,112,0.790744,0,0,,
www.canada.ca/etc/designs/canada/cdts/gcweb/v4_0_26/js/deps/jquery.magnific-popup.js,13.598012,0,786,0,323,0,323,0,463,463,0,0,772,14,0.208956,0,0,,
www.canada.ca/etc/designs/canada/cdts/gcweb/v4_0_25/cdts/cdtsfixes.css,13.568452,0,21066,0,3943,2,3945,0,17121,17121,0,0,20819,247,0.376607,0,0,,
www.canada.ca/etc/designs/canada/cdts/gcweb/v4_0_27/js/deps/geomap-lib.min.js,12.699838,0,1593,0,922,11,933,0,660,660,0,0,1511,82,1.1182,0,0,,
www.canada.ca/etc/designs/canada/cdts/gcweb/v4_0_24/js/deps/prettify.min.js,12.668413,0,2699,0,1638,16,1654,0,1045,1045,0,0,2549,150,1.097773,0,0,,
www.canada.ca/etc/designs/canada/cdts/gcweb/v4_0_22/css/polyfills/meter.min.css,12.201324,0,19604,0,2935,0,2935,0,16669,16669,0,0,19249,355,0.437665,0,0,,
www.canada.ca/etc/designs/canada/cdts/gcweb/v4_0_22/js/polyfills/details.min.js,12.049492,0,20468,0,3777,0,3777,0,16691,16691,0,0,20033,435,0.649952,0,0,,
www.canada.ca/etc/designs/canada/cdts/gcweb/v4_0_26/css/polyfills/,12.032511,0,18282,0,0,0,0,0,0,18282,0,0,18282,0,0,0,0,,
www.canada.ca/etc/designs/canada/cdts/gcweb/v4_0_27/js/polyfills/slider.min.js,11.746838,0,2041,0,1576,0,1576,0,465,465,0,0,1869,172,1.218157,0,0,,
www.canada.ca/etc/designs/canada/cdts/gcweb/v4_0_27/js/ie8-wet-boew.min.js,11.310812,0,617,0,493,0,493,0,124,124,0,0,507,110,2.35254,0,0,,
www.canada.ca/etc/designs/canada/cdts/gcweb/rn/cdts/cdtsnoscript.css,11.28131,0,3306,0,3305,0,3305,0,1,1,0,0,3237,69,0.080955,0,0,,
www.canada.ca/etc/designs/canada/cdts/gcweb/v4_0_22/css/polyfills/details.min.css,10.704275,0,22145,0,3490,0,3490,0,18655,18655,0,0,21759,386,0.336769,0,0,,
www.canada.ca/etc/designs/canada/cdts/gcweb/v4_0_22/cdts/compiled/wet-fr.js,10.54245,0,4137,0,1675,0,1675,0,2462,2462,0,0,3981,156,0.756178,0,0,,
www.canada.ca/etc/designs/canada/cdts/gcweb/v4_0_26/assets/sig-blk-fr.png,10.23187,0,834,0,667,0,667,0,167,167,0,0,815,19,0.261329,0,0,,
www.canada.ca/etc/designs/canada/cdts/gcweb/v4_0_22/js/i18n/fr.min.js,9.738105,0,6472,1,1846,2,1848,0,4623,4623,0,0,6309,163,0.718716,0,0,,
www.canada.ca/etc/designs/canada/cdts/gcweb/v4_0_26/css/noscript.min.css,9.62129,0,4107,0,2986,0,2986,0,1121,1121,0,0,3815,292,0.382113,0,0,,
www.canada.ca/etc/designs/canada/cdts/gcweb/v4_0_24/css/wet-boew.min.css,8.709273,0,2947,0,1847,0,1847,0,1100,1100,0,0,2720,227,0.210236,0,0,,
www.canada.ca/etc/designs/canada/cdts/gcweb/rn/css/wet-boew.min.css,8.640094,0,2663,0,2550,0,2550,0,113,113,0,0,2424,239,0.280094,0,0,,
www.canada.ca/etc/designs/canada/cdts/gcweb/v4_0_28/css/messages.min.css,8.622164,0,7053,0,5845,0,5845,0,1208,1208,0,0,6558,495,0.789419,0,0,,
www.canada.ca/etc/designs/canada/cdts/gcweb/v4_0_25/js/deps/jquery.magnific-popup.min.js,8.621874,0,5198,0,807,6,813,0,4385,4385,0,0,5071,127,1.070526,0,0,,
www.canada.ca/etc/designs/canada/cdts/gcweb/v4_0_24/js/polyfills/progress.min.js,8.545777,0,8262,0,4120,0,4120,0,4142,4142,0,0,8036,226,0.323395,0,0,,
www.canada.ca/etc/designs/canada/cdts/gcweb/v4_0_22/js/polyfills/datalist.min.js,8.248305,0,6959,0,2595,0,2595,0,4364,4364,0,0,6754,205,0.541449,0,0,,
www.canada.ca/etc/designs/canada/cdts/gcweb/rn/cdts/compiled/plugins-en.js,8.212136,0,13569,0,7133,0,7133,0,6436,6436,0,0,12988,581,0.383815,0,0,,
www.canada.ca/etc/designs/canada/cdts/gcweb/v4_0_27/assets/mediacontrols.html,7.382252,0,5954,0,5338,0,5338,0,616,616,0,0,4297,1657,2.189117,0,0,,
www.canada.ca/etc/designs/canada/cdts/gcweb/v4_0_28/cdts/compiled/plugins-en.js,7.119287,0,7638,0,2307,0,2307,0,5331,5331,0,0,7594,44,0.028606,0,0,,
www.canada.ca/etc/designs/canada/cdts/gcweb/v4_0_25/js/polyfills/meter.min.js.map,6.334326,0,2513,0,2443,0,2443,0,70,70,0,0,2472,41,0.060615,0,0,,
www.canada.ca/etc/designs/canada/cdts/gcweb/v4_0_25/js/i18n/en.min.js,6.328609,0,6678,0,1394,2,1396,0,5282,5282,0,0,6551,127,0.409748,0,0,,
www.canada.ca/etc/designs/canada/cdts/gcweb/v4_0_28/js/polyfills/progress.min.js,6.257535,0,6048,0,3153,0,3153,0,2895,2895,0,0,5849,199,0.273319,0,0,,
www.canada.ca/etc/designs/canada/cdts/gcweb/v4_0_26/css/messages.min.css,6.127889,0,5397,0,4075,0,4075,0,1322,1322,0,0,5130,267,0.447268,0,0,,
www.canada.ca/etc/designs/canada/cdts/gcweb/v4_0_25/js/polyfills/details.min.js.map,5.851237,0,2528,0,2451,0,2451,0,77,77,0,0,2487,41,0.059513,0,0,,
www.canada.ca/etc/designs/canada/cdts/gcweb/v4_0_26/cdts/cdtsnoscript.css,5.621434,0,2337,0,1816,0,1816,0,521,521,0,0,2243,94,0.098636,0,0,,
www.canada.ca/etc/designs/canada/cdts/gcweb/v4_0_26/js/i18n/en.js,5.282387,0,4111,0,360,0,360,0,3751,3751,0,0,4093,18,0.065255,0,0,,
www.canada.ca/etc/designs/canada/cdts/gcweb/v4_0_28/assets/mediacontrols.html,5.104216,0,4464,0,4000,0,4000,0,464,464,0,0,2442,2022,2.633581,0.000472,0,,
www.canada.ca/etc/designs/canada/cdts/gcweb/v4_0_24/css/polyfills/progress.min.css,4.957631,0,7021,0,3592,0,3592,0,3429,3429,0,0,6790,231,0.17177,0,0,,
www.canada.ca/etc/designs/canada/cdts/gcweb/v4_0_24/css/polyfills/slider.min.css,4.872994,0,3086,0,2320,0,2320,0,766,766,0,0,2901,185,0.342812,0,0,,
www.canada.ca/etc/designs/canada/cdts/gcweb/v4_0_25/js/polyfills/datepicker.min.js,4.84296,0,7559,0,749,0,749,0,6810,6810,0,0,7482,77,0.20536,0,0,,
www.canada.ca/etc/designs/canada/cdts/gcweb/v4_0_23/js/polyfills/datalist.min.js,4.736764,0,4749,0,1518,0,1518,0,3231,3231,0,0,4542,207,0.564362,0,0,,
www.canada.ca/etc/designs/canada/cdts/gcweb/v4_0_25/css/noscript.min.css,4.479748,0,7004,0,1409,0,1409,0,5595,5595,0,0,6839,165,0.223846,0,0,,
www.canada.ca/etc/designs/canada/cdts/gcweb/v4_0_22/js/wet-boew.min.js.map,4.440379,0,560,0,60,0,60,0,500,500,0,0,545,15,0.834666,0,0,,
www.canada.ca/etc/designs/canada/cdts/gcweb/v4_0_23/cdts/compiled/wet-fr.js,4.357242,0,1551,0,519,0,519,0,1032,1032,0,0,1473,78,0.475214,0,0,,
www.canada.ca/etc/designs/canada/cdts/gcweb/rn/cdts/cdtsfixes.css,4.283293,0,1546,0,1306,0,1306,0,240,240,0,0,1408,138,0.178006,0,0,,
www.canada.ca/etc/designs/canada/cdts/gcweb/v4_0_22/js/jquery/2.1.4/jquery.min.map,4.119078,0,560,0,64,0,64,0,496,496,0,0,543,17,0.705184,0,0,,
www.canada.ca/etc/designs/canada/cdts/gcweb/v4_0_23/assets/sig-spl.svg,4.052925,0.000325,2835,0,2727,0,2727,0,108,108,0,0,2571,264,0.38759,0,1,,
www.canada.ca/etc/designs/canada/cdts/gcweb/v4_0_23/js/i18n/fr.min.js,3.972346,0,2503,0,737,4,741,0,1762,1762,0,0,2402,101,0.438234,0,0,,
www.canada.ca/etc/designs/canada/cdts/gcweb/v4_0_28/css/polyfills/slider.min.css,3.952254,0,2420,0,2003,0,2003,0,417,417,0,0,2288,132,0.228979,0,0,,
www.canada.ca/etc/designs/canada/cdts/gcweb/v4_0_28/css/polyfills/progress.min.css,3.836051,0,5334,0,2883,0,2883,0,2451,2451,0,0,5152,182,0.120603,0,0,,
www.canada.ca/etc/designs/canada/cdts/gcweb/v4_0_25/cdts/compiled/wet-fr.js,3.832561,0,1904,0,309,0,309,0,1595,1595,0,0,1867,37,0.25079,0,0,,
www.canada.ca/etc/designs/canada/cdts/gcweb/v4_0_27/js/polyfills/progress.min.js,3.810879,0,3019,0,2172,0,2172,0,847,847,0,0,2820,199,0.300786,0,0,,
www.canada.ca/etc/designs/canada/cdts/gcweb/v4_0_24/js/polyfills/slider_wrapper.min.js,3.700554,0,3276,0,2567,0,2567,0,709,709,0,0,3091,185,0.246216,0,0,,
www.canada.ca/etc/designs/canada/cdts/gcweb/v4_0_24/css/polyfills/,3.688389,0,6144,0,0,0,0,0,0,6144,0,0,6144,0,0,0,0,,
www.canada.ca/etc/designs/canada/cdts/gcweb/v4_0_23/assets/wmms-spl.svg,3.680723,0.00065,2818,0,2747,0,2747,0,71,71,0,0,2565,253,0.332162,0,2,,
www.canada.ca/etc/designs/canada/cdts/gcweb/v4_0_26/js/deps/prettify.min.js,3.672322,0,1085,0,466,0,466,0,619,619,0,0,1080,5,0.038515,0,0,,
www.canada.ca/etc/designs/canada/cdts/gcweb/v4_0_23/assets/favicon-mobile.png,3.656585,0,1875,0,939,0,939,0,936,936,0,0,1761,114,0.410564,0,0,,
www.canada.ca/etc/designs/canada/cdts/gcweb/v4_0_25/js/polyfills/meter.min.js,3.506304,0,7925,0,409,0,409,0,7516,7516,0,0,7878,47,0.064079,0,0,,
www.canada.ca/etc/designs/canada/cdts/gcweb/v4_0_25/css/polyfills/details.min.css,3.404072,0,9333,0,505,0,505,0,8828,8828,0,0,9264,69,0.052826,0,0,,
www.canada.ca/etc/designs/canada/cdts/gcweb/v4_0_28/css/polyfills/,3.34831,0,5312,0,0,0,0,0,0,5312,0,0,5312,0,0,0,0,,
www.canada.ca/etc/designs/canada/cdts/gcweb/v4_0_25/css/polyfills/meter.min.css,3.234312,0,8243,0,442,0,442,0,7801,7801,0,0,8187,56,0.051117,0,0,,
www.canada.ca/etc/designs/canada/cdts/gcweb/v4_0_25/css/polyfills/datepicker.min.css,3.072926,0,6575,0,669,0,669,0,5906,5906,0,0,6500,75,0.071085,0,0,,
www.canada.ca/etc/designs/canada/cdts/gcweb/v4_0_27/css/polyfills/slider.min.css,3.057735,0,1916,0,1458,0,1458,0,458,458,0,0,1745,171,0.323458,0,0,,
www.canada.ca/etc/designs/canada/cdts/gcweb/v4_0_25/js/polyfills/details.min.js,3.057573,0,7681,0,567,0,567,0,7114,7114,0,0,7610,71,0.099558,0,0,,
www.canada.ca/etc/designs/canada/cdts/gcweb/v4_0_28/js/polyfills/slider_wrapper.min.js,2.703958,0,2338,0,1965,0,1965,0,373,373,0,0,2220,118,0.151956,0,0,,
www.canada.ca/etc/designs/canada/cdts/gcweb/v4_0_24/js/polyfills/datepicker.min.js.map,2.674171,0,566,0,553,0,553,0,13,13,0,0,534,32,0.074366,0,0,,
www.canada.ca/etc/designs/canada/cdts/gcweb/v4_0_22/css/polyfills/datalist.min.css,2.613665,0,5060,0,2353,0,2353,0,2707,2707,0,0,4862,198,0.197722,0,0,,
www.canada.ca/etc/designs/canada/cdts/gcweb/v4_0_27/css/polyfills/progress.min.css,2.563448,0,3267,0,2333,0,2333,0,934,934,0,0,3056,211,0.16222,0,0,,
www.canada.ca/etc/designs/canada/cdts/gcweb/v4_0_28/js/deps/unorm.min.js,2.317404,0,162,0,58,0,58,0,104,104,0,0,152,10,0.390554,0,0,,
www.canada.ca/etc/designs/canada/cdts/gcweb/v4_0_27/js/polyfills/slider_wrapper.min.js,2.10445,0,1907,0,1493,0,1493,0,414,414,0,0,1728,179,0.227776,0,0,,
www.canada.ca/etc/designs/canada/cdts/gcweb/v4_0_25/js/i18n/fr.min.js,1.938659,0,2052,0,283,0,283,0,1769,1769,0,0,2011,41,0.192334,0,0,,
www.canada.ca/etc/designs/canada/cdts/gcweb/v4_0_23/css/polyfills/datalist.min.css,1.75816,0,4475,0,1295,0,1295,0,3180,3180,0,0,4280,195,0.199958,0,0,,
www.canada.ca/etc/designs/canada/cdts/gcweb/v4_0_22/css/noscript.min.css,1.682851,0,1122,0,761,0,761,0,361,361,0,0,990,132,0.158793,0,0,,
www.canada.ca/etc/designs/canada/cdts/gcweb/v4_0_23/cdts/compiled/plugins-en.js,1.561446,0,1408,0,41,0,41,0,1367,1367,0,0,1378,30,0.037404,0,0,,
www.canada.ca/etc/designs/canada/cdts/gcweb/v4_0_25/js/deps/template.min.js,1.481414,0,3327,0,466,0,466,0,2861,2861,0,0,3267,60,0.05764,0,0,,
www.canada.ca/etc/designs/canada/cdts/gcweb/v4_0_23/js/deps/jquery.dataTables.min.js,1.465251,0,1317,0,32,0,32,0,1285,1285,0,0,1300,17,0.489529,0,0,,
www.canada.ca/etc/designs/canada/cdts/gcweb/rn/cdts/compiled/plugins-fr.js,1.406711,0,2229,0,1080,0,1080,0,1149,1149,0,0,2088,141,0.080306,0,0,,
www.canada.ca/etc/designs/canada/cdts/gcweb/v4_0_22/cdts/compiled/plugins-fr.js,1.398491,0,1479,0,454,0,454,0,1025,1025,0,0,1411,68,0.090326,0,0,,
www.canada.ca/etc/designs/canada/cdts/gcweb/v4_0_27/assets/cloud-popup-relative.png,1.396448,0,601,0,308,1,309,0,292,292,0,0,563,38,0.158186,0,0,,
www.canada.ca/etc/designs/canada/cdts/gcweb/v4_0_27/css/polyfills.html,1.393291,0,2969,0,2969,0,2969,0,0,0,0,0,0,2977,1.239661,0,0,,
www.canada.ca/etc/designs/canada/cdts/gcweb/v4_0_28/assets/zoom-world-mini.png,1.324424,0,1467,0,1033,0,1033,0,434,434,0,0,1353,114,0.143606,0,0,,
www.canada.ca/etc/designs/canada/cdts/gcweb/v4_0_22/img/splash/sp-bg-2.jpg,1.317972,0,71,0,31,0,31,0,40,40,0,0,66,5,0.193164,0,0,,
www.canada.ca/etc/designs/canada/cdts/gcweb/v4_0_26/js/polyfills/details.js,1.276995,0,933,0,424,0,424,0,509,509,0,0,895,38,0.079502,0,0,,
www.canada.ca/etc/designs/canada/cdts/gcweb/v4_0_24/js/polyfills/meter.min.js.map,1.245638,0,560,0,547,0,547,0,13,13,0,0,518,42,0.059298,0,0,,
www.canada.ca/etc/designs/canada/cdts/gcweb/v4_0_25/assets/favicon-mobile.png,1.223622,0,1467,0,239,0,239,0,1228,1228,0,0,1432,35,0.125307,0,0,,
www.canada.ca/etc/designs/canada/cdts/gcweb/v4_0_24/js/polyfills/details.min.js.map,1.218193,0,585,0,567,0,567,0,18,18,0,0,550,35,0.039844,0,0,,
www.canada.ca/etc/designs/canada/cdts/gcweb/v4_0_28/img/splash/sp-bg-2.jpg,1.080614,0,69,0,25,0,25,0,44,44,0,0,64,5,0.19295,0,0,,
www.canada.ca/etc/designs/canada/cdts/gcweb/v4_0_25/assets/wmms-blk.png,0.908244,0,205,0,176,0,176,0,29,29,0,0,195,10,0.056212,0,0,,
www.canada.ca/etc/designs/canada/cdts/gcweb/v4_0_23/js/polyfills/datepicker.min.js.map,0.864543,0,516,0,108,0,108,0,408,408,0,0,504,12,0.034328,0,0,,
www.canada.ca/etc/designs/canada/cdts/gcweb/v4_0_26/js/deps/lang-sql.min.js,0.863849,0,1056,0,456,0,456,0,600,600,0,0,1051,5,0.009,0,0,,
www.canada.ca/etc/designs/canada/cdts/gcweb/v4_0_23/css/messages.min.css,0.857423,0,717,0,506,0,506,0,211,211,0,0,669,48,0.070576,0,0,,
www.canada.ca/etc/designs/canada/cdts/gcweb/v4_0_26/js/polyfills/svg.min.js,0.83841,0,1139,0,541,0,541,0,598,598,0,0,1050,89,0.104412,0,0,,
www.canada.ca/etc/designs/canada/cdts/gcweb/v4_0_28/assets/sig-spl.svg,0.795557,0,323,0,157,0,157,0,166,166,0,0,294,29,0.085603,0,0,,
www.canada.ca/etc/designs/canada/cdts/gcweb/v4_0_28/css/noscript.min.css,0.762644,0,688,0,665,0,665,0,23,23,0,0,681,7,0.011703,0,0,,
www.canada.ca/etc/designs/canada/cdts/gcweb/v4_0_28/assets/zoom-plus-mini.png,0.761236,0,1073,0,799,0,799,0,274,274,0,0,995,78,0.070173,0,0,,
www.canada.ca/etc/designs/canada/cdts/gcweb/v4_0_28/js/deps/prettify.min.js,0.756837,0,770,0,66,0,66,0,704,704,0,0,757,13,0.106524,0,0,,
www.canada.ca/etc/designs/canada/cdts/gcweb/v4_0_28/assets/zoom-minus-mini.png,0.668724,0,850,0,751,0,751,0,99,99,0,0,770,80,0.070326,0,0,,
www.canada.ca/etc/designs/canada/cdts/gcweb/v4_0_27/assets/zoom-world-mini.png,0.642667,0,654,0,632,1,633,0,21,21,0,0,597,57,0.071101,0,0,,
www.canada.ca/etc/designs/canada/cdts/gcweb/v4_0_25/js/polyfills/datalist.min.js,0.625661,0,276,0,255,0,255,0,21,21,0,0,272,4,0.01065,0,0,,
www.canada.ca/etc/designs/canada/cdts/gcweb/v4_0_27/css/polyfills,0.570675,0,1372,0,0,0,0,0,0,1372,0,0,1372,0,0,0,0,,
www.canada.ca/etc/designs/canada/cdts/gcweb/v4_0_28/assets/wmms-spl.svg,0.546753,0,252,0,124,0,124,0,128,128,0,0,230,22,0.065299,0,0,,
www.canada.ca/etc/designs/canada/cdts/gcweb/v4_0_28/cdts/cdtsnoscript.css,0.536111,0,686,0,511,0,511,0,175,175,0,0,678,8,0.00726,0,0,,
www.canada.ca/etc/designs/canada/cdts/gcweb/v4_0_26/js/deps/jquery.flot.min.js,0.53402,0,108,0,36,0,36,0,72,72,0,0,97,11,0.156011,0,0,,
www.canada.ca/etc/designs/canada/cdts/gcweb/v4_0_27/assets/zoom-minus-mini.png,0.505328,0,661,0,638,1,639,0,22,22,0,0,601,60,0.055515,0,0,,
www.canada.ca/etc/designs/canada/cdts/gcweb/v4_0_22/cdts/exitScript.js,0.503843,0,959,0,182,0,182,0,777,777,0,0,933,26,0.039388,0,0,,
www.canada.ca/etc/designs/canada/cdts/gcweb/v4_0_27/assets/zoom-plus-mini.png,0.492448,0,659,0,631,1,632,0,27,27,0,0,600,59,0.054129,0,0,,
www.canada.ca/etc/designs/canada/cdts/gcweb/v4_0_23/js/polyfills/meter.min.js.map,0.45216,0,507,0,108,0,108,0,399,399,0,0,495,12,0.016068,0,0,,
www.canada.ca/etc/designs/canada/cdts/gcweb/v4_0_23/js/polyfills/details.min.js.map,0.437115,0,522,0,109,0,109,0,413,413,0,0,510,12,0.014389,0,0,,
www.canada.ca/etc/designs/canada/cdts/gcweb/v4_0_26/css/polyfills/datepicker.css,0.415952,0,748,0,26,0,26,0,722,722,0,0,735,13,0.016129,0,0,,
www.canada.ca/etc/designs/canada/cdts/gcweb/v4_0_25/js/deps/jquery.validate.min.js,0.378066,0,151,0,39,0,39,0,112,112,0,0,141,10,0.082426,0,0,,
www.canada.ca/etc/designs/canada/cdts/gcweb/v4_0_22/js/polyfills/datepicker.min.js.map,0.352053,0,542,0,57,0,57,0,485,485,0,0,528,14,0.040704,0,0,,
www.canada.ca/etc/designs/canada/cdts/gcweb/v4_0_26/js/polyfills/datepicker.js,0.340958,0,506,0,19,0,19,0,487,487,0,0,497,9,0.033101,0,0,,
www.canada.ca/etc/designs/canada/cdts/gcweb/v4_0_22/assets/wmms-spl.svg,0.340134,0,225,0,220,0,220,0,5,5,0,0,197,28,0.051778,0,0,,
www.canada.ca/etc/designs/canada/cdts/gcweb/v4_0_26/js/polyfills/meter.js,0.333434,0,559,0,24,0,24,0,535,535,0,0,549,10,0.021251,0,0,,
www.canada.ca/etc/designs/canada/cdts/gcweb/v4_0_22/js/polyfills/datalist.min.js.map,0.314624,0,540,0,53,0,53,0,487,487,0,0,528,12,0.041128,0,0,,
www.canada.ca/etc/designs/canada/cdts/gcweb/v4_0_26/css/polyfills/details.css,0.314387,0,655,0,11,0,11,0,644,644,0,0,644,11,0.013801,0,0,,
www.canada.ca/etc/designs/canada/cdts/gcweb/v4_0_26/css/polyfills/meter.css,0.278036,0,463,0,11,0,11,0,452,452,0,0,455,8,0.007896,0,0,,
www.canada.ca/etc/designs/canada/cdts/gcweb/v4_0_22/assets/sig-spl.svg,0.276728,0,172,0,170,0,170,0,2,2,0,0,152,20,0.037236,0,0,,
www.canada.ca/etc/designs/canada/cdts/gcweb/v4_0_26/js/deps/tableparser.min.js,0.2553,0,106,0,34,0,34,0,72,72,0,0,96,10,0.066073,0,0,,
www.canada.ca/etc/designs/canada/cdts/gcweb/v4_0_23/css/noscript.min.css,0.221289,0,123,0,80,0,80,0,43,43,0,0,114,9,0.00947,0,0,,
www.canada.ca/etc/designs/canada/cdts/gcweb/v4_0_27/js/theme.js,0.199255,0,119,0,7,0,7,0,112,112,0,0,118,1,0.024483,0,0,,
www.canada.ca/etc/designs/canada/cdts/gcweb/v4_0_26/css/polyfills.html,0.192945,0,410,0,410,0,410,0,0,0,0,0,15,395,0.166243,0,0,,
www.canada.ca/etc/designs/canada/cdts/gcweb/v4_0_25/js/deps/additional-methods.min.js,0.173464,0,53,0,28,0,28,0,25,25,0,0,48,5,0.029394,0,0,,
www.canada.ca/etc/designs/canada/cdts/gcweb/v4_0_22/css/polyfills/,0.165182,0,276,0,0,0,0,0,0,276,0,0,276,0,0,0,0,,
www.canada.ca/etc/designs/canada/cdts/gcweb/v4_0_25/css/polyfills/datalist.min.css,0.164519,0,266,0,188,0,188,0,78,78,0,0,256,10,0.008724,0,0,,
www.canada.ca/etc/designs/canada/cdts/gcweb/v4_0_27/js/deps/jquery.magnific-popup.js,0.161026,0,173,0,8,0,8,0,165,165,0,0,172,1,0.015078,0,0,,
www.canada.ca/etc/designs/canada/cdts/gcweb/v4_0_27/js/deps/prettify.min.js,0.147339,0,157,0,15,0,15,0,142,142,0,0,154,3,0.022843,0,0,,
www.canada.ca/etc/designs/canada/cdts/gcweb/v4_0_26/js/deps/jquery.flot.pie.min.js,0.129593,0,104,0,30,0,30,0,74,74,0,0,94,10,0.040504,0,0,,
www.canada.ca/etc/designs/canada/cdts/gcweb/v4_0_26/js/deps/template.js,0.120825,0,208,0,8,0,8,0,200,200,0,0,205,3,0.003732,0,0,,
www.canada.ca/etc/designs/canada/cdts/gcweb/v4_0_22/assets/:5054,0.113475,6.503276,429,0,0,0,0,0,0,429,0,10547,429,0,0,0,10547,,
www.canada.ca/etc/designs/canada/cdts/gcweb/v4_0_26/css/polyfills,0.087343,0,210,0,0,0,0,0,0,210,0,0,210,0,0,0,0,,
www.canada.ca/etc/designs/canada/cdts/gcweb/v4_0_25/cdts/compiled/plugins-en.js,0.083099,0,108,0,27,0,27,0,81,81,0,0,97,11,0.013631,0,0,,
www.canada.ca/etc/designs/canada/cdts/gcweb/v4_0_26/js/deps/jquery.flot.canvas.min.js,0.077115,0,105,0,28,0,28,0,77,77,0,0,95,10,0.021907,0,0,,
www.canada.ca/etc/designs/canada/cdts/gcweb/v4_0_26/js/deps/jquery.flot.orderBars.min.js,0.076797,0,106,0,26,0,26,0,80,80,0,0,95,11,0.01884,0,0,,
www.canada.ca/etc/designs/canada/cdts/gcweb/v4_0_26/css/,0.074743,0,134,0,0,0,0,0,0,134,0,0,134,0,0,0,0,,
www.canada.ca/etc/designs/canada/cdts/gcweb/v4_0_27/css/,0.072896,0,112,0,0,0,0,0,0,112,0,0,112,0,0,0,0,,
www.canada.ca/etc/designs/canada/cdts/gcweb/v4_0_24/js/polyfills/svg.min.js,0.070717,0,126,0,32,0,32,0,94,94,0,0,116,10,0.00991,0,0,,
www.canada.ca/etc/designs/canada/cdts/gcweb/v4_0_27/assets/,0.070453,0,164,0,0,0,0,0,0,164,0,0,164,0,0,0,0,,
www.canada.ca/etc/designs/canada/cdts/gcweb/v4_0_27/css/messages.min.css,0.060082,0,52,0,49,0,49,0,3,3,0,0,47,5,0.007625,0,0,,
www.canada.ca/etc/designs/canada/cdts/gcweb/v4_0_28/cdts/cdtscustom.js,0.052547,0,188,0,3,0,3,0,185,185,0,0,186,2,0.00427,0,0,,
www.canada.ca/etc/designs/canada/cdts/gcweb/v4_0_23/css/polyfills/,0.043322,0,96,0,0,0,0,0,0,96,0,0,96,0,0,0,0,,
www.canada.ca/etc/designs/canada/cdts/gcweb/v4_0_27/js/i18n/en.js,0.03921,0,94,0,7,0,7,0,87,87,0,0,92,2,0.007422,0,0,,
www.canada.ca/etc/designs/canada/cdts/gcweb/v4_0_22/css/polyfills/progress.min.css,0.035239,0,50,0,50,0,50,0,0,0,0,0,45,5,0.002752,0,0,,
www.canada.ca/etc/designs/canada/cdts/gcweb/v4_0_26/cdts/,0.02993,0,74,0,0,0,0,0,0,74,0,0,74,0,0,0,0,,
www.canada.ca/etc/designs/canada/cdts/gcweb/v4_0_23/assets/:5054,0.020379,0,61,0,0,0,0,0,0,61,0,0,61,0,0,0,0,,
www.canada.ca/etc/designs/canada/cdts/gcweb/v4_0_27/cdts/,0.02005,0,50,0,0,0,0,0,0,50,0,0,50,0,0,0,0,,
www.canada.ca/etc/designs/canada/wet-boew/cdts/cdtsfixes.css,0,2.964612,0,0,0,0,0,0,0,0,333,333,0,0,0,1.5437,333,,
www.canada.ca/etc/designs/canada/cdts/gcweb/v4_0_28/js/jquery/1.11.1/jquery.min.js,0,28.698649,0,0,0,0,0,0,0,0,4870,4870,0,0,0,9.300174,4870,,
www.canada.ca/etc/designs/canada/cdts/gcweb/v4_0_28/js/i18n/ko-x-mtfrom-en.min.js,0,0.546867,0,0,0,0,0,0,0,0,108,108,0,0,0,0.020979,108,,
www.canada.ca/etc/designs/canada/cdts/gcweb/v4_0_28/js/i18n/.min.js,0,0.346097,0,0,0,0,0,0,0,0,63,63,0,0,0,0.04112,63,,
"www.canada.ca/etc/designs/canada/cdts/gcweb/v4_0_28/fonts/gcweb_0c4a4eb7974d0a7287c93c02965f9b3f.eot),%20url(../fonts/gcweb_0c4a4eb7974d0a7287c93c02965f9b3f.eot",0,0.345558,0,0,0,0,0,0,0,0,53,53,0,0,0,0.103656,53,,
www.canada.ca/etc/designs/canada/cdts/gcweb/v4_0_27/wet-boew/js/wet-boew.min.js,0,13.185802,0,0,0,0,0,0,0,0,2126,2126,0,0,0,5.291341,2126,,
www.canada.ca/etc/designs/canada/cdts/gcweb/v4_0_27/js/i18n/ja-x-mtfrom-en.min.js,0,0.33029,0,0,0,0,0,0,0,0,64,64,0,0,0,0.047116,64,,
www.canada.ca/etc/designs/canada/cdts/gcweb/v4_0_27/js/i18n/en-US.min.js,0,5.563115,0,0,0,0,0,0,0,0,1079,1079,0,0,0,0.948742,1079,,
"www.canada.ca/etc/designs/canada/cdts/gcweb/v4_0_27/fonts/gcweb_0c4a4eb7974d0a7287c93c02965f9b3f.eot),%20url(../fonts/gcweb_0c4a4eb7974d0a7287c93c02965f9b3f.eot",0,4.689288,0,0,0,0,0,0,0,0,790,790,0,0,0,1.298702,790,,
www.canada.ca/etc/designs/canada/cdts/gcweb/v4_0_27/cdts/compiled/wet-.js,0,1.868017,0,0,0,0,0,0,0,0,358,358,0,0,0,1.235999,358,,
www.canada.ca/etc/designs/canada/cdts/gcweb/v4_0_27/assets/sig-blk-.svg,0,1.157779,0,0,0,0,0,0,0,0,273,273,0,0,0,0.829545,273,,
www.canada.ca/etc/designs/canada/cdts/gcweb/v4_0_26/js/i18n/ru-x-mtfrom-en.min.js,0,0.272595,0,0,0,0,0,0,0,0,53,53,0,0,0,0.019179,53,,
www.canada.ca/etc/designs/canada/cdts/gcweb/v4_0_26/js/i18n/en-US.js,0,5.560409,0,0,0,0,0,0,0,0,1081,1081,0,0,0,0.942404,1081,,
www.canada.ca/etc/designs/canada/cdts/gcweb/v4_0_26/js/i18n/.min.js,0,5.104574,0,0,0,0,0,0,0,0,941,941,0,0,0,2.315829,941,,
"www.canada.ca/etc/designs/canada/cdts/gcweb/v4_0_26/fonts/gcweb_0c4a4eb7974d0a7287c93c02965f9b3f.eot),url(../fonts/gcweb_0c4a4eb7974d0a7287c93c02965f9b3f.eot",0,2.416697,0,0,0,0,0,0,0,0,366,366,0,0,0,0.194501,366,,
"www.canada.ca/etc/designs/canada/cdts/gcweb/v4_0_26/fonts/gcweb_0c4a4eb7974d0a7287c93c02965f9b3f.eot),%20url(../fonts/gcweb_0c4a4eb7974d0a7287c93c02965f9b3f.eot",0,37.213472,0,0,0,0,0,0,0,0,6271,6271,0,0,0,4.712851,6271,,
www.canada.ca/etc/designs/canada/cdts/gcweb/v4_0_26/cdts/compiled/%27+soy.$$escapeHtml(d.href)+%27,0,0.37534,0,0,0,0,0,0,0,0,52,52,0,0,0,0.064514,52,,
www.canada.ca/etc/designs/canada/cdts/gcweb/v4_0_26/cdts/compiled/%22+wet.builder.environment(a)+%22cdts/cdtsfixes.css,0,0.34716,0,0,0,0,0,0,0,0,50,50,0,0,0,0.031054,50,,
www.canada.ca/etc/designs/canada/cdts/gcweb/v4_0_26/cdts/compiled/%22+wet.builder.environment(a)+,0,1.372574,0,0,0,0,0,0,0,0,202,202,0,0,0,0.06754,202,,
www.canada.ca/etc/designs/canada/cdts/gcweb/v4_0_26/assets/myBall.cur,0,0.332261,0,0,0,0,0,0,0,0,64,64,0,0,0,0.010505,64,,
www.canada.ca/etc/designs/canada/cdts/gcweb/v4_0_24/js/i18n/.min.js,0,23.882254,0,0,0,0,0,0,0,0,4549,4549,0,0,0,6.716682,4549,,
www.canada.ca/etc/designs/canada/cdts/gcweb/v4_0_23/assets/:5054.html,0,0.308644,0,0,0,0,0,0,0,0,61,61,0,0,0,0.041628,61,,
www.canada.ca/etc/designs/canada/cdts/gcweb/v4_0_22/assets/:5054.html,0,2.177672,0,0,0,0,0,0,0,0,423,429,0,0,0,0.020818,429,,
www.canada.ca/etc/designs/canada/cdts/gcweb/rn/cdts/compiled/%22+wet.builder.environment(a)+,0,2.03772,0,0,0,0,0,0,0,0,301,301,0,0,0,0.219073,301,,
www.canada.ca/etc/designs/canada/cdts/gcweb/rn/GCWeb/assets/wmms-blk.svg,0,0.204209,0,0,0,0,0,0,0,0,321,321,0,0,0,0.040991,321,,
www.canada.ca/etc/designs/canada/cdts/app/cls/wet/gcweb/v4_0_22/js/compiled/wet-en.js,0,12.39284,0,0,0,0,0,0,0,0,2466,2466,0,0,0,9.990642,2466,,
www.canada.ca/etc/designs/canada/cdts/app/cls/wet/gcweb/v4_0_22/js/compiled/soyutils.js,0,13.122884,0,0,0,0,0,0,0,0,2544,2544,0,0,0,10.886721,2544,,
mws.download.akamai.com/$(SERVE_503)/etc/designs/canada/cdts/gcweb/v4_0_28/assets/sig-blk-en.svg,0,0.04887,0,0,0,0,0,0,0,0,0,0,0,0,0,0,54,,
# ROW_DATA_END,,,,,,,,,,,,,,,,,,,
