# HEADER_START
time_zone,GMT
end_date,20180331
time_zone_offset,0
cpcode,580006,371633,600833,371632,643315,652942,643313,653432,653431,653430,675790,658393,368226,368225,653429,643310,653406,653405,643311
start_date,20180301
# HEADER_END
# COLUMN_DEFINITION_START
"URL","Ok Volume (MB)","Error Volume (MB)","Ok Hits","0XX","200","206","2XX","302","304","3XX","404","4XX","Offloaded Hits","Origin Hits","Origin OK Volume (MB)","Origin Error Volume (MB)","Error Hits"
# COLUMN_DEFINITION_END

# ROW_DATA_START
www.canada.ca/etc/designs/canada/cdts/gcweb/v4_0_26/css/theme.min.css,278157.6439,0,35711380,0,4083452,293,4083745,0,31627635,31627635,0,0,35709220,2160,58.511067,0.006151,0
www.canada.ca/etc/designs/canada/cdts/gcweb/v4_0_26/js/wet-boew.min.js,212244.310583,0,28518242,0,3995285,846,3996131,0,24522111,24522111,0,0,28516191,2051,45.122187,0.011305,0
www.canada.ca/etc/designs/canada/cdts/gcweb/v4_0_24/css/theme.min.css,204476.568526,0,11200438,0,3122384,456,3122840,0,8077598,8077598,0,0,11198478,1960,59.357513,0.00893,0
www.canada.ca/etc/designs/canada/cdts/gcweb/v4_0_26/js/jquery/2.1.4/jquery.min.js,152917.140428,0.118702,51073534,0,4044609,1543,4046152,0,47027382,47027382,0,90,51070759,2775,29.112945,0.010497,90
www.canada.ca/etc/designs/canada/cdts/gcweb/v4_0_24/js/wet-boew.min.js,150660.490003,0,9957903,0,3042023,825,3042848,0,6915055,6915055,0,0,9956506,1397,43.491881,0.005947,0
www.canada.ca/etc/designs/canada/cdts/gcweb/v4_0_24/js/jquery/2.1.4/jquery.min.js,103177.320405,0,15030373,0,2971057,756,2971813,0,12058560,12058560,0,0,15028233,2140,29.981335,0.012359,0
www.canada.ca/etc/designs/canada/cdts/gcweb/v4_0_26/fonts/glyphicons-halflings-regular.woff,92879.7862,0,36517681,0,3208768,676,3209444,0,33308237,33308237,0,0,36515800,1881,22.656326,0.011508,0
www.canada.ca/etc/designs/canada/cdts/gcweb/v4_0_24/fonts/glyphicons-halflings-regular.woff,76801.132015,0,11149045,0,2664409,331,2664740,0,8484305,8484305,0,0,11147452,1593,23.743197,0.008753,0
www.canada.ca/etc/designs/canada/cdts/gcweb/v4_0_26/js/deps/jquery.magnific-popup.min.js,67578.266837,0,70395745,0,5564741,403887,5968628,0,64427117,64427117,0,0,70393288,2457,8.471431,0.011675,0
www.canada.ca/etc/designs/canada/cdts/gcweb/v4_0_26/js/theme.min.js,60427.654202,0,31720531,0,3957324,277,3957601,0,27762930,27762930,0,0,31718436,2095,12.353005,0.011928,0
www.canada.ca/etc/designs/canada/cdts/gcweb/v4_0_26/cdts/compiled/soyutils.js,53508.280313,2.389633,49528864,0,4370080,206,4370286,0,45158578,45158578,0,1724,49526213,2651,7.673195,0.008964,1724
www.canada.ca/etc/designs/canada/cdts/gcweb/v4_0_26/assets/favicon.ico,43614.793781,0.000266,11855391,0,7347498,38,7347536,0,4507855,4507855,0,0,11854118,1273,4.396897,0.005475,4
www.canada.ca/etc/designs/canada/cdts/gcweb/v4_0_27/css/theme.min.css,42844.563957,0.321664,1338102,0,651376,93,651469,0,686633,686633,0,263,1336932,1170,58.466698,0.003723,263
www.canada.ca/etc/designs/canada/cdts/gcweb/v4_0_26/cdts/compiled/wet-en.js,38216.367673,2.430974,34348298,0,3476887,140,3477027,0,30871271,30871271,0,1850,34345629,2669,7.708269,0.012554,1850
www.canada.ca/etc/designs/canada/cdts/gcweb/v4_0_24/js/deps/jquery.magnific-popup.min.js,34159.95209,0,17719661,0,3458557,123491,3582048,0,14137613,14137613,0,0,17717556,2105,9.007591,0.010765,0
www.canada.ca/etc/designs/canada/cdts/gcweb/v4_0_26/assets/wmms-blk.svg,34042.203435,23.205416,56536785,0,20238774,79,20238853,0,36297932,36297932,0,0,56534149,2636,3.718838,0.018213,64391
www.canada.ca/etc/designs/canada/cdts/gcweb/v4_0_27/js/wet-boew.min.js,32211.211179,0.290657,1221537,0,630567,202,630769,0,590768,590768,0,262,1220385,1152,45.253589,0.002847,262
www.canada.ca/etc/designs/canada/cdts/gcweb/v4_0_25/css/theme.min.css,31666.331891,0,730279,0,486597,64,486661,0,243618,243618,0,0,729110,1169,61.80173,0.001533,0
www.canada.ca/etc/designs/canada/cdts/gcweb/v4_0_26/js/i18n/en.min.js,29977.641251,0,49610588,0,5019016,94915,5113931,0,44496657,44496657,0,0,49608150,2438,3.777353,0.020688,0
www.canada.ca/etc/designs/canada/cdts/gcweb/v4_0_24/cdts/compiled/soyutils.js,25989.690715,0,13382195,0,2603347,184,2603531,0,10778664,10778664,0,0,13380467,1728,7.937254,0.008695,0
www.canada.ca/etc/designs/canada/cdts/gcweb/v4_0_26/assets/sig-blk-en.svg,23833.544393,18.596137,27429053,1,14968182,35,14968217,0,12460835,12460835,0,0,27426455,2598,3.842982,0.022336,47087
www.canada.ca/etc/designs/canada/cdts/gcweb/v4_0_25/js/wet-boew.min.js,23274.756383,0,682148,0,469449,77,469526,0,212622,212622,0,0,681021,1127,43.716859,0.003504,0
www.canada.ca/etc/designs/canada/cdts/gcweb/v4_0_27/js/jquery/2.1.4/jquery.min.js,21705.630752,0,2033109,0,637126,185,637311,0,1395798,1395798,0,0,2031543,1566,28.464641,0.0031,0
www.canada.ca/etc/designs/canada/cdts/gcweb/v4_0_24/cdts/compiled/wet-en.js,19500.440167,0,10624757,0,2232922,161,2233083,0,8391674,8391674,0,0,10622644,2113,7.711438,0.00529,0
www.canada.ca/etc/designs/canada/cdts/gcweb/v4_0_24/assets/wmms-blk.svg,15840.231232,13.073759,18388113,0,9909669,89,9909758,0,8478355,8478355,0,871,18386041,2072,3.357783,0.018362,33218
www.canada.ca/etc/designs/canada/cdts/gcweb/v4_0_25/js/jquery/2.1.4/jquery.min.js,15820.965694,0,1077594,1,473923,102,474025,0,603568,603568,0,0,1076452,1142,29.027099,0.002628,0
www.canada.ca/etc/designs/canada/cdts/gcweb/v4_0_24/assets/sig-blk-en.svg,14511.26458,10.116569,14659617,0,8526628,45,8526673,0,6132944,6132944,0,1040,14657510,2107,3.453773,0.022467,24040
www.canada.ca/etc/designs/canada/cdts/gcweb/v4_0_24/js/i18n/en.min.js,14322.476846,0,16312867,0,3068180,136893,3205073,0,13107794,13107794,0,0,16310865,2002,3.57909,0.014892,0
www.canada.ca/etc/designs/canada/cdts/gcweb/v4_0_25/assets/wmms-blk.svg,14146.339295,1.792372,20061206,0,19615504,605,19616109,0,445097,445097,0,760,20059310,1896,3.029407,0.004938,3429
www.canada.ca/etc/designs/canada/cdts/gcweb/v4_0_27/fonts/glyphicons-halflings-regular.woff,13479.79074,0,1383924,0,489940,72,490012,0,893912,893912,0,0,1382641,1283,22.147493,0.003353,0
www.canada.ca/etc/designs/canada/cdts/gcweb/v4_0_26/cdts/cdtsfixes.css,13382.66808,0,41828915,0,3972331,0,3972331,0,37856584,37856584,0,0,41826578,2337,1.550656,0.006823,0
www.canada.ca/etc/designs/canada/cdts/gcweb/v4_0_24/assets/favicon.ico,12534.689478,0,3838871,0,2453722,28,2453750,0,1385121,1385121,0,0,3837615,1256,4.286311,0.00529,0
www.canada.ca/etc/designs/canada/cdts/gcweb/v4_0_25/fonts/glyphicons-halflings-regular.woff,11181.520318,0,856899,0,419698,68,419766,0,437133,437133,0,0,855776,1123,23.412799,0.003504,0
www.canada.ca/etc/designs/canada/cdts/gcweb/v4_0_26/cdts/cdtsapps.css,11173.14987,0,17638929,0,2373035,4,2373039,0,15265890,15265890,0,0,17637676,1253,3.076823,0.004599,0
www.canada.ca/etc/designs/canada/cdts/gcweb/v4_0_26/cdts/exitScript.js,10791.844116,0,28251967,1,2814789,2,2814791,0,25437175,25437175,0,0,28250382,1585,1.565385,0.01021,0
www.canada.ca/etc/designs/canada/cdts/gcweb/v4_0_26/cdts/compiled/wet-fr.js,10710.660305,0.078021,12863300,0,909979,60,910039,0,11953261,11953261,0,60,12861823,1477,5.840964,0.001533,60
www.canada.ca/etc/designs/canada/cdts/gcweb/v4_0_26/js/deps/jquery.dataTables.min.js,10677.629658,0.000054,1241124,0,317047,74028,391075,0,850049,850049,0,0,1240007,1117,27.323976,0.003723,1
www.canada.ca/etc/designs/canada/cdts/gcweb/v4_0_26/fonts/glyphicons-halflings-regular.eot,10073.639136,0,3953562,0,378334,0,378334,0,3575228,3575228,0,0,3950934,2628,55.863032,0.003504,0
www.canada.ca/etc/designs/canada/cdts/gcweb/v4_0_25/assets/sig-blk-en.svg,9991.452039,1.772175,12086647,0,10849519,288,10849807,0,1236840,1236840,0,1084,12084873,1774,3.279141,0.014394,2561
www.canada.ca/etc/designs/canada/cdts/gcweb/v4_0_24/fonts/glyphicons-halflings-regular.eot,9483.644425,0,2449083,0,378322,5,378327,0,2070756,2070756,0,0,2446024,3059,64.677579,0.007024,0
www.canada.ca/etc/designs/canada/cdts/gcweb/v4_0_22/css/theme.min.css,9278.770108,0,509331,0,146572,18,146590,0,362741,362741,0,0,508229,1102,54.015927,0.001786,0
www.canada.ca/etc/designs/canada/cdts/gcweb/v4_0_26/cdts/compiled/plugins-en.js,9023.826664,2.265175,26553627,0,2673555,0,2673555,0,23880072,23880072,0,1784,26552346,1281,1.170875,0.004516,1818
www.canada.ca/etc/designs/canada/cdts/gcweb/v4_0_26/js/i18n/fr.min.js,8676.203448,0,7815034,0,1527915,56843,1584758,0,6230276,6230276,0,0,7813792,1242,4.178099,0.001314,0
www.canada.ca/etc/designs/canada/cdts/gcweb/v4_0_26/js/polyfills/datalist.min.js,8429.47322,0,6945580,0,2971699,0,2971699,0,3973881,3973881,0,0,6943883,1697,3.676015,0.005037,0
www.canada.ca/etc/designs/canada/cdts/gcweb/v4_0_27/js/theme.min.js,8402.547422,0,1023407,0,624288,101,624389,0,399018,399018,0,0,1022232,1175,12.296203,0.002628,0
www.canada.ca/etc/designs/canada/cdts/gcweb/v4_0_24/cdts/cdtsfixes.css,7728.354227,0,11369023,0,3147225,2,3147227,0,8221796,8221796,0,0,11367182,1841,2.380201,0.007546,0
www.canada.ca/etc/designs/canada/cdts/gcweb/v4_0_26/assets/sig-blk-fr.svg,7255.208823,3.440601,6180982,0,5515033,10,5515043,0,665939,665939,0,0,6179464,1518,2.862193,0.002533,8542
www.canada.ca/etc/designs/canada/cdts/gcweb/v4_0_24/js/theme.min.js,6734.657771,0,10870156,0,2938401,316,2938717,0,7931439,7931439,0,0,10868471,1685,2.036606,0.006166,0
www.canada.ca/etc/designs/canada/cdts/gcweb/v4_0_27/js/deps/jquery.magnific-popup.min.js,5808.955561,0.3202,2410431,0,587434,64736,652170,0,1758261,1758261,0,316,2408734,1697,8.192766,0.002409,318
www.canada.ca/etc/designs/canada/cdts/gcweb/v4_0_25/js/theme.min.js,5719.697009,0,760668,0,469961,32,469993,0,290675,290675,0,0,759550,1118,11.306055,0.002409,0
www.canada.ca/etc/designs/canada/cdts/gcweb/v4_0_26/js/polyfills/details.min.js,5488.019771,0,12387187,0,983863,0,983863,0,11403324,11403324,0,0,12385116,2071,2.249381,0.002881,0
www.canada.ca/etc/designs/canada/cdts/gcweb/v4_0_26/css/polyfills/datalist.min.css,5221.742279,0,14595146,0,3107718,0,3107718,0,11487428,11487428,0,0,14593910,1236,1.239482,0.003319,0
www.canada.ca/etc/designs/canada/cdts/gcweb/v4_0_25/js/deps/jquery.magnific-popup.min.js,5173.12155,0,1348004,0,568912,35681,604593,0,743411,743411,0,0,1346732,1272,8.18778,0.001533,0
www.canada.ca/etc/designs/canada/cdts/gcweb/v4_0_24/js/deps/jquery.dataTables.min.js,5146.024034,0,597418,0,166938,11698,178636,0,418782,418782,0,0,596336,1082,27.265964,0.001533,0
www.canada.ca/etc/designs/canada/cdts/gcweb/v4_0_22/js/wet-boew.min.js,4645.810852,0,177765,1,96292,46,96338,0,81426,81426,0,0,176823,942,39.021998,0.000657,0
www.canada.ca/etc/designs/canada/cdts/gcweb/v4_0_26/js/polyfills/datepicker.min.js,4504.061863,0,6037027,0,961851,0,961851,0,5075176,5075176,0,0,6035067,1960,3.452453,0.006132,0
www.canada.ca/etc/designs/canada/cdts/gcweb/v4_0_24/cdts/compiled/plugins-en.js,4493.99678,0,4840942,1,1097962,27,1097989,0,3742952,3742952,0,0,4839290,1652,1.980064,0.008223,0
www.canada.ca/etc/designs/canada/cdts/gcweb/v4_0_26/css/polyfills/datepicker.min.css,4487.753495,0,10555300,0,935569,0,935569,0,9619731,9619731,0,0,10553415,1885,1.74223,0.001752,0
www.canada.ca/etc/designs/canada/cdts/gcweb/v4_0_26/assets/favicon-mobile.png,4387.829124,0,2997708,0,948751,19,948770,0,2048938,2048938,0,0,2996504,1204,3.476589,0.003942,0
www.canada.ca/etc/designs/canada/cdts/gcweb/rn/cdts/compiled/soyutils.js,4302.658324,0,1057223,0,400953,240,401193,0,656030,656030,0,0,1055994,1229,6.910906,0.002224,0
www.canada.ca/etc/designs/canada/cdts/gcweb/v4_0_26/js/deps/jquery.validate.min.js,4188.967986,0,866131,0,437415,45988,483403,0,382728,382728,0,0,865151,980,7.205984,0.002409,0
www.canada.ca/etc/designs/canada/cdts/gcweb/v4_0_24/js/polyfills/datepicker.min.js,3830.522305,0,5202508,0,724906,1,724907,0,4477601,4477601,0,0,5201166,1342,3.31467,0.005913,0
www.canada.ca/etc/designs/canada/cdts/gcweb/v4_0_25/assets/sig-blk-fr.svg,3794.093339,0.095437,4721223,0,4251518,256,4251774,0,469449,469449,0,0,4720014,1209,2.430095,0.001695,111
www.canada.ca/etc/designs/canada/cdts/gcweb/v4_0_26/js/polyfills/meter.min.js,3715.112964,0,6729290,0,1005397,0,1005397,0,5723893,5723893,0,0,6727346,1944,2.195905,0.009417,0
www.canada.ca/etc/designs/canada/cdts/gcweb/v4_0_27/assets/wmms-blk.svg,3533.260212,3.560743,2697857,0,2523755,44,2523799,0,174058,174058,0,100,2695860,1997,3.461338,0.008246,7813
www.canada.ca/etc/designs/canada/cdts/gcweb/v4_0_22/fonts/glyphicons-halflings-regular.woff,3525.200499,0,568810,0,120540,25,120565,0,448245,448245,0,0,567779,1031,21.83743,0.000657,0
www.canada.ca/etc/designs/canada/cdts/gcweb/v4_0_26/js/deps/template.min.js,3501.319248,0,7370469,0,753501,0,753501,0,6616968,6616968,0,0,7368827,1642,1.499699,0.004414,0
www.canada.ca/etc/designs/canada/cdts/gcweb/v4_0_24/cdts/exitScript.js,3484.916286,0,5617597,0,2115825,0,2115825,0,3501772,3501772,0,0,5616363,1234,1.578096,0.009081,0
www.canada.ca/etc/designs/canada/cdts/gcweb/v4_0_24/js/polyfills/datalist.min.js,3410.082719,0,3537107,0,1093854,0,1093854,0,2443253,2443253,0,0,3535601,1506,3.820702,0.006385,0
www.canada.ca/etc/designs/canada/cdts/gcweb/v4_0_27/assets/sig-blk-en.svg,3390.755861,2.145912,2559151,0,2148602,22,2148624,0,410527,410527,0,98,2557185,1966,3.490576,0.00443,3946
www.canada.ca/etc/designs/canada/cdts/gcweb/v4_0_24/cdts/compiled/wet-fr.js,3345.416429,0,1875905,0,433193,10,433203,0,1442702,1442702,0,0,1874904,1001,4.835984,0.001601,0
www.canada.ca/etc/designs/canada/cdts/gcweb/rn/js/compiled/soyutils.js,3316.557689,0,585253,0,328676,96,328772,0,256481,256481,0,0,584056,1197,7.009439,0.002409,0
www.canada.ca/etc/designs/canada/cdts/gcweb/v4_0_26/css/polyfills/meter.min.css,3297.628871,0,6925044,1,986618,0,986618,0,5938425,5938425,0,0,6923376,1668,1.620021,0.010731,0
www.canada.ca/etc/designs/canada/cdts/gcweb/rn/cdts/compiled/wet-en.js,3232.182698,0,954794,0,372998,198,373196,0,581598,581598,0,0,953615,1179,7.243555,0.003285,0
www.canada.ca/etc/designs/canada/cdts/gcweb/v4_0_26/css/polyfills/details.min.css,3223.639846,0,8365680,0,914717,0,914717,0,7450963,7450963,0,0,8363425,2255,1.586061,0.006453,0
www.canada.ca/etc/designs/canada/cdts/gcweb/v4_0_22/js/jquery/2.1.4/jquery.min.js,3088.581906,0,182025,0,96376,36,96412,0,85613,85613,0,0,181065,960,26.118907,0.001752,0
www.canada.ca/etc/designs/canada/cdts/gcweb/v4_0_27/js/deps/jquery.dataTables.min.js,3028.314617,0,315406,0,92328,14471,106799,0,208607,208607,0,0,314292,1114,27.579781,0.001314,0
www.canada.ca/etc/designs/canada/cdts/gcweb/v4_0_27/fonts/glyphicons-halflings-regular.eot,3001.480785,0,323906,0,130146,0,130146,0,193760,193760,0,0,321673,2233,47.865241,0.001314,0
www.canada.ca/etc/designs/canada/cdts/gcweb/v4_0_27/cdts/compiled/soyutils.js,2950.462945,2.361462,1140406,0,259005,59,259064,0,881342,881342,0,1571,1139216,1190,7.028973,0.001533,1571
www.canada.ca/etc/designs/canada/cdts/gcweb/v4_0_24/js/i18n/fr.min.js,2933.146814,0,1309493,0,610496,40654,651150,0,658343,658343,0,0,1308434,1059,4.162472,0.003066,0
www.canada.ca/etc/designs/canada/cdts/gcweb/v4_0_26/js/deps/additional-methods.min.js,2771.268228,0,854038,0,409115,51699,460814,0,393224,393224,0,0,853080,958,5.295955,0.002409,0
www.canada.ca/etc/designs/canada/cdts/gcweb/v4_0_24/assets/sig-blk-fr.svg,2558.014569,1.12653,3054373,0,1424519,10,1424529,0,1629844,1629844,0,382,3052974,1399,2.847051,0.001457,2006
www.canada.ca/etc/designs/canada/cdts/gcweb/v4_0_27/js/i18n/en.min.js,2494.10198,0,1407303,0,645462,26111,671573,0,735730,735730,0,0,1406045,1258,3.392135,0.003942,0
www.canada.ca/etc/designs/canada/cdts/gcweb/v4_0_27/assets/favicon.ico,2397.690885,0,595684,0,476654,9,476663,0,119021,119021,0,0,594570,1114,4.199838,0.001314,0
www.canada.ca/etc/designs/canada/cdts/gcweb/v4_0_24/assets/favicon-mobile.png,2330.16169,0.000162,1082162,0,587590,13,587603,0,494559,494559,0,0,1080996,1166,3.615452,0.003538,3
www.canada.ca/etc/designs/canada/cdts/gcweb/v4_0_27/cdts/compiled/wet-en.js,2296.456574,0.711735,971778,0,224592,44,224636,0,747142,747142,0,608,970605,1173,6.913722,0.002258,608
www.canada.ca/etc/designs/canada/cdts/gcweb/v4_0_23/assets/sig-blk-en.svg,2230.822783,0.104192,3298228,0,3003536,13,3003549,0,294679,294679,0,0,3296504,1724,3.009315,0.003809,500
www.canada.ca/etc/designs/canada/cdts/gcweb/v4_0_24/css/polyfills/datepicker.min.css,2223.929045,0,4330822,0,698480,0,698480,0,3632342,3632342,0,0,4328896,1926,1.784204,0.005256,0
www.canada.ca/etc/designs/canada/cdts/gcweb/v4_0_25/js/deps/jquery.dataTables.min.js,2213.168838,0,121929,0,65677,18196,83873,0,38056,38056,0,0,121244,685,18.992674,0.001526,0
www.canada.ca/etc/designs/canada/cdts/gcweb/v4_0_23/assets/wmms-blk.svg,2135.783214,0.249187,3759195,0,3706246,8,3706254,0,52941,52941,0,0,3757456,1739,2.810874,0.005574,756
www.canada.ca/etc/designs/canada/cdts/gcweb/v4_0_24/js/polyfills/meter.min.js,2130.233508,0,3192117,1,607462,0,607462,0,2584654,2584654,0,0,3190753,1364,2.056175,0.002881,0
www.canada.ca/etc/designs/canada/cdts/gcweb/v4_0_24/js/polyfills/details.min.js,2123.012077,0,3388840,0,755231,108,755339,0,2633501,2633501,0,0,3387431,1409,2.112931,0.00876,0
www.canada.ca/etc/designs/canada/cdts/gcweb/v4_0_25/assets/favicon.ico,2080.835338,0,545708,0,404701,5,404706,0,141002,141002,0,0,544506,1202,4.236961,0.001533,0
www.canada.ca/etc/designs/canada/cdts/gcweb/rn/js/compiled/wet-en.js,2018.821572,0,474854,1,268110,62,268172,0,206681,206681,0,0,473750,1104,6.547666,0.001752,0
www.canada.ca/etc/designs/canada/cdts/gcweb/v4_0_26/cdts/compiled/plugins-fr.js,2012.106639,0.006142,5494700,0,671974,0,671974,0,4822726,4822726,0,0,5493771,929,0.756248,0.001129,8
www.canada.ca/etc/designs/canada/cdts/gcweb/v4_0_24/js/wet-boew.min.js.map,1858.272951,0.000162,16163,0,11181,2,11183,0,4980,4980,0,0,15859,304,16.260397,0.000835,3
www.canada.ca/etc/designs/canada/cdts/gcweb/v4_0_24/css/polyfills/meter.min.css,1657.530624,0,2829485,1,595014,0,595014,0,2234470,2234470,0,0,2828237,1248,1.417375,0.005947,0
www.canada.ca/etc/designs/canada/cdts/gcweb/v4_0_25/js/i18n/en.min.js,1642.504818,0,782610,0,458129,23982,482111,0,300499,300499,0,0,781510,1100,3.180313,0.00219,0
www.canada.ca/etc/designs/canada/cdts/gcweb/v4_0_22/assets/wmms-blk.svg,1520.488753,0.34696,1688918,0,1382158,128,1382286,0,306632,306632,0,0,1687050,1868,3.175892,0.006889,832
www.canada.ca/etc/designs/canada/cdts/gcweb/v4_0_27/js/wet-boew.min.js.map,1484.893062,0,10436,0,8822,0,8822,0,1614,1614,0,0,10237,199,10.999365,0,0
www.canada.ca/etc/designs/canada/cdts/gcweb/v4_0_24/css/polyfills/datalist.min.css,1467.204862,0,3742125,0,1112732,0,1112732,0,2629393,2629393,0,0,3740741,1384,1.484594,0.004414,0
www.canada.ca/etc/designs/canada/cdts/gcweb/v4_0_24/js/deps/jquery.validate.min.js,1459.402494,0,682065,0,153771,13887,167658,0,514407,514407,0,0,681034,1031,7.929952,0.002224,0
www.canada.ca/etc/designs/canada/cdts/gcweb/v4_0_25/fonts/glyphicons-halflings-regular.eot,1455.620303,0.000054,199709,0,61343,9,61352,0,138357,138357,0,0,198063,1646,35.404198,0.000876,1
www.canada.ca/etc/designs/canada/cdts/gcweb/v4_0_23/css/theme.min.css,1375.340892,0,46471,0,21751,2,21753,0,24718,24718,0,0,45933,538,30.156846,0.000876,0
www.canada.ca/etc/designs/canada/cdts/gcweb/v4_0_22/cdts/compiled/soyutils.js,1340.70763,0,422585,0,115334,48,115382,0,307203,307203,0,0,421456,1129,6.627816,0.001314,0
www.canada.ca/etc/designs/canada/cdts/gcweb/v4_0_22/assets/sig-blk-en.svg,1330.702627,0.24852,1370914,1,1134871,134,1135005,0,235908,235908,0,0,1369136,1778,3.325216,0.003971,713
www.canada.ca/etc/designs/canada/cdts/gcweb/v4_0_24/js/jquery/2.1.4/jquery.min.map,1258.084979,0,14897,0,10940,4,10944,0,3953,3953,0,0,14589,308,12.887562,0.000438,0
www.canada.ca/etc/designs/canada/cdts/gcweb/v4_0_24/css/polyfills/details.min.css,1233.265258,0,2595071,0,695852,0,695852,0,1899219,1899219,0,0,2593810,1261,1.211067,0.004161,0
www.canada.ca/etc/designs/canada/cdts/gcweb/v4_0_25/js/deps/jquery.validate.min.js,1223.673232,0,286112,0,139379,11708,151087,0,135025,135025,0,0,285006,1106,7.902005,0.001752,0
www.canada.ca/etc/designs/canada/cdts/gcweb/v4_0_24/js/deps/jquery.flot.min.js,1185.691741,0,600858,0,70820,7994,78814,0,522044,522044,0,0,600029,829,10.088541,0.00219,0
www.canada.ca/etc/designs/canada/cdts/gcweb/v4_0_23/js/wet-boew.min.js,1044.689776,0,44161,1,20768,6,20774,0,23386,23386,0,0,43640,521,23.666603,0.000657,0
www.canada.ca/etc/designs/canada/cdts/gcweb/v4_0_27/js/jquery/2.1.4/jquery.min.map,1004.356993,0,10494,0,8859,0,8859,0,1635,1635,0,0,10303,191,7.78231,0,0
www.canada.ca/etc/designs/canada/cdts/gcweb/v4_0_25/js/wet-boew.min.js.map,985.484258,0,5633,0,5435,0,5435,0,198,198,0,0,5509,124,6.769564,0,0
www.canada.ca/etc/designs/canada/cdts/gcweb/v4_0_24/js/deps/additional-methods.min.js,978.367302,0,636066,0,136839,15470,152309,0,483757,483757,0,0,635089,977,5.445491,0.003066,0
www.canada.ca/etc/designs/canada/cdts/gcweb/v4_0_26/js/wet-boew.min.js.map,976.915036,0,11631,0,8538,0,8538,0,3093,3093,0,0,11269,362,16.499661,0,0
www.canada.ca/etc/designs/canada/cdts/gcweb/rn/assets/social.png,926.127417,0.000054,592934,1,333424,25,333449,0,259484,259484,0,0,591778,1156,2.951994,0.002224,1
www.canada.ca/etc/designs/canada/cdts/gcweb/v4_0_22/js/deps/jquery.magnific-popup.min.js,907.901687,0,238883,0,99451,5866,105317,0,133566,133566,0,0,237868,1015,7.620497,0.000438,0
www.canada.ca/etc/designs/canada/cdts/gcweb/v4_0_25/js/deps/additional-methods.min.js,835.803829,0,250979,0,133052,10475,143527,0,107452,107452,0,0,249983,996,5.337176,0.001533,0
www.canada.ca/etc/designs/canada/cdts/gcweb/v4_0_27/js/polyfills/datepicker.min.js,820.109901,0,712680,0,227865,2,227867,0,484813,484813,0,0,711510,1170,3.125252,0.004161,0
www.canada.ca/etc/designs/canada/cdts/gcweb/v4_0_23/assets/favicon.ico,805.31142,0,111596,0,103762,0,103762,0,7834,7834,0,0,110984,612,2.609171,0.000657,0
www.canada.ca/etc/designs/canada/cdts/gcweb/rn/css/theme.min.css,757.971394,0.006243,5370,0,4997,0,4997,0,373,373,0,0,4977,393,23.969979,0.000438,2
www.canada.ca/etc/designs/canada/cdts/gcweb/v4_0_25/cdts/cdtsfixes.css,732.999443,0,799122,1,483850,0,483850,0,315271,315271,0,0,797935,1187,1.601372,0.001971,0
www.canada.ca/etc/designs/canada/cdts/gcweb/v4_0_23/js/jquery/2.1.4/jquery.min.js,723.045851,0,63697,0,20872,4,20876,0,42821,42821,0,0,63180,517,15.263797,0.000657,0
www.canada.ca/etc/designs/canada/cdts/gcweb/v4_0_26/js/jquery/2.1.4/jquery.min.map,693.727136,0,11806,0,8775,2,8777,0,3029,3029,0,0,11454,352,11.92609,0,0
www.canada.ca/etc/designs/canada/cdts/gcweb/v4_0_25/js/jquery/2.1.4/jquery.min.map,677.840489,0.01067,5667,0,5452,0,5452,0,215,215,0,0,5542,125,4.967811,0.000616,8
www.canada.ca/etc/designs/canada/cdts/gcweb/v4_0_25/cdts/compiled/soyutils.js,663.535703,0,190490,0,86750,3,86753,0,103737,103737,0,0,189838,652,4.297859,0.001711,0
www.canada.ca/etc/designs/canada/cdts/gcweb/v4_0_27/cdts/cdtsfixes.css,649.415541,0,1116254,0,644713,0,644713,0,471541,471541,0,0,1115028,1226,1.246771,0.003504,0
www.canada.ca/etc/designs/canada/cdts/gcweb/v4_0_27/js/polyfills/datalist.min.js,645.566399,0,605282,0,201071,0,201071,0,404211,404211,0,0,604016,1266,3.391634,0.002443,0
www.canada.ca/etc/designs/canada/cdts/gcweb/v4_0_22/cdts/compiled/wet-en.js,618.487059,0,278767,0,89059,43,89102,0,189665,189665,0,0,277717,1050,5.013552,0.000657,0
www.canada.ca/etc/designs/canada/cdts/gcweb/v4_0_24/js/deps/tableparser.min.js,599.754852,0,551687,0,66866,4944,71810,0,479877,479877,0,0,550821,866,5.149097,0.002881,0
www.canada.ca/etc/designs/canada/cdts/gcweb/v4_0_25/cdts/compiled/wet-en.js,594.205356,0,161542,0,78887,0,78887,0,82655,82655,0,0,160902,640,4.302126,0.000876,0
www.canada.ca/etc/designs/canada/cdts/gcweb/v4_0_26/img/splash/sp-bg-2.jpg,576.016039,0,15604,0,13496,18,13514,0,2090,2090,0,0,15246,358,12.980143,0.000438,0
www.canada.ca/etc/designs/canada/cdts/gcweb/rn/assets/wmms-blk.svg,562.405167,0.016803,619245,0,592801,48,592849,0,26396,26396,0,0,617731,1514,2.752635,0.002333,24
www.canada.ca/etc/designs/canada/cdts/gcweb/rn/assets/feedback.png,554.044589,0,602592,0,334239,23,334262,0,268330,268330,0,0,601440,1152,1.758981,0.003285,0
www.canada.ca/etc/designs/canada/cdts/gcweb/v4_0_27/js/i18n/fr.min.js,545.850703,0,336829,0,98470,6015,104485,0,232344,232344,0,0,335934,895,3.780262,0.000876,0
www.canada.ca/etc/designs/canada/cdts/gcweb/v4_0_22/img/splash/sp-bg-2.jpg,524.07632,0,15033,0,13196,14,13210,0,1823,1823,0,0,14734,299,10.888209,0,0
www.canada.ca/etc/designs/canada/cdts/gcweb/v4_0_22/assets/favicon.ico,517.350501,0,161923,0,96667,2,96669,0,65254,65254,0,0,160933,990,4.038102,0.000438,0
www.canada.ca/etc/designs/canada/cdts/gcweb/v4_0_27/assets/sig-blk-fr.svg,515.531933,0.223872,388462,0,328089,4,328093,0,60369,60369,0,50,387290,1172,2.376525,0.001402,435
www.canada.ca/etc/designs/canada/cdts/gcweb/v4_0_23/assets/sig-blk-fr.svg,513.23868,0.011644,767630,0,722053,1,722054,0,45576,45576,0,0,766782,848,1.554081,0.000857,41
www.canada.ca/etc/designs/canada/cdts/gcweb/v4_0_25/js/polyfills/datalist.min.js,509.350852,0,422557,0,171340,0,171340,0,251217,251217,0,0,421395,1162,3.062398,0.001314,0
www.canada.ca/etc/designs/canada/cdts/gcweb/v4_0_27/css/polyfills/datepicker.min.css,502.981792,0,848478,0,218479,0,218479,0,629999,629999,0,0,847362,1116,1.371347,0.00219,0
www.canada.ca/etc/designs/canada/cdts/gcweb/v4_0_26/js/polyfills/slider.min.js,500.906122,0,86204,0,67571,0,67571,0,18633,18633,0,0,85829,375,2.612568,0,0
www.canada.ca/etc/designs/canada/cdts/gcweb/v4_0_27/js/polyfills/details.min.js,494.296162,0,713874,0,206570,0,206570,0,507304,507304,0,0,712664,1210,1.784092,0.003942,0
www.canada.ca/etc/designs/canada/cdts/gcweb/v4_0_26/fonts/glyphicons-halflings-regular.ttf,492.313272,0,33606,0,18940,58,18998,0,14608,14608,0,0,32809,797,12.069017,0,0
www.canada.ca/etc/designs/canada/cdts/gcweb/v4_0_27/js/polyfills/meter.min.js,490.4054,0,650642,0,170436,0,170436,0,480206,480206,0,0,649487,1155,1.809317,0.002409,0
www.canada.ca/etc/designs/canada/cdts/gcweb/rn/assets/mobile.png,489.025282,0.003441,579028,0,334036,23,334059,0,244969,244969,0,0,577788,1240,1.875504,0.002409,1
www.canada.ca/etc/designs/canada/cdts/gcweb/rn/js/compiled/wet-fr.js,482.612933,0.003441,118646,0,65283,26,65309,0,53337,53337,0,0,118028,618,3.700096,0.001095,1
www.canada.ca/etc/designs/canada/cdts/gcweb/rn/assets/sig-blk-en.svg,481.864948,0.011685,460936,0,451013,20,451033,0,9903,9903,0,0,459425,1511,2.909756,0.002786,66
www.canada.ca/etc/designs/canada/cdts/gcweb/v4_0_23/fonts/glyphicons-halflings-regular.woff,464.301465,0,40468,1,16544,0,16544,0,23923,23923,0,0,39972,496,11.826957,0.000657,0
www.canada.ca/etc/designs/canada/cdts/gcweb/v4_0_24/cdts/compiled/plugins-fr.js,443.710584,0,579322,0,168015,3,168018,0,411304,411304,0,0,578524,798,1.005514,0.001971,0
www.canada.ca/etc/designs/canada/cdts/gcweb/v4_0_25/js/i18n/fr.min.js,438.927365,0,216936,0,86957,5077,92034,0,124902,124902,0,0,216277,659,2.773973,0.001314,0
www.canada.ca/etc/designs/canada/cdts/gcweb/v4_0_27/css/polyfills/meter.min.css,433.562289,0,695713,0,171648,0,171648,0,524065,524065,0,0,694611,1102,1.25197,0.002224,0
www.canada.ca/etc/designs/canada/cdts/gcweb/v4_0_27/cdts/compiled/wet-fr.js,428.864235,0.807078,199848,0,41999,14,42013,0,157835,157835,0,594,199188,660,4.202397,0.001095,594
www.canada.ca/etc/designs/canada/cdts/gcweb/v4_0_27/assets/favicon-mobile.png,390.241848,0,187671,0,97405,1,97406,0,90265,90265,0,0,186728,943,3.175748,0.000876,0
www.canada.ca/etc/designs/canada/cdts/gcweb/v4_0_24/js/deps/jquery.flot.pie.min.js,384.973768,0,526201,0,66255,3313,69568,0,456633,456633,0,0,525394,807,3.084597,0.002409,0
www.canada.ca/etc/designs/canada/cdts/gcweb/v4_0_27/js/deps/template.min.js,376.776277,0,590648,0,207139,0,207139,0,383509,383509,0,0,589448,1200,1.268468,0.002005,0
www.canada.ca/etc/designs/canada/cdts/gcweb/v4_0_25/js/polyfills/datepicker.min.js,370.001133,0.000108,326107,0,105146,0,105146,0,220961,220961,0,0,325160,947,2.661512,0.00219,2
www.canada.ca/etc/designs/canada/cdts/gcweb/v4_0_27/js/deps/jquery.validate.min.js,363.433285,0,96122,0,40274,3990,44264,0,51858,51858,0,0,95264,858,6.460849,0.000876,0
www.canada.ca/etc/designs/canada/cdts/gcweb/v4_0_25/assets/favicon-mobile.png,361.038285,0,152662,0,93696,1,93697,0,58965,58965,0,0,151782,880,3.024828,0.001095,0
www.canada.ca/etc/designs/canada/cdts/gcweb/v4_0_22/fonts/glyphicons-halflings-regular.eot,349.934446,0,84060,0,14230,0,14230,0,69830,69830,0,0,82679,1381,29.854443,0.000438,0
www.canada.ca/etc/designs/canada/cdts/gcweb/v4_0_27/css/polyfills/details.min.css,345.931996,0,653192,0,191315,0,191315,0,461877,461877,0,0,651997,1195,1.144831,0.001752,0
www.canada.ca/etc/designs/canada/cdts/gcweb/v4_0_22/js/i18n/en.min.js,335.433202,0,239620,0,87884,3091,90975,0,148645,148645,0,0,238629,991,3.021079,0.000438,0
www.canada.ca/etc/designs/canada/cdts/gcweb/rn/cdts/compiled/wet-fr.js,308.553813,0,74445,0,38443,36,38479,0,35966,35966,0,0,73783,662,4.201742,0.000438,0
www.canada.ca/etc/designs/canada/cdts/gcweb/v4_0_26/css/theme-srv.min.css,304.850542,0,9578,0,8512,0,8512,0,1066,1066,0,0,9260,318,10.72684,0,0
www.canada.ca/etc/designs/canada/cdts/gcweb/v4_0_22/assets/sig-blk-fr.svg,291.499936,0.071897,283639,0,220621,19,220640,0,62999,62999,0,0,282524,1115,2.223947,0.001416,214
www.canada.ca/etc/designs/canada/cdts/gcweb/v4_0_24/fonts/glyphicons-halflings-regular.ttf,275.563556,0,13587,0,10456,22,10478,0,3109,3109,0,0,12648,939,15.556271,0,0
www.canada.ca/etc/designs/canada/cdts/gcweb/v4_0_23/js/deps/jquery.magnific-popup.min.js,274.13603,0,67401,0,26530,1042,27572,0,39829,39829,0,0,66754,647,4.982645,0.000876,0
www.canada.ca/etc/designs/canada/cdts/gcweb/v4_0_24/js/deps/jquery.flot.canvas.min.js,263.622914,0,571341,0,65059,1035,66094,0,505247,505247,0,0,570443,898,1.798651,0.002628,0
www.canada.ca/etc/designs/canada/cdts/gcweb/v4_0_27/js/deps/additional-methods.min.js,259.15606,0,93487,0,39854,2590,42444,0,51043,51043,0,0,92656,831,4.712153,0.000657,0
www.canada.ca/etc/designs/canada/cdts/gcweb/v4_0_27/css/polyfills/datalist.min.css,254.94186,0,582295,0,197601,0,197601,0,384694,384694,0,0,581176,1119,1.294657,0.001752,0
www.canada.ca/etc/designs/canada/cdts/gcweb/v4_0_24/css/ie8-theme.min.css,252.545733,0,4876,0,3826,0,3826,0,1050,1050,0,0,4524,352,20.863812,0,0
www.canada.ca/etc/designs/canada/cdts/gcweb/v4_0_25/js/wet-boew.js,252.282434,0,722,0,696,0,696,0,26,26,0,0,710,12,1.123848,0,0
www.canada.ca/etc/designs/canada/cdts/gcweb/v4_0_24/js/deps/jquery.flot.orderBars.min.js,246.788433,0,529476,0,64370,873,65243,0,464233,464233,0,0,528658,818,1.704809,0.001095,0
www.canada.ca/etc/designs/canada/cdts/gcweb/v4_0_22/cdts/cdtsfixes.css,230.604489,0,385761,0,133462,0,133462,0,252299,252299,0,0,384753,1008,1.122516,0.001533,0
www.canada.ca/etc/designs/canada/cdts/gcweb/v4_0_23/cdts/compiled/soyutils.js,211.354228,0.008482,67490,0,16385,4,16389,0,51101,51101,0,0,66908,582,3.712286,0.000876,6
www.canada.ca/etc/designs/canada/cdts/gcweb/v4_0_22/cdts/compiled/plugins-en.js,203.996229,0,265991,0,69849,29,69878,0,196113,196113,0,0,264949,1042,1.51781,0.000876,0
www.canada.ca/etc/designs/canada/cdts/gcweb/v4_0_25/js/polyfills/details.min.js,197.941636,0.004215,240931,1,110844,0,110844,0,130086,130086,0,0,239940,991,1.510081,0.006389,12
www.canada.ca/etc/designs/canada/cdts/gcweb/v4_0_24/css/theme.css,193.720627,0,3124,0,2311,2,2313,0,811,811,0,0,2756,368,26.780446,0,0
www.canada.ca/etc/designs/canada/cdts/gcweb/v4_0_25/cdts/exitScript.js,193.188162,0,224845,0,146352,0,146352,0,78493,78493,0,0,224180,665,0.917169,0.001314,0
www.canada.ca/etc/designs/canada/cdts/gcweb/v4_0_25/css/polyfills/datalist.min.css,187.349386,0,420950,0,171614,0,171614,0,249336,249336,0,0,419969,981,1.055039,0.001095,0
www.canada.ca/etc/designs/canada/cdts/gcweb/v4_0_22/js/i18n/fr.min.js,185.662262,0.000432,144117,0,33712,1803,35515,0,108602,108602,0,0,143595,522,2.190413,0.000691,8
www.canada.ca/etc/designs/canada/cdts/gcweb/v4_0_25/css/polyfills/datepicker.min.css,182.19364,0.000108,324283,0,97310,0,97310,0,226973,226973,0,0,323353,930,1.143369,0.002224,2
www.canada.ca/etc/designs/canada/cdts/gcweb/v4_0_22/js/deps/jquery.dataTables.min.js,181.112275,0,21971,0,5855,673,6528,0,15443,15443,0,0,21423,548,14.925509,0,0
www.canada.ca/etc/designs/canada/cdts/gcweb/v4_0_22/cdts/compiled/wet-fr.js,175.093727,0,89572,0,27390,5,27395,0,62177,62177,0,0,89044,528,2.546452,0,0
www.canada.ca/etc/designs/canada/cdts/gcweb/v4_0_25/js/polyfills/meter.min.js,174.921292,0.000162,198701,0,82866,0,82866,0,115835,115835,0,0,197861,840,1.326617,0.002183,3
www.canada.ca/etc/designs/canada/cdts/gcweb/v4_0_22/js/theme.min.js,163.909618,0,189190,0,96628,24,96652,0,92538,92538,0,0,188217,973,1.624107,0.001095,0
www.canada.ca/etc/designs/canada/cdts/gcweb/v4_0_23/cdts/compiled/wet-en.js,160.062152,0.008482,59498,1,15717,2,15719,0,43778,43778,0,0,58967,531,3.33712,0.000657,6
www.canada.ca/etc/designs/canada/cdts/gcweb/v4_0_26/css/ie8-theme.min.css,154.376302,0,3908,0,2339,0,2339,0,1569,1569,0,0,3668,240,14.067474,0,0
www.canada.ca/etc/designs/canada/cdts/gcweb/v4_0_26/js/polyfills/progress.min.js,149.54857,0,151191,0,69879,0,69879,0,81312,81312,0,0,150824,367,0.488563,0.000438,0
www.canada.ca/etc/designs/canada/cdts/gcweb/v4_0_25/css/polyfills/details.min.css,145.647905,0.000162,293049,1,102982,0,102982,0,190066,190066,0,0,292101,948,0.884741,0.002368,3
www.canada.ca/etc/designs/canada/cdts/gcweb/v4_0_24/js/ie8-wet-boew2.min.js,142.862881,0,4165,0,3283,0,3283,0,882,882,0,0,3833,332,13.455447,0,0
www.canada.ca/etc/designs/canada/cdts/gcweb/v4_0_22/js/polyfills/datalist.min.js,141.05677,0,163625,0,42190,0,42190,0,121435,121435,0,0,162860,765,2.089403,0.000219,0
www.canada.ca/etc/designs/canada/cdts/gcweb/v4_0_24/js/jquery/1.11.1/jquery.min.js,141.009363,0.000054,4629,0,3735,0,3735,0,894,894,0,0,4291,338,11.763574,0.00065,1
www.canada.ca/etc/designs/canada/cdts/gcweb/v4_0_25/css/polyfills/meter.min.css,138.432055,0.000108,187227,0,83318,0,83318,0,103909,103909,0,0,186372,855,0.988262,0.001786,2
www.canada.ca/etc/designs/canada/cdts/gcweb/v4_0_25/js/deps/template.min.js,129.921066,0.000108,194655,0,88944,0,88944,0,105711,105711,0,0,193774,881,0.919295,0.001786,2
www.canada.ca/etc/designs/canada/cdts/gcweb/v4_0_26/js/ie8-wet-boew2.min.js,129.520644,0.000054,4405,0,2886,0,2886,0,1519,1519,0,0,4140,265,10.892989,0.003337,1
www.canada.ca/etc/designs/canada/cdts/gcweb/v4_0_26/css/polyfills/slider.min.css,126.406166,0,81847,0,62569,0,62569,0,19278,19278,0,0,81447,400,0.716778,0,0
www.canada.ca/etc/designs/canada/cdts/gcweb/v4_0_27/css/ie8-theme.min.css,124.764567,0,2645,0,1920,0,1920,0,725,725,0,0,2429,216,13.414107,0,0
www.canada.ca/etc/designs/canada/cdts/gcweb/v4_0_27/assets/sprites_share.png,121.400881,0,1788,0,1615,2,1617,0,171,171,0,0,1488,300,21.345189,0,0
www.canada.ca/etc/designs/canada/cdts/gcweb/v4_0_23/js/i18n/en.min.js,119.970622,0,56714,0,23398,942,24340,0,32374,32374,0,0,56191,523,1.678487,0.000657,0
www.canada.ca/etc/designs/canada/cdts/gcweb/v4_0_26/css/polyfills/progress.min.css,105.613643,0,152192,0,69889,0,69889,0,82303,82303,0,0,151802,390,0.300218,0.000438,0
www.canada.ca/etc/designs/canada/cdts/gcweb/v4_0_22/js/wet-boew.min.js.map,103.86894,0,1442,0,610,0,610,0,832,832,0,0,1396,46,2.505391,0,0
www.canada.ca/etc/designs/canada/cdts/gcweb/v4_0_22/js/deps/jquery.validate.min.js,101.28668,0,31922,0,11286,840,12126,0,19796,19796,0,0,31182,740,5.682206,0,0
www.canada.ca/etc/designs/canada/cdts/gcweb/v4_0_22/js/polyfills/datepicker.min.js,95.546031,0,110771,0,21148,0,21148,0,89623,89623,0,0,109972,799,2.164356,0.000657,0
www.canada.ca/etc/designs/canada/cdts/gcweb/v4_0_23/fonts/glyphicons-halflings-regular.eot,94.997586,0,23447,0,3659,0,3659,0,19788,19788,0,0,22979,468,10.179986,0.000657,0
www.canada.ca/etc/designs/canada/cdts/gcweb/v4_0_24/js/polyfills/slider.min.js,94.403982,0,16256,0,12384,0,12384,0,3872,3872,0,0,15831,425,2.987294,0,0
www.canada.ca/etc/designs/canada/cdts/gcweb/v4_0_26/css/noscript.min.css,91.094303,0,111601,0,17295,0,17295,0,94306,94306,0,0,111216,385,0.462239,0.000438,0
www.canada.ca/etc/designs/canada/cdts/gcweb/v4_0_24/js/ie8-wet-boew.min.js,89.667914,0.000734,4611,0,3724,0,3724,0,887,887,0,0,4264,347,7.48607,0.000869,2
www.canada.ca/etc/designs/canada/cdts/gcweb/v4_0_26/js/polyfills/slider_wrapper.min.js,88.757811,0,84369,0,65727,0,65727,0,18642,18642,0,0,83984,385,0.473619,0,0
www.canada.ca/etc/designs/canada/cdts/gcweb/rn/assets/sig-blk-fr.svg,87.549031,0.001376,90609,0,88840,0,88840,0,1769,1769,0,0,89818,791,1.407767,0.001238,24
www.canada.ca/etc/designs/canada/cdts/gcweb/v4_0_27/cdts/exitScript.js,85.941185,0,142845,0,46628,0,46628,0,96217,96217,0,0,142417,428,0.454776,0.000219,0
www.canada.ca/etc/designs/canada/cdts/gcweb/v4_0_26/cdts/cdtsnoscript.css,83.569981,0,114120,0,17136,0,17136,0,96984,96984,0,0,113765,355,0.367892,0.000438,0
www.canada.ca/etc/designs/canada/cdts/gcweb/v4_0_22/assets/favicon-mobile.png,82.998377,0,49934,0,19173,3,19176,0,30758,30758,0,0,49316,618,2.229953,0,0
www.canada.ca/etc/designs/canada/cdts/gcweb/v4_0_26/js/jquery/1.11.1/jquery.min.js,75.906617,0,3003,0,2078,0,2078,0,925,925,0,0,2773,230,7.733766,0,0
www.canada.ca/etc/designs/canada/cdts/gcweb/v4_0_23/js/wet-boew.min.js.map,75.626683,0,683,0,566,0,566,0,117,117,0,0,652,31,1.913093,0,0
www.canada.ca/etc/designs/canada/cdts/gcweb/v4_0_22/js/jquery/2.1.4/jquery.min.map,75.27236,0,1453,0,628,0,628,0,825,825,0,0,1400,53,2.431893,0,0
www.canada.ca/etc/designs/canada/cdts/gcweb/v4_0_27/js/ie8-wet-boew2.min.js,72.82647,0,2260,0,1623,0,1623,0,637,637,0,0,2078,182,7.794902,0,0
www.canada.ca/etc/designs/canada/cdts/gcweb/v4_0_22/js/deps/additional-methods.min.js,70.717417,0,29871,0,10576,1038,11614,0,18257,18257,0,0,29205,666,3.786347,0.000219,0
www.canada.ca/etc/designs/canada/cdts/gcweb/v4_0_27/js/jquery/1.11.1/jquery.min.js,70.62912,0,2602,0,1928,0,1928,0,674,674,0,0,2382,220,7.559569,0,0
www.canada.ca/etc/designs/canada/cdts/gcweb/v4_0_22/cdts/compiled/plugins-fr.js,68.211309,0,86835,0,25368,3,25371,0,61464,61464,0,0,86327,508,0.737614,0.000219,0
www.canada.ca/etc/designs/canada/cdts/gcweb/v4_0_23/cdts/cdtsfixes.css,66.933012,0.000054,42166,0,21616,2,21618,0,20548,20548,0,0,41647,519,0.84826,0.000876,1
www.canada.ca/etc/designs/canada/cdts/gcweb/v4_0_26/js/jquery/2.1.4/jquery.js,63.534952,0,5257,0,753,0,753,0,4504,4504,0,0,5183,74,5.615265,0,0
www.canada.ca/etc/designs/canada/cdts/gcweb/v4_0_27/cdts/cdtsapps.css,63.39852,0,142645,0,6493,0,6493,0,136152,136152,0,0,142371,274,0.528224,0.001314,0
www.canada.ca/etc/designs/canada/cdts/gcweb/v4_0_24/assets/sprites_share.png,62.607155,0,890,0,834,2,836,0,54,54,0,0,740,150,10.672397,0,0
www.canada.ca/etc/designs/canada/cdts/gcweb/v4_0_22/css/polyfills/datalist.min.css,62.403,0,168250,0,40058,0,40058,0,128192,128192,0,0,167602,648,0.697546,0.000219,0
www.canada.ca/etc/designs/canada/cdts/gcweb/v4_0_23/js/theme.min.js,60.480706,0,40738,0,20703,4,20707,0,20031,20031,0,0,40227,511,0.846553,0.000876,0
www.canada.ca/etc/designs/canada/cdts/gcweb/v4_0_22/css/polyfills/datepicker.min.css,60.383718,0,109372,0,20389,0,20389,0,88983,88983,0,0,108625,747,0.903705,0.000657,0
www.canada.ca/etc/designs/canada/cdts/gcweb/v4_0_22/js/polyfills/details.min.js,57.487985,0,93035,0,19730,0,19730,0,73305,73305,0,0,92192,843,1.258816,0.000657,0
www.canada.ca/etc/designs/canada/cdts/gcweb/v4_0_25/cdts/compiled/wet-fr.js,57.139832,0,18389,0,7546,0,7546,0,10843,10843,0,0,18162,227,1.521595,0.000616,0
www.canada.ca/etc/designs/canada/cdts/gcweb/v4_0_22/css/polyfills/meter.min.css,55.790191,0,94444,0,18475,0,18475,0,75969,75969,0,0,93738,706,0.866311,0.000657,0
www.canada.ca/etc/designs/canada/cdts/gcweb/v4_0_23/js/jquery/2.1.4/jquery.min.map,53.913027,0,691,0,569,0,569,0,122,122,0,0,659,32,1.458475,0,0
www.canada.ca/etc/designs/canada/cdts/gcweb/v4_0_24/js/polyfills/datepicker.min.js.map,53.642164,0,9590,0,8886,0,8886,0,704,704,0,0,9418,172,0.436025,0.000438,0
www.canada.ca/etc/designs/canada/cdts/gcweb/v4_0_26/assets/sig-spl.svg,52.512651,0.004445,32460,0,31577,0,31577,0,883,883,0,0,31558,902,1.643956,0.0006,15
www.canada.ca/etc/designs/canada/cdts/gcweb/v4_0_27/fonts/glyphicons-halflings-regular.ttf,50.70444,0.000055,2919,0,1892,2,1894,0,1025,1025,0,0,2485,434,8.625375,0.000438,1
www.canada.ca/etc/designs/canada/cdts/gcweb/v4_0_22/js/polyfills/meter.min.js,50.152406,0,65242,0,18007,0,18007,0,47235,47235,0,0,64486,756,1.237793,0.000657,0
www.canada.ca/etc/designs/canada/cdts/gcweb/v4_0_26/assets/sig-blk-en.png,49.164781,0,3821,0,3325,0,3325,0,496,496,0,0,3705,116,1.572275,0,0
www.canada.ca/etc/designs/canada/cdts/gcweb/v4_0_27/js/polyfills/datepicker.min.js.map,48.175428,0,8578,0,8353,0,8353,0,225,225,0,0,8440,138,0.365042,0,0
www.canada.ca/etc/designs/canada/cdts/gcweb/v4_0_26/js/ie8-wet-boew.min.js,47.552951,0,3023,0,2089,0,2089,0,934,934,0,0,2789,234,4.94405,0,0
www.canada.ca/etc/designs/canada/cdts/gcweb/v4_0_23/img/splash/sp-bg-2.jpg,46.742188,0,1652,0,1123,5,1128,0,524,524,0,0,1525,127,4.499512,0.000438,0
www.canada.ca/etc/designs/canada/cdts/gcweb/rn/assets/favicon.ico,45.704656,0,5930,0,5564,0,5564,0,366,366,0,0,5412,518,2.406192,0,0
www.canada.ca/etc/designs/canada/cdts/gcweb/v4_0_26/assets/wmms-spl.svg,45.635627,0.005425,32427,0,31592,0,31592,0,835,835,0,0,31595,832,1.387969,0.001253,13
www.canada.ca/etc/designs/canada/cdts/gcweb/v4_0_27/js/ie8-wet-boew.min.js,44.558082,0,2573,0,1886,0,1886,0,687,687,0,0,2352,221,4.72876,0,0
www.canada.ca/etc/designs/canada/cdts/gcweb/v4_0_22/assets/sig-spl.svg,40.801741,0.000426,20661,0,19337,36,19373,0,1288,1288,0,0,20202,459,1.155733,0.0002,3
www.canada.ca/etc/designs/canada/cdts/gcweb/v4_0_26/assets/wmms-blk.png,37.583408,0,6403,0,5782,0,5782,0,621,621,0,0,6243,160,0.808702,0,0
www.canada.ca/etc/designs/canada/cdts/gcweb/v4_0_22/css/polyfills/details.min.css,33.896568,0,67994,0,17985,0,17985,0,50009,50009,0,0,67193,801,0.717935,0.000657,0
www.canada.ca/etc/designs/canada/cdts/gcweb/v4_0_22/assets/wmms-spl.svg,33.326107,0.000769,19977,0,19187,23,19210,0,767,767,0,0,19521,456,1.018526,0.0002,4
www.canada.ca/etc/designs/canada/cdts/gcweb/v4_0_24/js/polyfills/progress.min.js,32.21746,0,28667,0,15121,0,15121,0,13546,13546,0,0,28243,424,0.59255,0,0
www.canada.ca/etc/designs/canada/cdts/gcweb/v4_0_25/js/polyfills/datepicker.min.js.map,31.761635,0.000216,5129,0,5129,0,5129,0,0,0,0,0,5033,96,0.269777,0.000616,4
www.canada.ca/etc/designs/canada/cdts/gcweb/v4_0_25/css/ie8-theme.min.css,31.667863,0,614,0,489,0,489,0,125,125,0,0,546,68,4.26763,0,0
www.canada.ca/etc/designs/canada/cdts/gcweb/v4_0_24/css/polyfills/,30.26404,0,50060,0,0,0,0,0,0,50060,0,0,50060,0,0,0,0
www.canada.ca/etc/designs/canada/cdts/gcweb/v4_0_26/js/deps/tableparser.min.js,30.038667,0,13518,0,4041,264,4305,0,9213,9213,0,0,13164,354,2.285997,0.000219,0
www.canada.ca/etc/designs/canada/cdts/gcweb/v4_0_27/cdts/compiled/plugins-en.js,29.570161,1.221123,26997,0,12918,0,12918,0,14079,14079,0,929,26509,488,0.364857,0.000472,930
www.canada.ca/etc/designs/canada/cdts/gcweb/v4_0_23/js/polyfills/datepicker.min.js,28.291699,0,30865,0,6296,0,6296,0,24569,24569,0,0,30530,335,0.911163,0.000657,0
www.canada.ca/etc/designs/canada/cdts/gcweb/v4_0_26/js/wet-boew.js,26.607442,0,2203,0,209,0,209,0,1994,1994,0,0,2154,49,4.391024,0,0
www.canada.ca/etc/designs/canada/cdts/gcweb/v4_0_23/js/polyfills/details.min.js,26.331188,0,46869,0,6569,0,6569,0,40300,40300,0,0,46558,311,0.457022,0.000657,0
www.canada.ca/etc/designs/canada/cdts/gcweb/v4_0_23/js/polyfills/meter.min.js,26.136162,0,38937,0,5136,0,5136,0,33801,33801,0,0,38607,330,0.467709,0.000657,0
www.canada.ca/etc/designs/canada/cdts/gcweb/v4_0_24/css/polyfills/slider.min.css,23.960544,0,14709,0,11040,0,11040,0,3669,3669,0,0,14286,423,0.80039,0,0
www.canada.ca/etc/designs/canada/cdts/gcweb/v4_0_25/fonts/glyphicons-halflings-regular.ttf,23.525687,0,1203,0,891,3,894,0,309,309,0,0,1002,201,3.995074,0,0
www.canada.ca/etc/designs/canada/cdts/gcweb/v4_0_26/js/polyfills/datepicker.min.js.map,23.291639,0.000054,4595,0,4239,0,4239,0,356,356,0,0,4432,163,0.435041,0.003337,1
www.canada.ca/etc/designs/canada/cdts/gcweb/rn/css/noscript.min.css,22.930146,0.003122,6229,0,5864,0,5864,0,365,365,0,0,5810,419,0.614271,0.000438,1
www.canada.ca/etc/designs/canada/cdts/gcweb/v4_0_25/assets/sprites_share.png,22.830909,0,344,0,306,0,306,0,38,38,0,0,309,35,2.573662,0,0
www.canada.ca/etc/designs/canada/cdts/gcweb/v4_0_24/js/polyfills/meter.min.js.map,22.570373,0.000054,9523,0,8839,0,8839,0,684,684,0,0,9364,159,0.227732,0.000657,1
www.canada.ca/etc/designs/canada/cdts/gcweb/v4_0_23/css/polyfills/meter.min.css,22.363935,0,37489,0,5026,0,5026,0,32463,32463,0,0,37172,317,0.331886,0.000657,0
www.canada.ca/etc/designs/canada/cdts/gcweb/v4_0_24/css/polyfills/progress.min.css,21.624185,0,28128,0,15124,0,15124,0,13004,13004,0,0,27691,437,0.340328,0,0
www.canada.ca/etc/designs/canada/cdts/gcweb/v4_0_24/js/polyfills/details.min.js.map,20.944588,0,9631,0,8918,0,8918,0,713,713,0,0,9452,179,0.24726,0.000438,0
www.canada.ca/etc/designs/canada/cdts/gcweb/v4_0_25/css/theme-srv.min.css,20.542621,0,1081,0,504,0,504,0,577,577,0,0,1023,58,2.032838,0,0
www.canada.ca/etc/designs/canada/cdts/gcweb/v4_0_27/js/polyfills/meter.min.js.map,20.338437,0,8519,0,8285,0,8285,0,234,234,0,0,8390,129,0.181167,0,0
www.canada.ca/etc/designs/canada/cdts/gcweb/rn/cdts/compiled/plugins-en.js,20.230705,0.003901,23670,0,15885,0,15885,0,7785,7785,0,0,22954,716,0.510592,0,1
www.canada.ca/etc/designs/canada/cdts/gcweb/v4_0_23/css/polyfills/details.min.css,19.54567,0,42087,0,5635,0,5635,0,36452,36452,0,0,41763,324,0.280621,0.000657,0
www.canada.ca/etc/designs/canada/cdts/gcweb/rn/assets/sig-blk-en.png,19.521736,0,2773,0,1090,0,1090,0,1683,1683,0,0,2672,101,1.200491,0,0
www.canada.ca/etc/designs/canada/cdts/gcweb/v4_0_23/css/polyfills/datepicker.min.css,19.494925,0,33641,0,6030,0,6030,0,27611,27611,0,0,33253,388,0.442287,0.000438,0
www.canada.ca/etc/designs/canada/cdts/gcweb/v4_0_27/js/polyfills/details.min.js.map,18.91694,0,8660,0,8402,0,8402,0,258,258,0,0,8525,135,0.180124,0,0
www.canada.ca/etc/designs/canada/cdts/gcweb/v4_0_22/assets/sprites_share.png,17.230124,0,266,0,227,0,227,0,39,39,0,0,231,35,2.572724,0,0
www.canada.ca/etc/designs/canada/cdts/gcweb/v4_0_25/js/jquery/1.11.1/jquery.min.js,17.022989,0,590,0,468,0,468,0,122,122,0,0,533,57,1.974847,0,0
www.canada.ca/etc/designs/canada/cdts/gcweb/v4_0_24/js/polyfills/slider_wrapper.min.js,16.756369,0,14644,0,11066,0,11066,0,3578,3578,0,0,14207,437,0.541766,0,0
www.canada.ca/etc/designs/canada/cdts/gcweb/v4_0_26/assets/sig-blk-fr.png,16.596178,0,1271,0,1169,0,1169,0,102,102,0,0,1253,18,0.247452,0,0
www.canada.ca/etc/designs/canada/cdts/gcweb/v4_0_22/css/messages.min.css,16.011896,0,12396,0,11201,0,11201,0,1195,1195,0,0,12094,302,0.499343,0,0
www.canada.ca/etc/designs/canada/cdts/gcweb/rn/css/wet-boew.min.css,15.471449,0,4609,0,4457,0,4457,0,152,152,0,0,4274,335,0.375047,0,0
www.canada.ca/etc/designs/canada/cdts/gcweb/v4_0_25/js/ie8-wet-boew2.min.js,13.957141,0,423,0,321,0,321,0,102,102,0,0,376,47,1.990961,0,0
www.canada.ca/etc/designs/canada/cdts/gcweb/v4_0_24/assets/sig-blk-en.png,13.296568,0,1245,0,915,0,915,0,330,330,0,0,1149,96,1.29227,0,0
www.canada.ca/etc/designs/canada/cdts/gcweb/v4_0_22/fonts/glyphicons-halflings-regular.ttf,12.968587,0,575,0,495,2,497,0,78,78,0,0,514,61,1.247746,0,0
www.canada.ca/etc/designs/canada/cdts/gcweb/v4_0_25/js/polyfills/meter.min.js.map,12.884268,0.000477,4984,0,4984,0,4984,0,0,0,0,0,4886,98,0.152317,0.000219,4
www.canada.ca/etc/designs/canada/cdts/gcweb/v4_0_25/js/polyfills/details.min.js.map,12.020016,0.000216,5070,0,5066,0,5066,0,4,4,0,0,4967,103,0.148205,0.000219,4
www.canada.ca/etc/designs/canada/cdts/gcweb/v4_0_26/css/polyfills/,11.980093,0,17502,0,0,0,0,0,0,17502,0,0,17502,0,0,0,0
www.canada.ca/etc/designs/canada/cdts/gcweb/v4_0_24/js/deps/prettify.min.js,11.687822,0,2818,0,1435,192,1627,0,1191,1191,0,0,2627,191,1.357674,0,0
www.canada.ca/etc/designs/canada/cdts/gcweb/v4_0_25/js/polyfills/slider.min.js,11.307866,0,1963,0,1519,0,1519,0,444,444,0,0,1852,111,0.787818,0,0
www.canada.ca/etc/designs/canada/cdts/gcweb/v4_0_27/css/messages.min.css,11.244643,0,9325,0,8076,0,8076,0,1249,1249,0,0,8751,574,0.944777,0.000219,0
www.canada.ca/etc/designs/canada/cdts/gcweb/v4_0_27/css/polyfills/,10.59935,0,17306,0,0,0,0,0,0,17306,0,0,17306,0,0,0,0
www.canada.ca/etc/designs/canada/cdts/gcweb/v4_0_26/js/polyfills/meter.min.js.map,10.184494,0,4373,0,4094,0,4094,0,279,279,0,0,4216,157,0.230886,0,0
www.canada.ca/etc/designs/canada/cdts/gcweb/v4_0_25/js/ie8-wet-boew.min.js,10.098093,0,544,0,432,0,432,0,112,112,0,0,490,54,1.184012,0,0
www.canada.ca/etc/designs/canada/cdts/gcweb/v4_0_24/css/wet-boew.min.css,10.029216,0,3146,0,2303,0,2303,0,843,843,0,0,2775,371,0.380074,0,0
www.canada.ca/etc/designs/canada/cdts/gcweb/v4_0_27/js/polyfills/slider.min.js,9.901929,0,1623,0,1326,0,1326,0,297,297,0,0,1475,148,1.040418,0,0
www.canada.ca/etc/designs/canada/cdts/gcweb/v4_0_26/js/polyfills/details.min.js.map,9.881251,0,4951,0,4297,0,4297,0,654,654,0,0,4766,185,0.258729,0,0
www.canada.ca/etc/designs/canada/cdts/gcweb/v4_0_24/assets/wmms-blk.png,8.960782,0,1908,0,1577,0,1577,0,331,331,0,0,1692,216,1.088865,0,0
www.canada.ca/etc/designs/canada/cdts/gcweb/v4_0_26/css/messages.min.css,8.153822,0,6734,1,5231,0,5231,0,1502,1502,0,0,6364,370,0.614531,0.000219,0
www.canada.ca/etc/designs/canada/cdts/gcweb/v4_0_22/css/noscript.min.css,7.904928,0,3219,0,2534,0,2534,0,685,685,0,0,2845,374,0.461172,0,0
www.canada.ca/etc/designs/canada/cdts/gcweb/v4_0_23/js/polyfills/datalist.min.js,7.535824,0,5916,0,2537,0,2537,0,3379,3379,0,0,5631,285,0.759308,0,0
www.canada.ca/etc/designs/canada/cdts/gcweb/v4_0_24/js/jquery/2.1.4/jquery.js,7.306786,0,256,0,93,0,93,0,163,163,0,0,251,5,0.384489,0,0
www.canada.ca/etc/designs/canada/cdts/gcweb/v4_0_26/assets/sprites_share.png,7.217338,0,121,0,98,0,98,0,23,23,0,0,93,28,1.840789,0,0
www.canada.ca/etc/designs/canada/cdts/gcweb/v4_0_24/js/deps/OpenLayers.min.js,6.777698,0,610,0,34,0,34,0,576,576,0,0,590,20,2.797859,0,0
www.canada.ca/etc/designs/canada/cdts/gcweb/v4_0_23/cdts/compiled/wet-fr.js,6.72931,0,2988,0,703,0,703,0,2285,2285,0,0,2884,104,0.641924,0.000219,0
www.canada.ca/etc/designs/canada/cdts/gcweb/v4_0_23/js/i18n/fr.min.js,6.604505,0,5778,0,1017,82,1099,0,4679,4679,0,0,5649,129,0.582708,0.000219,0
www.canada.ca/etc/designs/canada/cdts/gcweb/rn/assets/wmms-alt.png,6.51383,0,2792,0,1134,0,1134,0,1658,1658,0,0,2693,99,0.312028,0,0
www.canada.ca/etc/designs/canada/cdts/gcweb/v4_0_27/js/deps/OpenLayers.min.js,6.447591,0,50,0,33,0,33,0,17,17,0,0,49,1,0.199348,0,0
www.canada.ca/etc/designs/canada/cdts/gcweb/v4_0_27/assets/mediacontrols.html,5.843808,0,5109,0,4237,0,4237,0,872,872,0,0,3134,1975,2.533785,0.000657,0
www.canada.ca/etc/designs/canada/cdts/gcweb/v4_0_25/css/noscript.min.css,5.53516,0,8074,0,1568,0,1568,0,6506,6506,0,0,7852,222,0.269212,0,0
www.canada.ca/etc/designs/canada/cdts/gcweb/v4_0_27/js/polyfills/progress.min.js,5.498723,0,3322,0,2287,0,2287,0,1035,1035,0,0,3099,223,0.324046,0,0
www.canada.ca/etc/designs/canada/cdts/gcweb/v4_0_23/assets/favicon-mobile.png,5.311037,0,3197,0,1306,0,1306,0,1891,1891,0,0,3023,174,0.602997,0,0
www.canada.ca/etc/designs/canada/cdts/gcweb/v4_0_23/assets/sig-spl.svg,5.201886,0.001195,3392,0,3279,0,3279,0,113,113,0,0,3051,341,0.474706,0.000419,7
www.canada.ca/etc/designs/canada/cdts/gcweb/v4_0_23/assets/wmms-spl.svg,4.716611,0.002037,3396,0,3283,0,3283,0,113,113,0,0,3079,317,0.414635,0.000419,8
www.canada.ca/etc/designs/canada/cdts/gcweb/rn/fonts/glyphicons-halflings-regular.woff,4.572398,0,3923,0,143,0,143,0,3780,3780,0,0,3877,46,1.109985,0,0
www.canada.ca/etc/designs/canada/cdts/gcweb/v4_0_25/js/polyfills/progress.min.js,4.194106,0,3662,0,2319,0,2319,0,1343,1343,0,0,3516,146,0.202173,0,0
www.canada.ca/etc/designs/canada/cdts/gcweb/rn/cdts/compiled/plugins-fr.js,4.141557,0.000797,5878,0,2241,0,2241,0,3637,3637,0,0,5685,193,0.115386,0,1
www.canada.ca/etc/designs/canada/cdts/gcweb/v4_0_24/css/noscript.min.css,4.071093,0,1758,0,1274,0,1274,0,484,484,0,0,1616,142,0.160925,0,0
www.canada.ca/etc/designs/canada/cdts/gcweb/v4_0_27/cdts/compiled/plugins-fr.js,3.69576,0.225228,3043,0,2333,0,2333,0,710,710,0,174,2837,206,0.138137,0.000219,175
www.canada.ca/etc/designs/canada/cdts/gcweb/rn/js/wet-boew.min.js,3.67726,0,4247,0,60,0,60,0,4187,4187,0,0,4227,20,0.996888,0,0
www.canada.ca/etc/designs/canada/cdts/gcweb/v4_0_23/js/deps/jquery.dataTables.min.js,3.548531,0,1145,0,104,0,104,0,1041,1041,0,0,1121,24,0.521728,0,0
www.canada.ca/etc/designs/canada/cdts/gcweb/v4_0_25/css/polyfills/slider.min.css,3.367614,0,2092,0,1649,0,1649,0,443,443,0,0,1971,121,0.227709,0,0
www.canada.ca/etc/designs/canada/cdts/gcweb/rn/css/theme-srv.min.css,3.358787,0,4256,0,59,0,59,0,4197,4197,0,0,4236,20,0.668248,0,0
www.canada.ca/etc/designs/canada/cdts/gcweb/v4_0_23/cdts/compiled/plugins-en.js,3.229032,0.004605,2582,0,168,0,168,0,2414,2414,0,0,2530,52,0.053658,0.000438,5
www.canada.ca/etc/designs/canada/cdts/gcweb/v4_0_24/fonts/gcweb_0c4a4eb7974d0a7287c93c02965f9b3f.eot,3.082718,0,1009,0,548,0,548,0,461,461,0,0,759,250,1.268405,0,0
www.canada.ca/etc/designs/canada/cdts/gcweb/rn/cdts/cdtsfixes.css,2.911336,0.003122,1031,0,879,0,879,0,152,152,0,0,897,134,0.150631,0.000438,1
www.canada.ca/etc/designs/canada/cdts/gcweb/v4_0_27/cdts/cdtsnoscript.css,2.905349,0,1057,0,947,0,947,0,110,110,0,0,900,157,0.150931,0,0
www.canada.ca/etc/designs/canada/cdts/gcweb/v4_0_24/css/theme-srv.min.css,2.867577,0,138,0,77,0,77,0,61,61,0,0,132,6,0.208206,0,0
www.canada.ca/etc/designs/canada/cdts/gcweb/v4_0_27/css/polyfills/progress.min.css,2.811293,0,3251,0,2044,0,2044,0,1207,1207,0,0,3024,227,0.180394,0,0
www.canada.ca/etc/designs/canada/cdts/gcweb/v4_0_25/css/polyfills/progress.min.css,2.798328,0,3794,0,2374,0,2374,0,1420,1420,0,0,3640,154,0.105399,0,0
www.canada.ca/etc/designs/canada/cdts/gcweb/v4_0_22/cdts/exitScript.js,2.791174,0.008986,3185,0,864,0,864,0,2321,2321,0,0,3114,71,0.09626,0.000438,16
www.canada.ca/etc/designs/canada/cdts/gcweb/v4_0_22/js/polyfills/slider.min.js,2.736152,0,390,0,364,0,364,0,26,26,0,0,365,25,0.177957,0,0
www.canada.ca/etc/designs/canada/cdts/gcweb/v4_0_23/css/polyfills/datalist.min.css,2.663483,0,5443,0,2169,0,2169,0,3274,3274,0,0,5192,251,0.243157,0,0
www.canada.ca/etc/designs/canada/cdts/gcweb/v4_0_27/css/polyfills/slider.min.css,2.556129,0,1571,0,1264,0,1264,0,307,307,0,0,1424,147,0.273177,0,0
www.canada.ca/etc/designs/canada/cdts/gcweb/v4_0_27/css/noscript.min.css,2.441912,0,803,0,701,0,701,0,102,102,0,0,689,114,0.143075,0.000219,0
www.canada.ca/etc/designs/canada/cdts/gcweb/v4_0_26/js/polyfills/svg.min.js,2.431489,0.000216,3077,0,1645,0,1645,0,1432,1432,0,0,2916,161,0.157416,0.000219,4
www.canada.ca/etc/designs/canada/cdts/gcweb/v4_0_22/js/polyfills/datepicker.min.js.map,2.299813,0,384,0,363,0,363,0,21,21,0,0,374,10,0.030209,0,0
www.canada.ca/etc/designs/canada/cdts/gcweb/v4_0_26/js/theme.js,2.254929,0,1650,0,10,0,10,0,1640,1640,0,0,1642,8,0.191704,0,0
www.canada.ca/etc/designs/canada/cdts/gcweb/v4_0_23/css/messages.min.css,2.235053,0,1605,0,1121,0,1121,0,484,484,0,0,1465,140,0.198977,0.000438,0
www.canada.ca/etc/designs/canada/cdts/gcweb/v4_0_25/css/polyfills/,2.043618,0,3220,0,0,0,0,0,0,3220,0,0,3220,0,0,0,0
www.canada.ca/etc/designs/canada/cdts/gcweb/v4_0_25/js/polyfills/slider_wrapper.min.js,1.912267,0,1738,0,1326,0,1326,0,412,412,0,0,1643,95,0.111358,0,0
www.canada.ca/etc/designs/canada/cdts/gcweb/v4_0_24/css/polyfills.html,1.783994,0,3778,0,3778,0,3778,0,0,0,0,0,0,3780,1.568358,0,0
www.canada.ca/etc/designs/canada/cdts/gcweb/v4_0_27/js/polyfills/slider_wrapper.min.js,1.71252,0,1530,0,1252,0,1252,0,278,278,0,0,1386,144,0.181768,0,0
www.canada.ca/etc/designs/canada/cdts/gcweb/v4_0_26/cdts/cdtscustom.js,1.675847,0,1902,0,623,0,623,0,1279,1279,0,0,1815,87,0.17498,0,0
www.canada.ca/etc/designs/canada/cdts/gcweb/v4_0_26/js/deps/jquery.magnific-popup.js,1.525038,0,2789,0,24,2,26,0,2763,2763,0,0,2778,11,0.167307,0,0
www.canada.ca/etc/designs/canada/cdts/gcweb/v4_0_26/css/polyfills.html,1.478518,0,3166,0,3166,0,3166,0,0,0,0,0,0,3167,1.313919,0,0
www.canada.ca/etc/designs/canada/cdts/gcweb/v4_0_26/js/deps/template.js,1.460108,0,2529,0,11,0,11,0,2518,2518,0,0,2522,7,0.008928,0,0
www.canada.ca/etc/designs/canada/cdts/gcweb/v4_0_22/js/polyfills/progress.min.js,1.45357,0,1108,0,757,0,757,0,351,351,0,0,1052,56,0.071544,0,0
www.canada.ca/etc/designs/canada/cdts/gcweb/v4_0_24/js/polyfills/svg.min.js,1.334975,0,1658,0,975,0,975,0,683,683,0,0,1426,232,0.249979,0,0
www.canada.ca/etc/designs/canada/cdts/gcweb/v4_0_27/assets/sig-blk-en.png,1.202471,0,88,0,85,0,85,0,3,3,0,0,87,1,0.013924,0,0
www.canada.ca/etc/designs/canada/cdts/gcweb/v4_0_23/js/polyfills/datepicker.min.js.map,1.106342,0,200,0,173,0,173,0,27,27,0,0,193,7,0.0233,0,0
www.canada.ca/etc/designs/canada/cdts/gcweb/v4_0_22/css/polyfills/,1.022751,0,1618,0,0,0,0,0,0,1618,0,0,1618,0,0,0,0
www.canada.ca/etc/designs/canada/cdts/gcweb/v4_0_26/css/polyfills/meter.css,0.999774,0,1872,0,8,0,8,0,1864,1864,0,0,1867,5,0.004883,0,0
www.canada.ca/etc/designs/canada/cdts/gcweb/v4_0_25/cdts/compiled/plugins-en.js,0.997323,0,2326,0,451,0,451,0,1875,1875,0,0,2268,58,0.040963,0,0
www.canada.ca/etc/designs/canada/cdts/gcweb/v4_0_24/js/deps/proj4.min.js,0.975417,0,614,0,32,4,36,0,578,578,0,0,596,18,0.298972,0,0
www.canada.ca/etc/designs/canada/cdts/gcweb/v4_0_27/css/polyfills.html,0.971517,0,2055,0,2055,0,2055,0,0,0,0,0,0,2057,0.857925,0,0
www.canada.ca/etc/designs/canada/cdts/gcweb/v4_0_26/js/polyfills/datepicker.js,0.966407,0,1870,0,10,0,10,0,1860,1860,0,0,1863,7,0.025559,0,0
www.canada.ca/etc/designs/canada/cdts/gcweb/v4_0_22/js/polyfills/details.min.js.map,0.926849,0,403,0,383,0,383,0,20,20,0,0,391,12,0.017608,0,0
www.canada.ca/etc/designs/canada/cdts/gcweb/v4_0_26/css/polyfills/datepicker.css,0.896968,0,1837,0,5,0,5,0,1832,1832,0,0,1832,5,0.006173,0,0
www.canada.ca/etc/designs/canada/cdts/gcweb/v4_0_26/js/polyfills/meter.js,0.889588,0,1574,0,6,0,6,0,1568,1568,0,0,1570,4,0.008102,0,0
www.canada.ca/etc/designs/canada/cdts/gcweb/v4_0_22/css/polyfills/progress.min.css,0.876504,0,1132,0,797,0,797,0,335,335,0,0,1065,67,0.049656,0,0
www.canada.ca/etc/designs/canada/cdts/gcweb/v4_0_22/js/polyfills/meter.min.js.map,0.868511,0,351,0,330,0,330,0,21,21,0,0,340,11,0.016511,0,0
www.canada.ca/etc/designs/canada/cdts/gcweb/v4_0_22/css/polyfills/slider.min.css,0.832979,0,453,0,404,0,404,0,49,49,0,0,428,25,0.044617,0,0
www.canada.ca/etc/designs/canada/cdts/gcweb/v4_0_27/js/deps/proj4.min.js,0.803872,0,51,0,32,0,32,0,19,19,0,0,50,1,0.024614,0,0
www.canada.ca/etc/designs/canada/cdts/gcweb/v4_0_23/assets/sig-blk-en.png,0.76728,0,53,0,52,0,52,0,1,1,0,0,51,2,0.027582,0,0
www.canada.ca/etc/designs/canada/cdts/gcweb/v4_0_26/css/polyfills/details.css,0.752942,0,1593,0,9,0,9,0,1584,1584,0,0,1585,8,0.007464,0,0
www.canada.ca/etc/designs/canada/cdts/gcweb/v4_0_22/assets/sig-blk-en.png,0.745662,0,58,0,50,0,50,0,8,8,0,0,54,4,0.05516,0,0
www.canada.ca/etc/designs/canada/cdts/gcweb/v4_0_23/js/deps/jquery.validate.min.js,0.703736,0,728,0,49,2,51,0,677,677,0,0,710,18,0.14969,0,0
www.canada.ca/etc/designs/canada/cdts/gcweb/v4_0_26/fonts/glyphicons-halflings-regular.svg,0.627513,0,164,0,29,0,29,0,135,135,0,0,158,6,0.109468,0,0
www.canada.ca/etc/designs/canada/cdts/gcweb/v4_0_22/js/polyfills/slider_wrapper.min.js,0.61789,0,447,0,373,0,373,0,74,74,0,0,422,25,0.034536,0,0
www.canada.ca/etc/designs/canada/cdts/gcweb/v4_0_27/assets/wmms-blk.png,0.579382,0,89,0,87,0,87,0,2,2,0,0,87,2,0.010364,0,0
www.canada.ca/etc/designs/canada/cdts/gcweb/v4_0_24/js/deps/geomap-lib.min.js,0.540884,0,580,0,30,4,34,0,546,546,0,0,565,15,0.177762,0,0
www.canada.ca/etc/designs/canada/cdts/gcweb/v4_0_26/js/i18n/en.js,0.532672,0,842,0,5,0,5,0,837,837,0,0,837,5,0.017736,0,0
www.canada.ca/etc/designs/canada/cdts/gcweb/v4_0_26/js/deps/prettify.min.js,0.466901,0,806,0,26,0,26,0,780,780,0,0,802,4,0.03082,0,0
www.canada.ca/etc/designs/canada/cdts/gcweb/v4_0_23/js/polyfills/meter.min.js.map,0.466757,0,196,0,171,0,171,0,25,25,0,0,188,8,0.01398,0,0
www.canada.ca/etc/designs/canada/cdts/gcweb/rn/js/i18n/en.min.js,0.459182,0,1349,0,35,0,35,0,1314,1314,0,0,1342,7,0.023842,0,0
www.canada.ca/etc/designs/canada/cdts/gcweb/v4_0_23/js/deps/additional-methods.min.js,0.449654,0,592,0,35,0,35,0,557,557,0,0,574,18,0.102455,0,0
www.canada.ca/etc/designs/canada/cdts/gcweb/v4_0_27/js/deps/prettify.min.js,0.436471,0,273,0,44,0,44,0,229,229,0,0,268,5,0.031342,0,0
www.canada.ca/etc/designs/canada/cdts/gcweb/v4_0_23/js/polyfills/details.min.js.map,0.426617,0,198,0,171,0,171,0,27,27,0,0,191,7,0.01178,0,0
www.canada.ca/etc/designs/canada/cdts/gcweb/v4_0_27/js/deps/geomap-lib.min.js,0.418724,0,50,0,30,0,30,0,20,20,0,0,49,1,0.01359,0,0
www.canada.ca/etc/designs/canada/cdts/gcweb/v4_0_24/js/wet-boew.js,0.416948,0,162,0,4,0,4,0,158,158,0,0,159,3,0.277856,0,0
www.canada.ca/etc/designs/canada/cdts/gcweb/v4_0_26/js/deps/jquery.flot.min.js,0.362141,0,169,0,23,0,23,0,146,146,0,0,168,1,0.017056,0,0
www.canada.ca/etc/designs/canada/cdts/gcweb/v4_0_26/js/i18n/fr.js,0.292086,0,455,0,2,0,2,0,453,453,0,0,453,2,0.009808,0,0
www.canada.ca/etc/designs/canada/cdts/gcweb/v4_0_26/js/deps/jsonpointer.min.js,0.281288,0,232,0,211,0,211,0,21,21,0,0,224,8,0.012026,0,0
www.canada.ca/etc/designs/canada/cdts/gcweb/v4_0_22/assets/wmms-blk.png,0.256473,0,187,0,22,0,22,0,165,165,0,0,181,6,0.030878,0,0
www.canada.ca/etc/designs/canada/cdts/gcweb/v4_0_23/css/noscript.min.css,0.228196,0,187,0,97,0,97,0,90,90,0,0,165,22,0.028374,0,0
www.canada.ca/etc/designs/canada/cdts/gcweb/v4_0_26/js/deps/lang-sql.min.js,0.227872,0,733,0,13,0,13,0,720,720,0,0,731,2,0.003602,0,0
www.canada.ca/etc/designs/canada/cdts/gcweb/v4_0_27/assets/,0.192416,0,373,0,0,0,0,0,0,373,0,0,373,0,0,0,0
www.canada.ca/etc/designs/canada/cdts/gcweb/v4_0_26/css/,0.1545,0,278,0,0,0,0,0,0,278,0,0,278,0,0,0,0
www.canada.ca/etc/designs/canada/cdts/gcweb/v4_0_26/js/polyfills/details.js,0.14695,0,251,0,25,0,25,0,226,226,0,0,240,11,0.02348,0,0
www.canada.ca/etc/designs/canada/cdts/gcweb/v4_0_26/js/deps/jquery.flot.pie.min.js,0.113826,0,166,0,20,0,20,0,146,146,0,0,165,1,0.003763,0,0
www.canada.ca/etc/designs/canada/cdts/gcweb/v4_0_26/cdts/,0.113046,0,278,0,0,0,0,0,0,278,0,0,278,0,0,0,0
www.canada.ca/etc/designs/canada/cdts/gcweb/v4_0_26/js/deps/jquery.flot.canvas.min.js,0.075483,0,166,0,18,0,18,0,148,148,0,0,164,2,0.004007,0,0
www.canada.ca/etc/designs/canada/cdts/gcweb/v4_0_26/js/deps/jquery.flot.orderBars.min.js,0.069337,0,164,0,17,0,17,0,147,147,0,0,163,1,0.001789,0,0
www.canada.ca/etc/designs/canada/cdts/gcweb/v4_0_24/assets/zoom-world-mini.png,0.056723,0,176,0,21,0,21,0,155,155,0,0,168,8,0.007701,0,0
www.canada.ca/etc/designs/canada/cdts/gcweb/v4_0_22/js/deps/prettify.min.js,0.055607,0,96,0,2,0,2,0,94,94,0,0,95,1,0.007696,0,0
www.canada.ca/etc/designs/canada/cdts/gcweb/v4_0_24/assets/zoom-plus-mini.png,0.053024,0,176,0,23,0,23,0,153,153,0,0,168,8,0.006147,0,0
www.canada.ca/etc/designs/canada/cdts/gcweb/v4_0_24/assets/zoom-minus-mini.png,0.052071,0,176,0,21,0,21,0,155,155,0,0,168,8,0.006203,0,0
www.canada.ca/etc/designs/canada/cdts/gcweb/v4_0_24/js/theme.js,0.04712,0,159,0,1,0,1,0,158,158,0,0,158,1,0.002015,0,0
www.canada.ca/etc/designs/canada/cdts/gcweb/v4_0_26/assets/mediacontrols.html,0.03541,0,54,0,13,0,13,0,41,41,0,0,45,9,0.012106,0,0
www.canada.ca/etc/designs/canada/cdts/gcweb/v4_0_25/css/polyfills.html,0.033959,0,72,0,72,0,72,0,0,0,0,0,0,72,0.029298,0,0
www.canada.ca/etc/designs/canada/cdts/gcweb/v4_0_27/assets.html,0.024312,0,52,0,52,0,52,0,0,0,0,0,0,52,0.021124,0,0
www.canada.ca/etc/designs/canada/cdts/gcweb/v4_0_28/js/wet-boew.min.js,0,0.340389,0,0,0,0,0,0,0,0,64,64,0,0,0,0.062808,64
www.canada.ca/etc/designs/canada/cdts/gcweb/v4_0_28/js/theme.min.js,0,0.351221,0,0,0,0,0,0,0,0,66,66,0,0,0,0.062808,66
www.canada.ca/etc/designs/canada/cdts/gcweb/v4_0_28/js/jquery/2.1.4/jquery.min.js,0,0.306428,0,0,0,0,0,0,0,0,55,55,0,0,0,0.06345,55
www.canada.ca/etc/designs/canada/cdts/gcweb/v4_0_28/css/theme.min.css,0,0.358057,0,0,0,0,0,0,0,0,56,56,0,0,0,0.064191,56
www.canada.ca/etc/designs/canada/cdts/gcweb/v4_0_28/cdts/cdtsfixes.css,0,0.359128,0,0,0,0,0,0,0,0,56,56,0,0,0,0.064191,56
www.canada.ca/etc/designs/canada/cdts/gcweb/v4_0_28/assets/wmms-blk.svg,0,0.455276,0,0,0,0,0,0,0,0,197,197,0,0,0,0.055713,197
www.canada.ca/etc/designs/canada/cdts/gcweb/v4_0_28/assets/sig-blk-en.svg,0,0.505313,0,0,0,0,0,0,0,0,225,225,0,0,0,0.093529,225
www.canada.ca/etc/designs/canada/cdts/gcweb/v4_0_27/js/i18n/de-x-mtfrom-en.min.js,0,0.274547,0,0,0,0,0,0,0,0,52,52,0,0,0,0.026598,52
"www.canada.ca/etc/designs/canada/cdts/gcweb/v4_0_27/fonts/gcweb_0c4a4eb7974d0a7287c93c02965f9b3f.eot),%20url(../fonts/gcweb_0c4a4eb7974d0a7287c93c02965f9b3f.eot",0,0.523506,0,0,0,0,0,0,0,0,95,95,0,0,0,0.128442,95
www.canada.ca/etc/designs/canada/cdts/gcweb/v4_0_26/wet-boew/js/wet-boew.min.js,0,18.492807,0,0,0,0,0,0,0,0,3036,3036,0,0,0,6.144318,3036
www.canada.ca/etc/designs/canada/cdts/gcweb/v4_0_26/js/i18n/.min.js,0,2.581525,0,0,0,0,0,0,0,0,492,492,0,0,0,0.641901,492
"www.canada.ca/etc/designs/canada/cdts/gcweb/v4_0_26/fonts/gcweb_0c4a4eb7974d0a7287c93c02965f9b3f.eot),url(../fonts/gcweb_0c4a4eb7974d0a7287c93c02965f9b3f.eot",0,8.619607,0,0,0,0,0,0,0,0,1287,1287,0,0,0,0.666136,1287
"www.canada.ca/etc/designs/canada/cdts/gcweb/v4_0_26/fonts/gcweb_0c4a4eb7974d0a7287c93c02965f9b3f.eot),%20url(../fonts/gcweb_0c4a4eb7974d0a7287c93c02965f9b3f.eot",0,70.341318,0,0,0,0,0,0,0,0,11476,11476,0,0,0,8.13261,11476
www.canada.ca/etc/designs/canada/cdts/gcweb/v4_0_26/cdts/compiled/%22+wet.builder.environment(a)+,0,0.863547,0,0,0,0,0,0,0,0,110,110,0,0,0,0.22637,110
www.canada.ca/etc/designs/canada/cdts/gcweb/v4_0_26/assets/myBall.cur,0,0.270085,0,0,0,0,0,0,0,0,51,51,0,0,0,0.005448,51
www.canada.ca/etc/designs/canada/cdts/gcweb/v4_0_25/js/i18n/.min.js,0,2.305146,0,0,0,0,0,0,0,0,457,457,0,0,0,0.576054,457
www.canada.ca/etc/designs/canada/cdts/gcweb/v4_0_24/js/theme.debug.js,0,10.056443,0,0,0,0,0,0,0,0,563,563,0,0,0,0.059928,563
www.canada.ca/etc/designs/canada/cdts/gcweb/v4_0_24/js/theme-vsdoc.js,0,10.076794,0,0,0,0,0,0,0,0,564,564,0,0,0,0.059928,564
www.canada.ca/etc/designs/canada/cdts/gcweb/v4_0_24/js/i18n/ru-x-mtfrom-en.min.js,0,0.281528,0,0,0,0,0,0,0,0,54,54,0,0,0,0.037494,54
www.canada.ca/etc/designs/canada/cdts/gcweb/v4_0_24/js/i18n/.min.js,0,2.144529,0,0,0,0,0,0,0,0,395,395,0,0,0,0.680592,395
www.canada.ca/etc/designs/canada/cdts/gcweb/v4_0_24/cdts/js/compiled/plugins-fr.js,0,0.872131,0,0,0,0,0,0,0,0,139,139,0,0,0,0.182027,139
www.canada.ca/etc/designs/canada/cdts/gcweb/v4_0_24/cdts/js/compiled/plugins-en.js,0,142.593069,0,0,0,0,0,0,0,0,24192,24192,0,1,0.000307,23.305355,24248
www.canada.ca/etc/designs/canada/cdts/gcweb/v4_0_24/cdts/compiled/wet-.js,0,1.151946,0,0,0,0,0,0,0,0,218,218,0,0,0,0.169477,218
www.canada.ca/etc/designs/canada/cdts/gcweb/v4_0_24/cdts/compiled/%27+soy.$$escapeHtml(b.url)+%27,0,2.083392,0,0,0,0,0,0,0,0,258,258,0,0,0,1.388975,258
www.canada.ca/etc/designs/canada/cdts/gcweb/v4_0_24/cdts/compiled/%27+soy.$$escapeHtml(b.transcript)+%27,0,1.921277,0,0,0,0,0,0,0,0,239,239,0,0,0,1.291411,239
www.canada.ca/etc/designs/canada/cdts/gcweb/v4_0_24/cdts/compiled/%27+soy.$$escapeHtml(a.src)+%27,0,2.109755,0,0,0,0,0,0,0,0,256,256,0,0,0,1.383865,256
www.canada.ca/etc/designs/canada/cdts/gcweb/v4_0_24/cdts/compiled/%27+soy.$$escapeHtml(a.href)+%27,0,5.862245,0,0,0,0,0,0,0,0,728,728,0,0,0,2.005191,728
www.canada.ca/etc/designs/canada/cdts/gcweb/v4_0_24/cdts/compiled/%27+(null!=a.templateDomain,0,0.397064,0,0,0,0,0,0,0,0,52,52,0,0,0,0.122449,52
www.canada.ca/etc/designs/canada/cdts/gcweb/v4_0_24/assets/sig-blk-.svg,0,0.767477,0,0,0,0,0,0,0,0,181,181,0,0,0,0.144341,181
www.canada.ca/etc/designs/canada/cdts/gcweb/v4_0_23/cdts/compiled/%27+(null!=a.templateDomain,0,1.091278,0,0,0,0,0,0,0,0,136,136,0,0,0,0.242753,136
www.canada.ca/etc/designs/canada/cdts/gcweb/v4023/assets/sig-blk-en.svg,0,0.894298,0,0,0,0,0,0,0,0,167,167,0,0,0,0.038282,167
www.canada.ca/etc/designs/canada/cdts/gcweb/rn/cdts/compiled/%22+wet.builder.environment(a)+,0,3.575609,0,0,0,0,0,0,0,0,456,456,0,0,0,1.021402,456
www.canada.ca/etc/designs/canada/cdts/gcweb/rn/GCWeb/assets/wmms-blk.svg,0,0.15123,0,0,0,0,0,0,0,0,209,209,0,0,0,0.10219,209
www.canada.ca/etc/designs/canada/cdts/app/cls/wet/gcweb/v4_0_22/js/compiled/wet-en.js,0,18.513047,0,0,0,0,0,0,0,0,3676,3676,0,0,0,14.74689,3677
www.canada.ca/etc/designs/canada/cdts/app/cls/wet/gcweb/v4_0_22/js/compiled/soyutils.js,0,19.692109,0,0,0,0,0,0,0,0,3745,3745,0,0,0,16.029466,3746
mws.download.akamai.com/$(SERVE_503)/etc/designs/canada/cdts/gcweb/v4_0_27/assets/wmms-blk.svg,0,0.046143,0,0,0,0,0,0,0,0,0,0,0,0,0,0,129
mws.download.akamai.com/$(SERVE_503)/etc/designs/canada/cdts/gcweb/v4_0_27/assets/sig-blk-en.svg,0,0.135252,0,0,0,0,0,0,0,0,0,0,0,0,0,0,249
mws.download.akamai.com/$(SERVE_503)/etc/designs/canada/cdts/gcweb/v4_0_26/assets/wmms-blk.svg,0,0.448576,0,0,0,0,0,0,0,0,0,0,0,0,0,0,913
mws.download.akamai.com/$(SERVE_503)/etc/designs/canada/cdts/gcweb/v4_0_26/assets/sig-blk-fr.svg,0,0.040641,0,0,0,0,0,0,0,0,0,0,0,0,0,0,72
mws.download.akamai.com/$(SERVE_503)/etc/designs/canada/cdts/gcweb/v4_0_26/assets/sig-blk-en.svg,0,0.355863,0,0,0,0,0,0,0,0,0,0,0,3,0.005169,0,744
mws.download.akamai.com/$(SERVE_503)/etc/designs/canada/cdts/gcweb/v4_0_25/assets/wmms-blk.svg,0,0.087243,0,0,0,0,0,0,0,0,0,0,0,0,0,0,197
mws.download.akamai.com/$(SERVE_503)/etc/designs/canada/cdts/gcweb/v4_0_25/assets/sig-blk-en.svg,0,0.117247,0,0,0,0,0,0,0,0,0,0,0,0,0,0,281
mws.download.akamai.com/$(SERVE_503)/etc/designs/canada/cdts/gcweb/v4_0_24/cdts/js/compiled/plugins-en.js,0,0.598364,0,0,0,0,0,0,0,0,0,0,0,1,0.014367,0,56
mws.download.akamai.com/$(SERVE_503)/etc/designs/canada/cdts/gcweb/v4_0_24/assets/wmms-blk.svg,0,0.461371,0,0,0,0,0,0,0,0,0,0,0,2,0.004528,0,972
mws.download.akamai.com/$(SERVE_503)/etc/designs/canada/cdts/gcweb/v4_0_24/assets/sig-blk-en.svg,0,0.195211,0,0,0,0,0,0,0,0,0,0,0,3,0.005169,0,424
mws.download.akamai.com/$(SERVE_503)/etc/designs/canada/cdts/gcweb/v4_0_23/assets/wmms-blk.svg,0,0.091229,0,0,0,0,0,0,0,0,0,0,0,1,0.003887,0,187
mws.download.akamai.com/$(SERVE_503)/etc/designs/canada/cdts/gcweb/v4_0_23/assets/sig-blk-en.svg,0,0.234747,0,0,0,0,0,0,0,0,0,0,0,0,0,0,370
mws.download.akamai.com/$(SERVE_503)/etc/designs/canada/cdts/gcweb/v4_0_22/assets/wmms-blk.svg,0,0.091986,0,0,0,0,0,0,0,0,0,0,0,0,0,0,172
mws.download.akamai.com/$(SERVE_503)/etc/designs/canada/cdts/gcweb/v4_0_22/assets/sig-blk-fr.svg,0,0.030421,0,0,0,0,0,0,0,0,0,0,0,0,0,0,58
mws.download.akamai.com/$(SERVE_503)/etc/designs/canada/cdts/gcweb/v4_0_22/assets/sig-blk-en.svg,0,0.116277,0,0,0,0,0,0,0,0,0,0,0,0,0,0,221
mws.download.akamai.com/$(SERVE_503)/etc/designs/canada/cdts/gcweb/rn/assets/sig-blk-en.svg,0,0.034167,0,0,0,0,0,0,0,0,0,0,0,1,0.000641,0,65
# ROW_DATA_END
