# HEADER_START
time_zone,EDT
end_date,20170629
time_zone_offset,-14400
cpcode,368225
start_date,20170601
# HEADER_END
# COLUMN_DEFINITION_START
"URL","Ok Volume (MB)","Error Volume (MB)","Ok Hits","0XX","200","206","2XX","302","304","3XX","404","4XX","Offloaded Hits","Origin Hits","Origin OK Volume (MB)","Origin Error Volume (MB)","Error Hits"
# COLUMN_DEFINITION_END

# ROW_DATA_START
www.canada.ca/etc/designs/canada/cdts/gcweb/v4_0_24/css/theme.min.css,213177.532665,0.007332,15184846,2,3153645,1181,3154826,0,12030018,12030018,0,0,15175974,8872,324.750142,0.001129,4
www.canada.ca/etc/designs/canada/cdts/gcweb/v4_0_24/js/wet-boew.min.js,157860.019666,0.000309,12682924,0,3084471,2607,3087078,0,9595846,9595846,0,0,12675579,7345,216.925581,0.000472,1
www.canada.ca/etc/designs/canada/cdts/gcweb/v4_0_24/js/jquery/2.1.4/jquery.min.js,122025.066892,0.004525,33867355,1,3097571,2561,3100132,0,30767222,30767222,0,0,33852803,14552,218.986023,0.001129,4
www.canada.ca/etc/designs/canada/cdts/gcweb/v4_0_23/css/theme.min.css,89380.986862,0.003581,6257018,1,1392695,344,1393039,0,4863978,4863978,0,0,6250995,6023,222.708934,0.000219,1
www.canada.ca/etc/designs/canada/cdts/gcweb/v4_0_23/js/wet-boew.min.js,69174.952411,0.00011,4023569,0,1373027,667,1373694,0,2649875,2649875,0,0,4018889,4680,151.972833,0.000438,2
www.canada.ca/etc/designs/canada/cdts/gcweb/v4_0_24/fonts/glyphicons-halflings-regular.woff,67722.961562,0.000378,13963148,0,2279331,586,2279917,0,11683231,11683231,0,0,13953288,9860,126.011038,0.000691,2
www.canada.ca/etc/designs/canada/cdts/gcweb/v4_0_23/js/jquery/2.1.4/jquery.min.js,54636.320388,0.007433,13043891,1,1405779,815,1406594,0,11637296,11637296,0,0,13035101,8790,158.333756,0.003775,3
www.canada.ca/etc/designs/canada/cdts/gcweb/v4_0_24/js/deps/jquery.magnific-popup.min.js,40538.691225,0,16152736,0,4024505,5755,4030260,0,12122476,12122476,0,0,16144609,8127,47.915576,0,0
www.canada.ca/etc/designs/canada/cdts/gcweb/v4_0_23/fonts/glyphicons-halflings-regular.woff,38789.394786,0.003629,9738445,0,1286367,118,1286485,0,8451960,8451960,0,0,9731111,7334,102.134793,0.000438,2
www.canada.ca/etc/designs/canada/cdts/gcweb/v4_0_24/cdts/compiled/soyutils.js,32605.276814,0.007432,22182593,2,2521899,83,2521982,0,19660388,19660609,0,0,22172180,10413,42.495523,0.004685,6
www.canada.ca/etc/designs/canada/cdts/gcweb/v4_0_24/assets/wmms-blk.svg,27460.845395,14.580194,26436855,2,16668182,0,16668182,0,9768671,9768671,0,0,26420782,16073,22.524289,0.008856,23417
www.canada.ca/etc/designs/canada/cdts/gcweb/v4_0_23/assets/sig-blk-en.svg,23389.062244,27.648521,16389920,0,13070435,3,13070438,0,3319482,3319482,0,0,16377761,12159,18.138838,0.000438,45777
www.canada.ca/etc/designs/canada/cdts/gcweb/v4_0_24/cdts/compiled/wet-en.js,23232.154384,0.004433,15784960,1,2047683,78,2047761,0,13737198,13737198,0,0,15775507,9453,36.906167,0.004904,7
www.canada.ca/etc/designs/canada/cdts/gcweb/v4_0_23/assets/wmms-blk.svg,23022.096042,31.612181,19930633,0,15920831,0,15920831,0,4009802,4009802,0,78,19917525,13108,17.501554,0.003809,50855
www.canada.ca/etc/designs/canada/cdts/gcweb/v4_0_24/assets/sig-blk-en.svg,22236.644128,40.190342,18863976,1,12578929,0,12578929,0,6285046,6285046,0,0,18847341,16635,23.097726,0.000619,60988
www.canada.ca/etc/designs/canada/cdts/gcweb/v4_0_24/js/i18n/en.min.js,20052.39423,0.000218,18357940,0,3724101,2837,3726938,0,14631002,14631002,0,0,18350050,7890,18.379734,0.001382,4
www.canada.ca/etc/designs/canada/cdts/gcweb/v4_0_23/assets/favicon.ico,19554.200608,0.003549,4116235,0,3083563,0,3083563,0,1032672,1032672,0,0,4112119,4116,15.011058,0.000657,3
www.canada.ca/etc/designs/canada/cdts/gcweb/v4_0_25/css/theme.min.css,18860.747274,0,416224,0,287201,91,287292,0,128932,128932,0,0,414175,2049,97.886238,0,0
www.canada.ca/etc/designs/canada/cdts/gcweb/v4_0_23/js/deps/jquery.magnific-popup.min.js,16730.917209,0,6129870,0,1693911,4526,1698437,0,4431433,4431433,0,0,6124306,5564,34.142982,0,0
www.canada.ca/etc/designs/canada/cdts/gcweb/v4_0_24/assets/favicon.ico,16626.847082,0.004214,6564358,1,2772120,5,2772125,0,3792232,3792232,0,0,6559292,5066,17.76587,0.007988,8
www.canada.ca/etc/designs/canada/cdts/gcweb/v4_0_25/js/wet-boew.min.js,14257.228214,0,392587,0,284710,206,284916,0,107671,107671,0,0,390583,2004,72.716622,0,0
www.canada.ca/etc/designs/canada/cdts/gcweb/v4_0_23/cdts/compiled/soyutils.js,13543.254558,0.003547,8663574,0,1110920,30,1110950,0,7552624,7552624,0,0,8655938,7636,31.35804,0.000438,2
www.canada.ca/etc/designs/canada/cdts/gcweb/v4_0_24/fonts/glyphicons-halflings-regular.eot,13164.25912,0.001512,2950111,0,532613,0,532613,0,2417498,2417498,0,0,2940998,9113,175.405206,0.009222,6
www.canada.ca/etc/designs/canada/cdts/gcweb/v4_0_22/css/theme.min.css,12885.654355,0.004184,711444,0,200762,39,200801,0,510643,510643,0,0,708418,3026,138.540679,0.000657,3
www.canada.ca/etc/designs/canada/cdts/gcweb/v4_0_24/cdts/cdtsfixes.css,11926.529706,0.011125,14200971,0,3032487,1,3032488,0,11168483,11168483,0,0,14190719,10252,13.128196,0.000876,4
www.canada.ca/etc/designs/canada/cdts/gcweb/v4_0_24/cdts/compiled/plugins-en.js,11589.57113,0.007554,15025057,1,1964169,63,1964232,0,13060824,13060824,0,0,15018491,6566,8.153946,0.003994,4
www.canada.ca/etc/designs/canada/cdts/gcweb/v4_0_24/js/theme.min.js,11135.314227,0.003924,13904451,0,2988514,600,2989114,0,10915337,10915337,0,0,13896309,8142,9.316143,0.003775,3
www.canada.ca/etc/designs/canada/cdts/gcweb/v4_0_23/cdts/compiled/wet-en.js,10133.701963,0.003492,6732447,0,934013,17,934030,0,5798417,5798417,0,0,6726577,5870,25.599359,0.000219,1
www.canada.ca/etc/designs/canada/cdts/gcweb/v4_0_25/js/jquery/2.1.4/jquery.min.js,9887.75324,0,629940,0,287664,212,287876,0,342064,342064,0,0,627725,2215,49.822919,0,0
www.canada.ca/etc/designs/canada/cdts/gcweb/v4_0_24/js/polyfills/datalist.min.js,8581.82617,0.000592,7832218,1,2040467,0,2040467,0,5791750,5791750,0,0,7825098,7120,13.832862,0.001348,5
www.canada.ca/etc/designs/canada/cdts/gcweb/v4_0_23/assets/sig-blk-fr.svg,8087.598432,6.630663,6484569,1,4775058,0,4775058,0,1709510,1709510,0,0,6478350,6219,10.19487,0.000219,10370
www.canada.ca/etc/designs/canada/cdts/gcweb/v4_0_24/cdts/compiled/wet-fr.js,7296.765126,0.003547,6126164,0,584033,8,584041,0,5542123,5542123,0,0,6122229,3935,17.82166,0.003337,1
www.canada.ca/etc/designs/canada/cdts/gcweb/v4_0_24/js/deps/jquery.dataTables.min.js,7015.278879,0.000055,833446,1,219277,46219,265496,0,567949,567949,0,0,829938,3508,72.993073,0.000472,1
www.canada.ca/etc/designs/canada/cdts/gcweb/v4_0_24/assets/sig-blk-fr.svg,6955.636935,7.21649,6752812,0,4036097,2,4036099,0,2716713,2716713,0,0,6745749,7063,11.354518,0.000419,11725
www.canada.ca/etc/designs/canada/cdts/gcweb/v4_0_22/js/wet-boew.min.js,6583.639613,0,461910,0,131226,177,131403,0,330507,330507,0,0,459069,2841,97.750603,0,0
www.canada.ca/etc/designs/canada/cdts/gcweb/v4_0_25/fonts/glyphicons-halflings-regular.woff,6578.840323,0,434990,0,239261,41,239302,0,195688,195688,0,0,433009,1981,37.29946,0,0
www.canada.ca/etc/designs/canada/cdts/gcweb/v4_0_23/js/i18n/en.min.js,6414.441988,0,4530652,0,1452772,1504,1454276,0,3076376,3076376,0,0,4525597,5055,11.797497,0,0
www.canada.ca/etc/designs/canada/cdts/gcweb/v4_0_24/js/i18n/fr.min.js,6161.090807,0.00011,4721370,1,949409,1834,951243,0,3770126,3770126,0,0,4717426,3944,12.750058,0.000438,2
www.canada.ca/etc/designs/canada/cdts/gcweb/v4_0_24/cdts/exitScript.js,5930.34636,0,8179082,0,1812812,0,1812812,0,6366270,6366270,0,0,8173051,6031,6.08338,0,0
www.canada.ca/etc/designs/canada/cdts/gcweb/v4_0_24/js/polyfills/datepicker.min.js,5916.328474,0.004575,7051331,0,1192367,1,1192368,0,5858963,5858963,0,0,7044762,6569,13.088288,0.005376,8
www.canada.ca/etc/designs/canada/cdts/gcweb/v4_0_22/js/jquery/2.1.4/jquery.min.js,5572.84429,0,495625,0,166818,152,166970,0,328655,328655,0,0,492559,3066,66.266946,0,0
www.canada.ca/etc/designs/canada/cdts/gcweb/rn/cdts/compiled/soyutils.js,5193.286154,0.007329,974595,0,490880,234,491114,0,483481,483481,0,0,971106,3489,20.712546,0.004432,6
www.canada.ca/etc/designs/canada/cdts/gcweb/v4_0_24/css/polyfills/datalist.min.css,5086.843545,0.000055,8329194,0,2060681,0,2060681,0,6268513,6268513,0,0,8323727,5467,5.13459,0.000472,1
www.canada.ca/etc/designs/canada/cdts/gcweb/v4_0_24/js/polyfills/meter.min.js,4985.575586,0.000922,7736049,0,1279260,0,1279260,0,6456789,6456789,0,0,7727966,8083,8.337063,0.001314,6
www.canada.ca/etc/designs/canada/cdts/gcweb/v4_0_23/cdts/cdtsfixes.css,4797.717508,0,5414429,1,1386125,0,1386125,0,4028303,4028303,0,0,5408826,5603,8.109785,0,0
www.canada.ca/etc/designs/canada/cdts/gcweb/v4_0_24/css/polyfills/meter.min.css,4488.040276,0.001541,7801848,1,1286077,0,1286077,0,6515770,6515770,0,0,7795463,6385,5.426675,0.001567,6
www.canada.ca/etc/designs/canada/cdts/gcweb/rn/cdts/compiled/wet-en.js,4403.589677,0.007977,929859,1,472045,198,472243,0,457615,457615,0,0,926348,3511,19.767036,0.004651,7
www.canada.ca/etc/designs/canada/cdts/gcweb/v4_0_24/js/wet-boew.min.js.map,4372.602777,0.000055,30250,0,26881,0,26881,0,3369,3369,0,0,29625,625,30.445146,0.000219,1
www.canada.ca/etc/designs/canada/cdts/gcweb/v4_0_22/fonts/glyphicons-halflings-regular.woff,4235.331793,0,691236,0,142378,30,142408,0,548828,548828,0,0,688235,3001,55.020777,0,0
www.canada.ca/etc/designs/canada/cdts/gcweb/v4_0_24/css/polyfills/datepicker.min.css,3802.221376,0.004465,6915835,1,1151414,0,1151414,0,5764420,5764420,0,0,6909665,6170,5.37481,0.001314,6
www.canada.ca/etc/designs/canada/cdts/gcweb/v4_0_24/cdts/compiled/plugins-fr.js,3748.140027,0.003547,5091971,0,544760,8,544768,0,4547203,4547203,0,0,5088734,3237,4.136351,0.003337,1
www.canada.ca/etc/designs/canada/cdts/gcweb/v4_0_25/js/theme.min.js,3599.614014,0,400663,0,284915,125,285040,0,115623,115623,0,0,398685,1978,17.956984,0,0
www.canada.ca/etc/designs/canada/cdts/gcweb/v4_0_24/js/polyfills/details.min.js,3458.263666,0.000812,5772196,0,873097,0,873097,0,4899099,4899099,0,0,5765276,6920,7.707807,0.002224,9
www.canada.ca/etc/designs/canada/cdts/gcweb/v4_0_23/js/theme.min.js,3343.652909,0.000432,3518625,0,1356566,37,1356603,0,2162022,2162022,0,0,3514377,4248,5.544431,0.000657,3
www.canada.ca/etc/designs/canada/cdts/gcweb/v4_0_23/cdts/compiled/plugins-en.js,3297.842581,0,4562957,0,376821,17,376838,0,4186119,4186119,0,0,4557932,5025,5.617303,0,0
www.canada.ca/etc/designs/canada/cdts/gcweb/v4_0_22/assets/wmms-blk.svg,3294.975744,5.305777,2978005,0,2719784,2,2719786,0,258219,258219,0,0,2969268,8737,13.159839,0.003511,8318
www.canada.ca/etc/designs/canada/cdts/gcweb/v4_0_23/js/deps/jquery.validate.min.js,3134.566217,0,474131,0,362500,2414,364914,0,109217,109217,0,0,471654,2477,17.083007,0,0
www.canada.ca/etc/designs/canada/cdts/gcweb/v4_0_22/assets/sig-blk-en.svg,3116.916725,4.533167,2409305,0,2089718,19,2089737,0,319568,319568,0,0,2400900,8405,14.48871,0.004356,6977
www.canada.ca/etc/designs/canada/cdts/gcweb/v4_0_24/js/jquery/2.1.4/jquery.min.map,3055.104075,0.000055,30431,0,26961,0,26961,0,3470,3470,0,0,29895,536,23.707547,0.000219,1
www.canada.ca/etc/designs/canada/cdts/gcweb/v4_0_24/css/polyfills/details.min.css,3017.067307,0.000279,6174057,0,858556,0,858556,0,5315501,5315501,0,0,6166846,7211,4.871539,0.004904,5
www.canada.ca/etc/designs/canada/cdts/gcweb/v4_0_24/assets/favicon-mobile.png,2915.300426,0,715669,0,578322,2,578324,0,137345,137345,0,0,712872,2797,9.401162,0,0
www.canada.ca/etc/designs/canada/cdts/gcweb/v4_0_25/fonts/glyphicons-halflings-regular.eot,2914.728495,0,571333,0,119966,0,119966,0,451367,451367,0,0,567960,3373,67.082853,0,0
www.canada.ca/etc/designs/canada/cdts/gcweb/v4_0_24/js/jquery/2.1.4/jquery.js,2716.973182,0.000426,123745,0,32109,46,32155,0,91368,91590,0,0,122227,1518,100.710561,0.000657,3
www.canada.ca/etc/designs/canada/cdts/gcweb/v4_0_23/js/polyfills/datalist.min.js,2715.942191,0.00011,2502948,0,703150,0,703150,0,1799798,1799798,0,0,2498800,4148,8.685755,0.000438,2
www.canada.ca/etc/designs/canada/cdts/gcweb/v4_0_23/js/i18n/fr.min.js,2630.142348,0,2537609,0,359168,997,360165,0,2177444,2177444,0,0,2534208,3401,10.12947,0,0
www.canada.ca/etc/designs/canada/cdts/gcweb/v4_0_25/js/deps/jquery.magnific-popup.min.js,2558.857772,0,474488,0,281272,2189,283461,0,191027,191027,0,0,472427,2061,13.109399,0,0
www.canada.ca/etc/designs/canada/cdts/gcweb/v4_0_23/cdts/exitScript.js,2541.767767,0,3293873,1,976723,8,976731,0,2317141,2317141,0,0,3289895,3978,4.412772,0,0
www.canada.ca/etc/designs/canada/cdts/gcweb/v4_0_23/cdts/compiled/wet-fr.js,2367.378838,0.000055,1603454,0,233273,14,233287,0,1370167,1370167,0,0,1601127,2327,12.098425,0.003556,1
www.canada.ca/etc/designs/canada/cdts/gcweb/v4_0_23/js/deps/jquery.dataTables.min.js,2347.967949,0.00022,167654,0,75444,10870,86314,0,81340,81340,0,0,165830,1824,45.334379,0.003994,4
www.canada.ca/etc/designs/canada/cdts/gcweb/v4_0_23/js/polyfills/datepicker.min.js,2324.143575,0.000055,2720154,0,488641,2,488643,0,2231511,2231511,0,0,2716081,4073,8.428297,0.000472,1
www.canada.ca/etc/designs/canada/cdts/gcweb/v4_0_22/cdts/compiled/soyutils.js,2105.636029,0.014513,827834,0,180332,105,180437,0,647397,647397,0,0,823301,4533,19.732301,0.001533,7
www.canada.ca/etc/designs/canada/cdts/gcweb/v4_0_23/js/deps/additional-methods.min.js,1836.562991,0,412096,0,291421,1827,293248,0,118848,118848,0,0,410034,2062,10.287006,0,0
www.canada.ca/etc/designs/canada/cdts/gcweb/v4_0_23/css/polyfills/datepicker.min.css,1694.811933,0.000372,3127994,0,472990,0,472990,0,2655004,2655004,0,0,3123878,4116,3.50306,0.000219,1
www.canada.ca/etc/designs/canada/cdts/gcweb/v4_0_23/js/polyfills/meter.min.js,1684.105003,0.000372,2553698,0,439782,0,439782,0,2113916,2113916,0,0,2549935,3763,4.518959,0.000219,1
www.canada.ca/etc/designs/canada/cdts/gcweb/v4_0_23/js/polyfills/details.min.js,1555.891135,0.000427,2665659,0,337127,0,337127,0,2328532,2328532,0,0,2661318,4341,4.835892,0.000438,2
www.canada.ca/etc/designs/canada/cdts/gcweb/v4_0_23/css/polyfills/datalist.min.css,1496.998801,0.00011,2619900,0,700062,0,700062,0,1919838,1919838,0,0,2615887,4013,3.259881,0.000438,2
www.canada.ca/etc/designs/canada/cdts/gcweb/v4_0_23/css/polyfills/meter.min.css,1332.884989,0.000372,2296895,0,424687,0,424687,0,1872208,1872208,0,0,2293357,3538,3.052381,0.000472,1
www.canada.ca/etc/designs/canada/cdts/gcweb/v4_0_23/css/polyfills/details.min.css,1146.019363,0.000055,2394393,0,319322,0,319322,0,2075071,2075071,0,0,2390488,3905,2.769215,0.003337,1
www.canada.ca/etc/designs/canada/cdts/gcweb/v4_0_23/cdts/compiled/plugins-fr.js,1145.50081,0,1680158,0,124032,14,124046,0,1556112,1556112,0,0,1677370,2788,2.962954,0,0
www.canada.ca/etc/designs/canada/cdts/gcweb/v4_0_25/assets/favicon.ico,1116.718949,0,244393,0,209344,2,209346,0,35047,35047,0,0,242647,1746,6.251305,0,0
www.canada.ca/etc/designs/canada/cdts/gcweb/v4_0_22/fonts/glyphicons-halflings-regular.eot,1098.151464,0,193532,0,44982,0,44982,0,148550,148550,0,0,191083,2449,51.896405,0,0
www.canada.ca/etc/designs/canada/cdts/gcweb/v4_0_25/js/i18n/en.min.js,1069.507705,0,494947,0,269128,1048,270176,0,224771,224771,0,0,492784,2163,5.527429,0,0
www.canada.ca/etc/designs/canada/cdts/gcweb/v4_0_25/assets/sig-blk-en.svg,1053.055857,0.08211,552996,0,457444,0,457444,0,95552,95552,74,74,549310,3686,6.552081,0.024928,77
www.canada.ca/etc/designs/canada/cdts/gcweb/v4_0_22/cdts/compiled/wet-en.js,1051.737859,0.003748,471500,0,111403,82,111485,0,360015,360015,0,0,468529,2971,13.050367,0.000438,2
www.canada.ca/etc/designs/canada/cdts/gcweb/v4_0_22/js/deps/jquery.magnific-popup.min.js,995.456719,0.007156,384010,0,98094,1645,99739,0,284271,284271,0,0,381259,2751,16.608093,0.000438,2
www.canada.ca/etc/designs/canada/cdts/gcweb/v4_0_25/assets/wmms-blk.svg,983.475424,0.081597,584887,0,477617,0,477617,0,107270,107270,79,79,581132,3755,5.863405,0.022006,82
www.canada.ca/etc/designs/canada/cdts/gcweb/v4_0_24/js/deps/jquery.validate.min.js,844.242298,0,170747,0,94173,1959,96132,0,74615,74615,0,0,168686,2061,14.677797,0,0
www.canada.ca/etc/designs/canada/cdts/gcweb/v4_0_22/assets/favicon.ico,840.558031,0.000436,210819,0,151858,2,151860,0,58959,58959,0,0,208401,2418,9.271367,0.000657,3
www.canada.ca/etc/designs/canada/cdts/gcweb/v4_0_23/assets/favicon-mobile.png,835.063697,0.000055,231352,0,182535,0,182535,0,48817,48817,0,0,229494,1858,6.434252,0.000219,1
www.canada.ca/etc/designs/canada/cdts/gcweb/v4_0_25/js/deps/jquery.validate.min.js,661.980968,0,134058,0,74369,1406,75775,0,58283,58283,0,0,132515,1543,10.522351,0,0
www.canada.ca/etc/designs/canada/cdts/gcweb/rn/assets/sig-blk-en.svg,613.665207,0.008986,391842,0,384800,0,384800,0,7042,7042,0,0,387174,4668,8.625741,0.001914,10
www.canada.ca/etc/designs/canada/cdts/gcweb/v4_0_24/fonts/glyphicons-halflings-regular.ttf,608.674582,0.000743,37581,0,22918,244,23162,0,14419,14419,0,0,35965,1616,30.7313,0.000657,3
www.canada.ca/etc/designs/canada/cdts/gcweb/v4_0_22/js/i18n/en.min.js,603.682708,0,468234,0,126028,748,126776,0,341458,341458,0,0,465256,2978,7.192469,0,0
www.canada.ca/etc/designs/canada/cdts/gcweb/v4_0_22/assets/sig-blk-fr.svg,584.251058,1.472016,561521,0,495696,0,495696,0,65825,65825,0,0,557712,3809,6.408167,0.001295,2471
www.canada.ca/etc/designs/canada/cdts/gcweb/v4_0_22/js/deps/jquery.dataTables.min.js,572.973894,0,84237,0,17581,3805,21386,0,62851,62851,0,0,82885,1352,31.220942,0,0
www.canada.ca/etc/designs/canada/cdts/gcweb/v4_0_22/cdts/cdtsfixes.css,564.33035,0.000652,642239,0,190414,0,190414,0,451825,451825,0,0,639039,3200,3.327606,0.000438,2
www.canada.ca/etc/designs/canada/cdts/gcweb/v4_0_24/js/deps/additional-methods.min.js,552.773777,0,159605,0,83825,1482,85307,0,74298,74298,0,0,157752,1853,9.459725,0,0
www.canada.ca/etc/designs/canada/cdts/gcweb/v4_0_24/js/polyfills/slider.min.js,547.344999,0,96242,0,72358,0,72358,0,23884,23884,0,0,95110,1132,7.661411,0,0
www.canada.ca/etc/designs/canada/cdts/gcweb/rn/css/theme.min.css,540.340653,0,4969,0,4630,0,4630,0,339,339,0,0,4232,737,43.195184,0,0
www.canada.ca/etc/designs/canada/cdts/gcweb/v4_0_22/js/theme.min.js,488.508205,0,484853,0,167805,112,167917,0,316936,316936,0,0,481967,2886,3.8708,0,0
www.canada.ca/etc/designs/canada/cdts/gcweb/v4_0_25/cdts/cdtsfixes.css,461.628401,0.000055,400048,1,286112,0,286112,0,113935,113935,0,0,398014,2034,2.533595,0.000183,1
www.canada.ca/etc/designs/canada/cdts/gcweb/v4_0_25/js/deps/additional-methods.min.js,452.519994,0,124571,0,69652,1061,70713,0,53858,53858,0,0,123162,1409,6.950746,0,0
www.canada.ca/etc/designs/canada/cdts/gcweb/v4_0_22/img/splash/sp-bg-2.jpg,403.214784,0.000054,10957,0,9526,28,9554,0,1403,1403,0,0,10271,686,23.972056,0.000219,1
www.canada.ca/etc/designs/canada/cdts/gcweb/v4_0_25/js/polyfills/datalist.min.js,388.046048,0,243474,0,115866,0,115866,0,127608,127608,0,0,241850,1624,4.033512,0,0
www.canada.ca/etc/designs/canada/cdts/gcweb/v4_0_22/js/polyfills/datepicker.min.js,365.566685,0.00011,461584,0,68220,0,68220,0,393364,393364,0,0,458786,2798,5.652988,0.000438,2
www.canada.ca/etc/designs/canada/cdts/gcweb/v4_0_22/js/wet-boew.min.js.map,360.440038,0,3587,0,2267,0,2267,0,1320,1320,0,0,3423,164,10.572265,0,0
www.canada.ca/etc/designs/canada/cdts/gcweb/v4_0_25/js/wet-boew.min.js.map,339.157878,0,2198,0,2149,0,2149,0,49,49,0,0,2121,77,5.156668,0,0
www.canada.ca/etc/designs/canada/cdts/gcweb/v4_0_25/js/i18n/fr.min.js,334.857801,0,129744,0,63446,659,64105,0,65639,65639,0,0,128547,1197,4.713112,0,0
www.canada.ca/etc/designs/canada/cdts/gcweb/v4_0_24/css/ie8-theme.min.css,296.197577,0,6161,0,4362,0,4362,0,1799,1799,0,0,5399,762,44.149599,0,0
www.canada.ca/etc/designs/canada/cdts/gcweb/rn/js/wet-boew.min.js,292.299779,0,77850,0,5249,4,5253,0,72597,72597,0,0,77478,372,16.70991,0,0
www.canada.ca/etc/designs/canada/cdts/gcweb/v4_0_25/js/polyfills/datepicker.min.js,290.175243,0,201433,1,85646,0,85646,0,115786,115786,0,0,199887,1546,3.724962,0,0
www.canada.ca/etc/designs/canada/cdts/gcweb/v4_0_22/js/polyfills/meter.min.js,274.211387,0,421927,0,61078,0,61078,0,360849,360849,0,0,419279,2648,3.212155,0,0
www.canada.ca/etc/designs/canada/cdts/gcweb/v4_0_22/js/jquery/2.1.4/jquery.min.map,267.335289,0,3810,0,2396,0,2396,0,1414,1414,0,0,3601,209,9.10017,0,0
www.canada.ca/etc/designs/canada/cdts/gcweb/v4_0_22/cdts/compiled/wet-fr.js,261.577629,0.000055,151635,0,29438,20,29458,0,122177,122177,0,0,150317,1318,5.763315,0.000219,1
www.canada.ca/etc/designs/canada/cdts/gcweb/v4_0_22/css/polyfills/datepicker.min.css,253.372537,0.00011,458701,0,66363,0,66363,0,392338,392338,0,0,456146,2555,2.375096,0.000438,2
www.canada.ca/etc/designs/canada/cdts/gcweb/v4_0_22/css/polyfills/meter.min.css,252.429905,0,434970,0,60357,0,60357,0,374613,374613,0,0,432842,2128,2.047743,0,0
www.canada.ca/etc/designs/canada/cdts/gcweb/v4_0_22/js/polyfills/details.min.js,251.343143,0,417542,0,68128,0,68128,0,349414,349414,0,0,415132,2410,3.102535,0,0
www.canada.ca/etc/designs/canada/cdts/gcweb/v4_0_24/assets/sprites_share.png,249.602557,0,3592,0,3320,7,3327,0,265,265,0,0,3025,567,39.034927,0,0
www.canada.ca/etc/designs/canada/cdts/gcweb/v4_0_25/js/jquery/2.1.4/jquery.min.map,237.492123,0,2186,0,2159,0,2159,0,27,27,0,0,2099,87,4.258884,0,0
www.canada.ca/etc/designs/canada/cdts/gcweb/v4_0_23/fonts/glyphicons-halflings-regular.ttf,218.88059,0.00022,10710,0,8419,46,8465,0,2245,2245,0,0,9904,806,16.037542,0.000876,4
www.canada.ca/etc/designs/canada/cdts/gcweb/rn/cdts/compiled/wet-fr.js,213.048455,0,43660,0,23677,34,23711,0,19949,19949,0,0,42391,1269,7.494059,0,0
www.canada.ca/etc/designs/canada/cdts/gcweb/v4_0_22/js/i18n/fr.min.js,209.287282,0,165221,0,32317,385,32702,0,132519,132519,0,0,163882,1339,5.176853,0,0
www.canada.ca/etc/designs/canada/cdts/gcweb/v4_0_22/css/polyfills/details.min.css,204.356258,0,417380,0,57362,0,57362,0,360018,360018,0,0,415177,2203,1.819645,0,0
www.canada.ca/etc/designs/canada/cdts/gcweb/v4_0_25/assets/favicon-mobile.png,202.656622,0,69489,0,46255,0,46255,0,23234,23234,0,0,68341,1148,4.04398,0,0
www.canada.ca/etc/designs/canada/cdts/gcweb/v4_0_23/css/theme-srv.min.css,187.764106,0,5671,0,5275,0,5275,0,396,396,0,0,5142,529,16.857281,0,0
www.canada.ca/etc/designs/canada/cdts/gcweb/v4_0_23/css/ie8-theme.min.css,186.883842,0.000055,4146,0,2937,0,2937,0,1209,1209,0,0,3644,502,27.720747,0.000472,1
www.canada.ca/etc/designs/canada/cdts/gcweb/v4_0_25/assets/sprites_share.png,185.439667,0,2733,0,2494,4,2498,0,235,235,0,0,2336,397,26.823014,0,0
www.canada.ca/etc/designs/canada/cdts/gcweb/rn/assets/wmms-blk.svg,177.686573,0.004919,153832,0,152990,0,152990,0,842,842,0,0,150282,3550,5.672726,0.001072,11
www.canada.ca/etc/designs/canada/cdts/gcweb/v4_0_22/js/deps/jquery.validate.min.js,176.441343,0,56172,0,17554,670,18224,0,37948,37948,0,0,54565,1607,11.660283,0,0
www.canada.ca/etc/designs/canada/cdts/gcweb/v4_0_25/css/polyfills/datalist.min.css,172.364285,0,245755,0,110265,0,110265,0,135490,135490,0,0,244303,1452,1.605429,0,0
www.canada.ca/etc/designs/canada/cdts/gcweb/v4_0_25/js/polyfills/meter.min.js,171.19863,0,180653,0,79503,0,79503,0,101150,101150,0,0,179266,1387,1.980407,0,0
www.canada.ca/etc/designs/canada/cdts/gcweb/v4_0_23/js/wet-boew.min.js.map,169.216184,0,2212,0,1623,0,1623,0,589,589,0,0,2017,195,12.680565,0,0
www.canada.ca/etc/designs/canada/cdts/gcweb/v4_0_22/cdts/compiled/plugins-en.js,168.609336,0,175357,0,28537,10,28547,0,146810,146810,0,0,173465,1892,2.615631,0,0
www.canada.ca/etc/designs/canada/cdts/gcweb/v4_0_24/css/polyfills/slider.min.css,168.213024,0,107849,0,82302,0,82302,0,25547,25547,0,0,106678,1171,2.201542,0,0
www.canada.ca/etc/designs/canada/cdts/gcweb/v4_0_24/js/ie8-wet-boew2.min.js,161.18902,0,5341,0,3720,0,3720,0,1621,1621,0,0,4631,710,27.603546,0,0
www.canada.ca/etc/designs/canada/cdts/gcweb/v4_0_24/js/jquery/1.11.1/jquery.min.js,155.918629,0,5692,0,4158,0,4158,0,1534,1534,0,0,4934,758,24.904516,0,0
www.canada.ca/etc/designs/canada/cdts/gcweb/v4_0_25/css/polyfills/meter.min.css,149.753959,0,203387,0,79116,0,79116,0,124271,124271,0,0,202014,1373,1.366983,0,0
www.canada.ca/etc/designs/canada/cdts/gcweb/v4_0_24/js/polyfills/progress.min.js,149.110231,0,143505,0,78853,0,78853,0,64652,64652,0,0,142275,1230,1.739096,0,0
www.canada.ca/etc/designs/canada/cdts/gcweb/v4_0_22/cdts/exitScript.js,147.786219,0,180025,0,54066,2,54068,0,125957,125957,0,0,178268,1757,2.437568,0,0
www.canada.ca/etc/designs/canada/cdts/gcweb/rn/assets/sig-blk-fr.svg,146.133885,0.000378,89066,0,86693,0,86693,0,2373,2373,0,0,86666,2400,4.25622,0.000438,2
www.canada.ca/etc/designs/canada/cdts/gcweb/v4_0_22/js/polyfills/datalist.min.js,144.979009,0,104446,0,41481,0,41481,0,62965,62965,0,0,102692,1754,4.675832,0,0
www.canada.ca/etc/designs/canada/cdts/gcweb/v4_0_25/css/polyfills/datepicker.min.css,138.739404,0,199315,1,82316,0,82316,0,116998,116998,0,0,197855,1460,1.554806,0,0
www.canada.ca/etc/designs/canada/cdts/gcweb/v4_0_24/js/polyfills/datepicker.min.js.map,136.277518,0,24418,0,22867,0,22867,0,1551,1551,0,0,24035,383,1.045669,0,0
www.canada.ca/etc/designs/canada/cdts/gcweb/v4_0_23/js/jquery/2.1.4/jquery.min.map,132.29551,0,2637,0,1771,0,1771,0,866,866,0,0,2416,221,10.151673,0,0
www.canada.ca/etc/designs/canada/cdts/gcweb/v4_0_25/js/polyfills/details.min.js,132.082541,0,147824,0,67182,0,67182,0,80642,80642,0,0,146380,1444,2.014897,0,0
www.canada.ca/etc/designs/canada/cdts/gcweb/v4_0_22/js/deps/additional-methods.min.js,125.874819,0,54825,0,16139,526,16665,0,38160,38160,0,0,53329,1496,7.659502,0,0
www.canada.ca/etc/designs/canada/cdts/gcweb/v4_0_23/js/ie8-wet-boew2.min.js,116.223535,0,3747,0,2685,0,2685,0,1062,1062,0,0,3262,485,18.535608,0,0
www.canada.ca/etc/designs/canada/cdts/gcweb/v4_0_24/css/polyfills/progress.min.css,112.216411,0,160789,0,84992,0,84992,0,75797,75797,0,0,159535,1254,1.046745,0,0
www.canada.ca/etc/designs/canada/cdts/gcweb/v4_0_24/css/theme-srv.min.css,111.27825,0,3770,0,2998,0,2998,0,772,772,0,0,3266,504,16.010453,0,0
www.canada.ca/etc/designs/canada/cdts/gcweb/v4_0_25/js/deps/jquery.dataTables.min.js,107.489505,0,8264,0,3303,357,3660,0,4604,4604,0,0,7822,442,11.906894,0,0
www.canada.ca/etc/designs/canada/cdts/gcweb/v4_0_23/js/jquery/1.11.1/jquery.min.js,107.256498,0,3894,0,2863,0,2863,0,1031,1031,0,0,3390,504,16.382214,0,0
www.canada.ca/etc/designs/canada/cdts/gcweb/v4_0_24/js/polyfills/slider_wrapper.min.js,102.538021,0,98751,0,74653,0,74653,0,24098,24098,0,0,97614,1137,1.530366,0,0
www.canada.ca/etc/designs/canada/cdts/gcweb/v4_0_24/js/ie8-wet-boew.min.js,98.891892,0,5754,0,4189,0,4189,0,1565,1565,0,0,5003,751,15.329365,0,0
www.canada.ca/etc/designs/canada/cdts/gcweb/v4_0_23/assets/sig-blk-en.png,91.826456,0,6879,0,6427,0,6427,0,452,452,0,0,6502,377,4.928808,0,0
www.canada.ca/etc/designs/canada/cdts/gcweb/v4_0_23/js/polyfills/slider.min.js,90.012821,0,15919,0,11365,0,11365,0,4554,4554,0,0,15200,719,4.750727,0,0
www.canada.ca/etc/designs/canada/cdts/gcweb/v4_0_25/css/polyfills/details.min.css,89.599896,0,148477,0,62862,0,62862,0,85615,85615,0,0,147059,1418,1.197017,0,0
www.canada.ca/etc/designs/canada/cdts/gcweb/v4_0_22/css/ie8-theme.min.css,85.001765,0.000376,6026,0,1178,0,1178,0,4848,4848,0,0,5644,382,21.416058,0.000438,2
www.canada.ca/etc/designs/canada/cdts/gcweb/v4_0_22/cdts/compiled/plugins-fr.js,81.974083,0,90873,0,16743,8,16751,0,74122,74122,0,0,89936,937,1.318678,0,0
www.canada.ca/etc/designs/canada/cdts/gcweb/v4_0_22/assets/favicon-mobile.png,77.695756,0,18975,0,17347,0,17347,0,1628,1628,0,0,17749,1226,4.324032,0,0
www.canada.ca/etc/designs/canada/cdts/gcweb/v4_0_22/css/noscript.min.css,75.345094,0.000642,108865,0,13562,0,13562,0,95303,95303,0,0,107543,1322,1.612019,0.000438,2
www.canada.ca/etc/designs/canada/cdts/gcweb/rn/assets/social.png,74.031951,0.000646,65953,0,10888,11,10899,0,55054,55054,0,0,64814,1139,2.667725,0.000438,2
www.canada.ca/etc/designs/canada/cdts/gcweb/v4_0_22/css/polyfills/datalist.min.css,70.116856,0.000165,109858,0,39464,0,39464,0,70394,70394,0,0,108250,1608,1.809763,0.001163,3
www.canada.ca/etc/designs/canada/cdts/gcweb/v4_0_23/js/ie8-wet-boew.min.js,67.783993,0.000055,3889,0,2863,0,2863,0,1026,1026,0,0,3385,504,10.152227,0.000219,1
www.canada.ca/etc/designs/canada/cdts/gcweb/rn/assets/feedback.png,65.869852,0.000646,73003,0,11282,4,11286,0,61717,61717,0,0,71852,1151,1.532361,0.000691,2
www.canada.ca/etc/designs/canada/cdts/gcweb/rn/assets/mobile.png,64.947547,0.000646,70777,0,10888,4,10892,0,59885,59885,0,0,69600,1177,1.400996,0.000438,2
www.canada.ca/etc/designs/canada/cdts/gcweb/v4_0_25/css/ie8-theme.min.css,62.338533,0,1423,0,937,0,937,0,486,486,0,0,1199,224,12.440719,0,0
www.canada.ca/etc/designs/canada/cdts/gcweb/v4_0_24/js/polyfills/meter.min.js.map,56.049423,0,23057,0,21690,0,21690,0,1367,1367,0,0,22726,331,0.493168,0,0
www.canada.ca/etc/designs/canada/cdts/gcweb/v4_0_25/assets/mediacontrols.html,55.875104,0,41991,0,36400,0,36400,0,5591,5591,0,0,36100,5891,7.911702,0,0
www.canada.ca/etc/designs/canada/cdts/gcweb/wet-boew/fonts/glyphicons-halflings-regular.eot,55.233597,954.934573,82376,0,0,0,0,0,0,82376,1273156,1273165,82373,3,0.000162,315.819498,1274198
www.canada.ca/etc/designs/canada/cdts/gcweb/v4_0_24/js/polyfills/details.min.js.map,53.673469,0,24106,0,22773,0,22773,0,1333,1333,0,0,23712,394,0.56454,0,0
www.canada.ca/etc/designs/canada/cdts/gcweb/v4_0_24/js/wet-boew.js,53.288565,0,8015,0,446,0,446,0,7569,7569,0,0,7868,147,12.803199,0,0
www.canada.ca/etc/designs/canada/cdts/gcweb/v4_0_25/assets/sig-blk-fr.svg,52.823785,0,29325,0,25018,0,25018,0,4307,4307,0,0,28024,1301,2.504127,0,0
www.canada.ca/etc/designs/canada/cdts/gcweb/v4_0_23/img/splash/sp-bg-2.jpg,52.103471,0,1838,0,1248,20,1268,0,570,570,0,0,1542,296,10.499999,0,0
www.canada.ca/etc/designs/canada/cdts/gcweb/rn/assets/favicon.ico,51.368192,0,6887,0,6207,0,6207,0,680,680,0,0,5969,918,4.166462,0,0
www.canada.ca/etc/designs/canada/cdts/gcweb/rn/css/theme-srv.min.css,49.403941,0,10092,0,1245,0,1245,0,8847,8847,0,0,9728,364,12.081086,0,0
www.canada.ca/etc/designs/canada/cdts/gcweb/v4_0_24/assets/wmms-blk.png,47.188122,0,9857,0,8330,0,8330,0,1527,1527,0,0,9285,572,2.841852,0,0
www.canada.ca/etc/designs/canada/cdts/gcweb/v4_0_22/js/ie8-wet-boew2.min.js,43.977686,0.000376,5107,0,936,0,936,0,4171,4171,0,0,4787,320,12.448324,0.000438,2
www.canada.ca/etc/designs/canada/cdts/gcweb/v4_0_22/assets/sig-blk-en.png,42.43502,0,3019,0,2825,0,2825,0,194,194,0,0,2713,306,4.11704,0,0
www.canada.ca/etc/designs/canada/cdts/gcweb/rn/js/compiled/soyutils.js,42.418727,0.003596,12372,0,3691,0,3691,0,8681,8681,0,0,11713,659,4.379192,0.000219,1
www.canada.ca/etc/designs/canada/cdts/gcweb/v4_0_25/js/ie8-wet-boew2.min.js,39.845326,0,1366,0,898,0,898,0,468,468,0,0,1141,225,8.493769,0,0
www.canada.ca/etc/designs/canada/cdts/gcweb/v4_0_23/js/polyfills/progress.min.js,39.200906,0,40106,0,16367,0,16367,0,23739,23739,0,0,39281,825,1.06383,0,0
www.canada.ca/etc/designs/canada/cdts/gcweb/rn/js/compiled/wet-en.js,38.180829,0,11666,0,3343,0,3343,0,8323,8323,0,0,11045,621,3.786562,0,0
www.canada.ca/etc/designs/canada/cdts/gcweb/v4_0_22/assets/sig-spl.svg,36.992137,0.012978,22063,0,21529,0,21529,0,534,534,0,0,20373,1690,2.642078,0.0004,19
www.canada.ca/etc/designs/canada/cdts/gcweb/v4_0_23/assets/sig-blk-fr.png,36.036585,0.000939,2665,0,2549,0,2549,0,116,116,0,0,2539,126,1.598166,0.000657,3
www.canada.ca/etc/designs/canada/cdts/gcweb/v4_0_22/js/deps/tableparser.min.js,35.544014,0.00011,11959,0,4706,252,4958,0,7001,7001,0,0,11265,694,4.31287,0.000438,2
www.canada.ca/etc/designs/canada/cdts/gcweb/v4_0_22/assets/sprites_share.png,35.485314,0,507,0,473,0,473,0,34,34,0,0,425,82,5.96119,0,0
www.canada.ca/etc/designs/canada/cdts/gcweb/v4_0_24/css/polyfills/,35.134055,0,56765,0,0,0,0,0,0,56765,0,0,56765,0,0,0,0
www.canada.ca/etc/designs/canada/cdts/gcweb/v4_0_25/js/jquery/1.11.1/jquery.min.js,35.132874,0,1423,0,946,0,946,0,477,477,0,0,1195,228,7.32298,0,0
www.canada.ca/etc/designs/canada/cdts/gcweb/v4_0_24/img/splash/sp-bg-2.jpg,34.971532,0.00133,923,0,821,1,822,0,101,101,0,0,842,81,2.833088,0.001786,7
www.canada.ca/etc/designs/canada/cdts/gcweb/rn/fonts/glyphicons-halflings-regular.woff,34.461161,0,26652,0,874,0,874,0,25778,25778,0,0,26398,254,5.995158,0,0
www.canada.ca/etc/designs/canada/cdts/gcweb/v4_0_24/assets/sig-blk-en.png,34.085212,0,3406,0,2327,0,2327,0,1079,1079,0,0,3006,400,5.269247,0,0
www.canada.ca/etc/designs/canada/cdts/gcweb/v4_0_25/fonts/glyphicons-halflings-regular.ttf,34.052248,0,1669,0,1279,22,1301,0,368,368,0,0,1223,446,9.460947,0,0
www.canada.ca/etc/designs/canada/cdts/gcweb/v4_0_22/assets/wmms-spl.svg,32.503407,0.00573,22034,0,21541,0,21541,0,493,493,0,0,20443,1591,2.202159,0.0004,12
www.canada.ca/etc/designs/canada/cdts/gcweb/v4_0_23/css/polyfills/progress.min.css,28.265528,0,39335,0,16414,0,16414,0,22921,22921,0,0,38510,825,0.62029,0,0
www.canada.ca/etc/designs/canada/cdts/gcweb/v4_0_23/css/polyfills/slider.min.css,26.115084,0,16143,0,11662,0,11662,0,4481,4481,0,0,15425,718,1.273934,0,0
www.canada.ca/etc/designs/canada/cdts/gcweb/rn/cdts/compiled/plugins-en.js,24.921953,0,11278,0,7664,1,7665,0,3613,3613,0,0,10134,1144,1.512883,0,0
www.canada.ca/etc/designs/canada/cdts/gcweb/v4_0_22/fonts/glyphicons-halflings-regular.ttf,23.199329,0,1073,0,863,43,906,0,167,167,0,0,840,233,5.314864,0,0
www.canada.ca/etc/designs/canada/cdts/gcweb/v4_0_25/js/ie8-wet-boew.min.js,22.49963,0,1407,0,933,0,933,0,474,474,0,0,1181,226,4.476691,0,0
www.canada.ca/etc/designs/canada/cdts/gcweb/v4_0_22/js/jquery/1.11.1/jquery.min.js,22.44032,0,762,0,562,0,562,0,200,200,0,0,629,133,4.535342,0,0
www.canada.ca/etc/designs/canada/cdts/gcweb/v4_0_22/js/polyfills/slider.min.js,21.746064,0.000109,3555,0,2728,0,2728,0,827,827,0,0,3261,294,2.049296,0.000438,2
www.canada.ca/etc/designs/canada/cdts/gcweb/rn/css/wet-boew.min.css,19.440261,0,5814,0,5551,0,5551,0,263,263,0,0,5147,667,0.765409,0,0
www.canada.ca/etc/designs/canada/cdts/gcweb/v4_0_24/js/deps/jquery.flot.min.js,17.306975,0.000055,1816,0,1124,142,1266,0,550,550,0,0,1503,313,4.128617,0.000219,1
www.canada.ca/etc/designs/canada/cdts/gcweb/v4_0_23/js/polyfills/slider_wrapper.min.js,17.180053,0,16038,0,11388,0,11388,0,4650,4650,0,0,15335,703,0.843819,0,0
www.canada.ca/etc/designs/canada/cdts/gcweb/v4_0_23/assets/wmms-blk.png,17.127673,0.000939,3536,0,3154,0,3154,0,382,382,0,0,3202,334,1.652376,0.000657,3
www.canada.ca/etc/designs/canada/cdts/gcweb/v4_0_25/js/polyfills/slider.min.js,16.688002,0,2354,0,1758,0,1758,0,596,596,0,0,2048,306,2.053408,0,0
www.canada.ca/etc/designs/canada/cdts/gcweb/v4_0_24/css/theme.css,16.249752,0,64,0,45,0,45,0,19,19,0,0,59,5,0.298858,0,0
www.canada.ca/etc/designs/canada/cdts/gcweb/v4_0_22/js/ie8-wet-boew.min.js,15.622833,0,845,0,630,0,630,0,215,215,0,0,699,146,3.061746,0,0
www.canada.ca/etc/designs/canada/cdts/gcweb/v4_0_24/js/deps/jquery.dataTables.js,13.393222,0,2061,0,112,10,122,0,1939,1939,0,0,2026,35,3.909498,0,0
www.canada.ca/etc/designs/canada/cdts/gcweb/v4_0_24/fonts/gcweb_0c4a4eb7974d0a7287c93c02965f9b3f.eot,12.770563,0,3523,0,2220,0,2220,0,1303,1303,0,0,2718,805,4.129423,0,0
www.canada.ca/etc/designs/canada/cdts/gcweb/rn/css/noscript.min.css,12.194388,0,3890,0,3521,0,3521,0,369,369,0,0,3147,743,1.030402,0,0
www.canada.ca/etc/designs/canada/cdts/gcweb/v4_0_23/css/messages.min.css,12.183743,0,7747,0,6987,0,6987,0,760,760,0,0,7346,401,0.615666,0,0
www.canada.ca/etc/designs/canada/cdts/gcweb/v4_0_22/js/polyfills/datepicker.min.js.map,12.068576,0,2415,0,2031,0,2031,0,384,384,0,0,2301,114,0.355186,0,0
www.canada.ca/etc/designs/canada/cdts/gcweb/v4_0_25/js/polyfills/datepicker.min.js.map,11.107189,0,2040,0,1995,0,1995,0,45,45,0,0,1971,69,0.208138,0,0
www.canada.ca/etc/designs/canada/cdts/gcweb/v4_0_22/css/theme-srv.min.css,11.056207,0,370,0,305,0,305,0,65,65,0,0,310,60,1.805399,0,0
www.canada.ca/etc/designs/canada/cdts/gcweb/v4_0_24/js/theme.js,10.338046,0,9351,0,257,0,257,0,9094,9094,0,0,9269,82,0.143157,0,0
www.canada.ca/etc/designs/canada/cdts/gcweb/rn/js/i18n/en.min.js,9.484733,0,13944,0,1057,56,1113,0,12831,12831,0,0,13612,332,1.090669,0,0
www.canada.ca/etc/designs/canada/cdts/gcweb/v4_0_25/cdts/compiled/wet-en.js,9.436105,0,4900,0,895,0,895,0,4005,4005,0,0,4853,47,0.278915,0,0
www.canada.ca/etc/designs/canada/cdts/gcweb/v4_0_24/js/deps/jquery.magnific-popup.js,9.290013,0,6209,0,459,0,459,0,5750,5750,0,0,6152,57,0.805486,0,0
www.canada.ca/etc/designs/canada/cdts/gcweb/v4_0_24/css/messages.min.css,8.788908,0,5410,0,4610,0,4610,0,800,800,0,0,4899,511,0.877892,0,0
www.canada.ca/etc/designs/canada/cdts/gcweb/v4_0_23/css/noscript.min.css,8.021927,0,9872,0,1760,0,1760,0,8112,8112,0,0,9452,420,0.480504,0,0
www.canada.ca/etc/designs/canada/cdts/gcweb/v4_0_24/js/deps/tableparser.min.js,7.819507,0,1722,0,1045,84,1129,0,593,593,0,0,1431,291,1.915524,0,0
www.canada.ca/etc/designs/canada/cdts/gcweb/v4_0_25/cdts/compiled/soyutils.js,7.737247,0,3804,0,587,0,587,0,3217,3217,0,0,3760,44,0.292167,0,0
www.canada.ca/etc/designs/canada/cdts/gcweb/rn/cdts/cdtsfixes.css,7.271445,0,1397,0,1337,0,1337,0,60,60,0,0,1142,255,0.454873,0,0
www.canada.ca/etc/designs/canada/cdts/gcweb/v4_0_22/css/messages.min.css,7.251701,0.000055,4505,0,3507,0,3507,0,998,998,0,0,3899,606,0.986602,0.000472,1
www.canada.ca/etc/designs/canada/cdts/gcweb/v4_0_22/css/polyfills/slider.min.css,7.114676,0,3954,0,3123,0,3123,0,831,831,0,0,3654,300,0.558623,0,0
www.canada.ca/etc/designs/canada/cdts/gcweb/v4_0_25/css/messages.min.css,6.250516,0,4227,0,3661,0,3661,0,566,566,0,0,3646,581,1.047614,0,0
www.canada.ca/etc/designs/canada/cdts/gcweb/v4_0_23/assets/sig-spl.svg,6.154093,0.002927,3694,0,3591,0,3591,0,103,103,0,0,2963,731,1.161749,0,5
www.canada.ca/etc/designs/canada/cdts/gcweb/v4_0_23/assets/wmms-spl.svg,5.618434,0.002788,3709,0,3620,0,3620,0,89,89,0,0,2997,712,1.010509,0,4
www.canada.ca/etc/designs/canada/cdts/gcweb/v4_0_24/assets/sig-blk-fr.png,5.59358,0,699,0,378,0,378,0,321,321,0,0,635,64,0.847654,0,0
www.canada.ca/etc/designs/canada/cdts/gcweb/v4_0_25/css/polyfills/slider.min.css,5.517441,0,2467,0,1867,0,1867,0,600,600,0,0,2182,285,0.517611,0,0
www.canada.ca/etc/designs/canada/cdts/gcweb/v4_0_24/js/polyfills/datepicker.js,5.241911,0,9223,0,410,0,410,0,8813,8813,0,0,9144,79,0.228664,0,0
www.canada.ca/etc/designs/canada/cdts/gcweb/v4_0_22/css/,5.153147,0,12604,0,0,0,0,0,0,12604,0,0,12604,0,0,0,0
www.canada.ca/etc/designs/canada/cdts/gcweb/v4_0_22/js/polyfills/meter.min.js.map,5.056167,0,2286,0,1868,0,1868,0,418,418,0,0,2180,106,0.169233,0,0
www.canada.ca/etc/designs/canada/cdts/gcweb/v4_0_24/js/polyfills/svg.min.js,5.041585,0,5686,0,3189,0,3189,0,2497,2497,0,0,5060,626,0.681674,0,0
www.canada.ca/etc/designs/canada/cdts/gcweb/v4_0_25/js/polyfills/progress.min.js,5.033889,0,3846,0,2485,0,2485,0,1361,1361,0,0,3489,357,0.473956,0,0
www.canada.ca/etc/designs/canada/cdts/gcweb/v4_0_22/js/polyfills/details.min.js.map,4.792514,0,2299,0,1884,0,1884,0,415,415,0,0,2191,108,0.166823,0,0
www.canada.ca/etc/designs/canada/cdts/gcweb/v4_0_23/js/polyfills/datepicker.min.js.map,4.792318,0,1101,0,1063,0,1063,0,38,38,0,0,1014,87,0.273826,0,0
www.canada.ca/etc/designs/canada/cdts/gcweb/v4_0_22/js/polyfills/progress.min.js,4.769926,0,3850,0,2761,0,2761,0,1089,1089,0,0,3513,337,0.4549,0,0
www.canada.ca/etc/designs/canada/cdts/gcweb/v4_0_23/fonts/gcweb_0c4a4eb7974d0a7287c93c02965f9b3f.eot,4.752436,0,1532,0,822,0,822,0,710,710,0,0,1164,368,1.876009,0,0
www.canada.ca/etc/designs/canada/cdts/gcweb/v4_0_24/js/i18n/en.js,4.621492,0,7269,0,257,0,257,0,7012,7012,0,0,7222,47,0.168822,0,0
www.canada.ca/etc/designs/canada/cdts/gcweb/v4_0_24/js/polyfills/meter.js,4.494577,0,8446,0,335,0,335,0,8111,8111,0,0,8378,68,0.110776,0,0
www.canada.ca/etc/designs/canada/cdts/gcweb/v4_0_25/js/polyfills/meter.min.js.map,4.43017,0,1815,0,1778,0,1778,0,37,37,0,0,1750,65,0.099815,0,0
www.canada.ca/etc/designs/canada/cdts/gcweb/v4_0_25/js/polyfills/details.min.js.map,4.385747,0,1926,0,1906,0,1906,0,20,20,0,0,1855,71,0.110049,0,0
www.canada.ca/etc/designs/canada/cdts/gcweb/v4_0_24/js/deps/jquery.flot.pie.min.js,4.363184,0.000055,1672,0,1029,40,1069,0,603,603,0,0,1377,295,1.100282,0.000219,1
www.canada.ca/etc/designs/canada/cdts/gcweb/v4_0_24/assets/sig-spl.svg,4.295387,0.000681,2374,0,2297,0,2297,0,77,77,0,0,1994,380,0.751397,0.000657,4
www.canada.ca/etc/designs/canada/cdts/gcweb/rn/cdts/compiled/plugins-fr.js,4.258417,0,1922,0,1345,0,1345,0,577,577,0,0,1593,329,0.329298,0,0
www.canada.ca/etc/designs/canada/cdts/gcweb/v4_0_24/js/polyfills/details.js,4.09825,0,7591,0,455,0,455,0,7136,7136,0,0,7503,88,0.174104,0,0
www.canada.ca/etc/designs/canada/cdts/gcweb/v4_0_24/fonts/glyphicons-halflings-regular.svg,3.973081,0,309,0,201,0,201,0,108,108,0,0,264,45,0.689196,0,0
www.canada.ca/etc/designs/canada/cdts/gcweb/v4_0_22/js/polyfills/slider_wrapper.min.js,3.954291,0,3411,0,2577,0,2577,0,834,834,0,0,3116,295,0.382327,0,0
www.canada.ca/etc/designs/canada/cdts/gcweb/v4_0_24/assets/wmms-spl.svg,3.754057,0.000681,2383,0,2282,2,2284,0,99,99,0,0,2003,380,0.653483,0.000657,4
www.canada.ca/etc/designs/canada/cdts/gcweb/v4_0_25/cdts/compiled/plugins-en.js,3.634244,0,3512,0,544,0,544,0,2968,2968,0,0,3470,42,0.027487,0,0
www.canada.ca/etc/designs/canada/cdts/gcweb/v4_0_24/css/noscript.min.css,3.581683,0,2009,0,1116,1,1117,0,892,892,0,0,1638,371,0.451447,0,0
www.canada.ca/etc/designs/canada/cdts/gcweb/v4_0_23/js/wet-boew.js,3.434994,0,779,0,19,0,19,0,760,760,0,0,767,12,1.020544,0,0
www.canada.ca/etc/designs/canada/cdts/gcweb/v4_0_25/js/polyfills/slider_wrapper.min.js,3.420467,0,2483,0,1879,0,1879,0,604,604,0,0,2187,296,0.349522,0,0
www.canada.ca/etc/designs/canada/cdts/gcweb/v4_0_24/css/polyfills/meter.css,3.358905,0,6093,0,318,0,318,0,5775,5775,0,0,6056,37,0.037481,0,0
www.canada.ca/etc/designs/canada/cdts/gcweb/v4_0_25/css/polyfills/progress.min.css,3.218913,0,3664,0,2498,0,2498,0,1166,1166,0,0,3317,347,0.273349,0,0
www.canada.ca/etc/designs/canada/cdts/gcweb/v4_0_22/css/polyfills/progress.min.css,3.183788,0,4078,0,2939,0,2939,0,1139,1139,0,0,3727,351,0.279678,0,0
www.canada.ca/etc/designs/canada/cdts/gcweb/v4_0_24/css/polyfills/datepicker.css,3.078629,0,6303,0,340,0,340,0,5963,5963,0,0,6259,44,0.055935,0,0
www.canada.ca/etc/designs/canada/cdts/gcweb/v4_0_23/js/jquery/2.1.4/jquery.js,3.001159,0,773,0,23,0,23,0,750,750,0,0,759,14,1.078813,0,0
www.canada.ca/etc/designs/canada/cdts/gcweb/v4_0_24/css/polyfills/details.css,2.630141,0,5925,0,318,0,318,0,5607,5607,0,0,5885,40,0.037385,0,0
www.canada.ca/etc/designs/canada/cdts/gcweb/rn/js/compiled/wet-fr.js,2.585056,0.003919,613,0,243,0,243,0,370,370,0,0,538,75,0.445488,0.000691,2
www.canada.ca/etc/designs/canada/cdts/gcweb/v4_0_24/js/deps/jquery.flot.canvas.min.js,2.408596,0,1717,0,1013,0,1013,0,704,704,0,0,1421,296,0.586392,0,0
www.canada.ca/etc/designs/canada/cdts/gcweb/v4_0_24/js/deps/jquery.flot.orderBars.min.js,2.317704,0.000055,1693,0,1002,0,1002,0,691,691,0,0,1402,291,0.51187,0.000219,1
www.canada.ca/etc/designs/canada/cdts/gcweb/v4_0_24/js/deps/OpenLayers.min.js,2.156494,0,178,0,10,2,12,0,166,166,0,0,170,8,1.597679,0,0
www.canada.ca/etc/designs/canada/cdts/gcweb/v4_0_24/js/i18n/fr.js,2.039848,0,3335,0,54,0,54,0,3281,3281,0,0,3274,61,0.135359,0,0
www.canada.ca/etc/designs/canada/cdts/gcweb/v4_0_23/js/polyfills/svg.min.js,2.027781,0,2378,0,1352,0,1352,0,1026,1026,0,0,1987,391,0.404923,0,0
www.canada.ca/etc/designs/canada/cdts/gcweb/v4_0_23/js/polyfills/details.min.js.map,2.02003,0,1146,0,962,0,962,0,184,184,0,0,1036,110,0.169857,0,0
www.canada.ca/etc/designs/canada/cdts/gcweb/v4_0_23/css/polyfills/,2.007069,0,3348,0,0,0,0,0,0,3348,0,0,3348,0,0,0,0
www.canada.ca/etc/designs/canada/cdts/gcweb/v4_0_23/js/polyfills/meter.min.js.map,1.715613,0,836,0,787,0,787,0,49,49,0,0,772,64,0.104774,0,0
www.canada.ca/etc/designs/canada/cdts/gcweb/v4_0_22/css/polyfills/,1.540638,0,2786,0,0,0,0,0,0,2786,0,0,2786,0,0,0,0
www.canada.ca/etc/designs/canada/cdts/gcweb/v4_0_23/js/deps/OpenLayers.min.js,1.478904,0,56,0,8,0,8,0,48,48,0,0,54,2,0.399655,0,0
www.canada.ca/etc/designs/canada/cdts/gcweb/v4_0_24/cdts/static/top-en.html,0.977318,0,171,0,171,0,171,0,0,0,0,0,78,93,0.167484,0,0
www.canada.ca/etc/designs/canada/cdts/gcweb/v4_0_24/assets/sprites_geomap.png,0.956157,0,68,0,68,0,68,0,0,0,0,0,61,7,0.096228,0,0
www.canada.ca/etc/designs/canada/cdts/gcweb/rn/fonts/glyphicons-halflings-regular.ttf,0.90814,0,168,0,36,0,36,0,132,132,0,0,150,18,0.448552,0,0
www.canada.ca/etc/designs/canada/cdts/gcweb/v4_0_24/cdts/static/refTop.html,0.863821,0,187,0,185,0,185,0,2,2,0,0,91,96,0.090106,0,0
www.canada.ca/etc/designs/canada/cdts/gcweb/v4_0_24/assets/loading.png,0.765517,0,69,0,69,0,69,0,0,0,0,0,63,6,0.064642,0,0
www.canada.ca/etc/designs/canada/cdts/gcweb/v4_0_22/assets/wmms-blk.png,0.754437,0,180,0,117,0,117,0,63,63,0,0,148,32,0.168153,0,0
www.canada.ca/etc/designs/canada/cdts/gcweb/v4_0_24/js/deps/proj4.min.js,0.675708,0,657,0,15,2,17,0,640,640,0,0,640,17,0.42018,0,0
www.canada.ca/etc/designs/canada/cdts/gcweb/v4_0_24/css/,0.657582,0,312,0,0,0,0,0,0,312,0,0,312,0,0,0,0
www.canada.ca/etc/designs/canada/cdts/gcweb/wet-boew/assets/sprites_share.png,0.636903,1.468865,1063,0,0,0,0,0,0,1063,1966,1966,1063,0,0,1.139928,1966
www.canada.ca/etc/designs/canada/cdts/gcweb/v4_0_25/css/polyfills/,0.624349,0,1176,0,0,0,0,0,0,1176,0,0,1176,0,0,0,0
www.canada.ca/etc/designs/canada/cdts/gcweb/v4_0_22/js/jquery/2.1.4/jquery.js,0.539445,0,158,0,6,0,6,0,152,152,0,0,155,3,0.230331,0,0
www.canada.ca/etc/designs/canada/cdts/gcweb/v4_0_24/js/deps/geomap-lib.min.js,0.490103,0,655,0,13,2,15,0,640,640,0,0,637,18,0.2511,0,0
www.canada.ca/etc/designs/canada/cdts/gcweb/v4_0_24/cdts/static/top-fr.html,0.396375,0,54,0,54,0,54,0,0,0,0,0,26,28,0.049635,0,0
www.canada.ca/etc/designs/canada/cdts/gcweb/v4_0_24/cdts/static/footer-en.html,0.396032,0,115,0,115,0,115,0,0,0,0,0,54,61,0.092058,0,0
www.canada.ca/etc/designs/canada/cdts/gcweb/v4_0_22/cdts/compiled/%27+(,0.205009,0,84,0,0,0,0,0,0,84,0,0,84,0,0,0,0
www.canada.ca/etc/designs/canada/cdts/gcweb/v4_0_23/js/i18n/en.js,0.191566,0,450,0,2,0,2,0,448,448,0,0,444,6,0.018252,0,0
www.canada.ca/etc/designs/canada/cdts/gcweb/v4_0_24/cdts/static/footer-fr.html,0.186039,0,54,0,54,0,54,0,0,0,0,0,26,28,0.039014,0,0
www.canada.ca/etc/designs/canada/cdts/gcweb/v4_0_24/cdts/static/preFooter-en.html,0.18493,0,171,0,171,0,171,0,0,0,0,0,74,97,0.095393,0,0
www.canada.ca/etc/designs/canada/cdts/gcweb/v4_0_25/cdts/exitScript.js,0.174358,0,335,0,38,0,38,0,297,297,0,0,326,9,0.011445,0,0
www.canada.ca/etc/designs/canada/cdts/gcweb/v4_0_23/js/deps/proj4.min.js,0.17259,0,56,0,6,0,6,0,50,50,0,0,54,2,0.049474,0,0
www.canada.ca/etc/designs/canada/cdts/gcweb/v4_0_25/cdts/compiled/wet-fr.js,0.116482,0,80,0,7,0,7,0,73,73,0,0,78,2,0.012486,0,0
www.canada.ca/etc/designs/canada/cdts/gcweb/v4_0_23/js/deps/geomap-lib.min.js,0.109252,0,56,0,6,0,6,0,50,50,0,0,54,2,0.027528,0,0
www.canada.ca/etc/designs/canada/cdts/gcweb/v4_0_25/cdts/compiled/plugins-fr.js,0.088282,0,92,0,7,0,7,0,85,85,0,0,90,2,0.001266,0,0
www.canada.ca/etc/designs/canada/cdts/gcweb/v4_0_24/js/deps/prettify.min.js,0.080708,0,107,0,5,0,5,0,102,102,0,0,105,2,0.015146,0,0
www.canada.ca/etc/designs/canada/cdts/gcweb/v4_0_24/cdts/static/preFooter-fr.html,0.061486,0,54,0,54,0,54,0,0,0,0,0,26,28,0.028765,0,0
www.canada.ca/etc/designs/canada/cdts/gcweb/v4_0_24/js/polyfills/datalist.min.js.map,0.06014,0,98,0,2,0,2,0,96,96,0,0,92,6,0.020561,0,0
www.canada.ca/etc/designs/canada/cdts/gcweb/v4_0_24/css/ie8-wet-boew.min.css,0.039391,0,54,0,18,0,18,0,36,36,0,0,41,13,0.011579,0,0
www.canada.ca/etc/designs/canada/cdts/gcweb/v4_0_23/js/polyfills/details.js,0.033245,0,75,0,1,0,1,0,74,74,0,0,74,1,0.002169,0,0
www.canada.ca/etc/designs/canada/cdts/gcweb/wet-boew/fonts/glyphicons-halflings-regular.svg,0,0.13227,0,0,0,0,0,0,0,0,250,250,0,0,0,0.043789,250
www.canada.ca/etc/designs/canada/cdts/gcweb/v4_0_25/js/deps/template.min.js,0,211.68784,0,0,0,0,0,0,0,0,351079,351086,0,0,0,95.08722,351105
www.canada.ca/etc/designs/canada/cdts/gcweb/v4_0_24/wet-boew/js/wet-boew.min.js,0,2.351499,0,0,0,0,0,0,0,0,2712,2712,0,0,0,1.740845,2712
www.canada.ca/etc/designs/canada/cdts/gcweb/v4_0_24/wet-boew/js/ie8-wet-boew2.min.js,0,0.048691,0,0,0,0,0,0,0,0,60,60,0,0,0,0.060597,60
www.canada.ca/etc/designs/canada/cdts/gcweb/v4_0_24/js/i18n/en%20.min.js,0,0.052974,0,0,0,0,0,0,0,0,81,81,0,0,0,0.02698,81
www.canada.ca/etc/designs/canada/cdts/gcweb/v4_0_24/js/i18n/.min.js,0,0.308266,0,0,0,0,0,0,0,0,474,474,0,0,0,0.071508,474
www.canada.ca/etc/designs/canada/cdts/gcweb/v4_0_24/css/polyfills.html,0,1.883584,0,0,0,0,0,0,0,0,0,0,0,0,0,0,2666
www.canada.ca/etc/designs/canada/cdts/gcweb/v4_0_24/css/ie8-theme-srv.min.css%22,0,0.057326,0,0,0,0,0,0,0,0,61,61,0,0,0,0.06127,61
www.canada.ca/etc/designs/canada/cdts/gcweb/v4_0_24/cdts/js/compiled/plugins-fr.js,0,2.461341,0,0,0,0,0,0,0,0,1965,1965,0,0,0,0.892485,1966
www.canada.ca/etc/designs/canada/cdts/gcweb/v4_0_24/cdts/js/compiled/plugins-en.js,0,81.898332,0,0,0,0,0,0,0,0,74984,74984,0,0,0,33.18866,74998
www.canada.ca/etc/designs/canada/cdts/gcweb/v4_0_24/cdts/compiled/%27+soy.$$escapeHtml(b.url)+%27,0,1.182586,0,0,0,0,0,0,0,0,434,434,0,0,0,0.377514,434
www.canada.ca/etc/designs/canada/cdts/gcweb/v4_0_24/cdts/compiled/%27+soy.$$escapeHtml(b.transcript)+%27,0,1.091917,0,0,0,0,0,0,0,0,362,362,0,0,0,0.337587,362
www.canada.ca/etc/designs/canada/cdts/gcweb/v4_0_24/cdts/compiled/%27+soy.$$escapeHtml(a.src)+%27,0,1.119301,0,0,0,0,0,0,0,0,433,433,0,0,0,0.394755,433
www.canada.ca/etc/designs/canada/cdts/gcweb/v4_0_24/cdts/compiled/%27+soy.$$escapeHtml(a.href)+%27,0,3.503941,0,0,0,0,0,0,0,0,1273,1273,0,0,0,1.193412,1275
www.canada.ca/etc/designs/canada/cdts/gcweb/v4_0_24/cdts/compiled/%27+(null!=a.templateDomain,0,0.479837,0,0,0,0,0,0,0,0,182,182,0,0,0,0.1947,182
www.canada.ca/etc/designs/canada/cdts/gcweb/v4_0_24/assets/favicon.ico),0,0.03152,0,0,0,0,0,0,0,0,51,51,0,0,0,0.028595,51
www.canada.ca/etc/designs/canada/cdts/gcweb/v4_0_23/wet-boew/js/wet-boew.min.js,0,4.4049,0,0,0,0,0,0,0,0,3904,3904,0,0,0,2.012726,3904
www.canada.ca/etc/designs/canada/cdts/gcweb/v4_0_23/js/i18n/.min.js,0,0.034735,0,0,0,0,0,0,0,0,50,50,0,0,0,0.014016,50
www.canada.ca/etc/designs/canada/cdts/gcweb/v4_0_23/cdts/compiled/%27+(null!=a.templateDomain,0,0.154624,0,0,0,0,0,0,0,0,52,52,0,0,0,0.041223,52
www.canada.ca/etc/designs/canada/cdts/gcweb/v4_0_22/js/i18n/.min.js,0,0.156261,0,0,0,0,0,0,0,0,284,284,0,0,0,0.084119,284
www.canada.ca/etc/designs/canada/cdts/gcweb/v4_0_22/css/polyfills.html,0,0.114396,0,0,0,0,0,0,0,0,0,0,0,0,0,0,162
www.canada.ca/etc/designs/canada/cdts/gcweb/v4_0_22/cdts/compiled/wet-en.debug.js,0,0.893071,0,0,0,0,0,0,0,0,1802,1802,0,0,0,0.079569,1802
www.canada.ca/etc/designs/canada/cdts/gcweb/v4_0_22/cdts/compiled/wet-en-vsdoc.js,0,0.961897,0,0,0,0,0,0,0,0,1799,1799,0,0,0,0.081724,1799
www.canada.ca/etc/designs/canada/cdts/gcweb/v4_0_22/cdts/compiled/soyutils.debug.js,0,0.781403,0,0,0,0,0,0,0,0,1550,1550,0,0,0,0.109945,1550
www.canada.ca/etc/designs/canada/cdts/gcweb/v4_0_22/cdts/compiled/soyutils-vsdoc.js,0,0.887676,0,0,0,0,0,0,0,0,1549,1549,0,0,0,0.103505,1549
www.canada.ca/etc/designs/canada/cdts/gcweb/v4_0_22/cdts/compiled/plugins-en.debug.js,0,0.83927,0,0,0,0,0,0,0,0,1713,1713,0,0,0,0.042396,1713
www.canada.ca/etc/designs/canada/cdts/gcweb/v4_0_22/cdts/compiled/plugins-en-vsdoc.js,0,0.840237,0,0,0,0,0,0,0,0,1714,1714,0,0,0,0.045971,1714
www.canada.ca/etc/designs/canada/cdts/gcweb/v4_0_22/cdts/compiled/%27+(null!=a.templateDomain,0,1.966673,0,0,0,0,0,0,0,0,721,721,0,0,0,0.902086,721
www.canada.ca/etc/designs/canada/cdts/gcweb/v4_0_22/cdts/compiled/%27+(.html,0,0.20478,0,0,0,0,0,0,0,0,75,75,0,0,0,0.109947,75
www.canada.ca/etc/designs/canada/cdts/gcweb/rn/cdts/compiled/%27+(null!=a.templateDomain,0,0.116061,0,0,0,0,0,0,0,0,51,51,0,0,0,0.055348,51
www.canada.ca/etc/designs/canada/cdts/gcweb/rn/GCWeb/assets/wmms-blk.svg,0,217.45734,0,0,0,0,0,0,0,0,282361,282364,0,0,0,148.822855,282478
www.canada.ca/etc/designs/canada/cdts/app/cls/wet/gcweb/v4_0_22/js/compiled/wet-fr.js,0,1.418041,0,0,0,0,0,0,0,0,1043,1043,0,0,0,0.632254,1043
www.canada.ca/etc/designs/canada/cdts/app/cls/wet/gcweb/v4_0_22/js/compiled/wet-en.js,0,16.856262,0,0,0,0,0,0,0,0,16129,16129,0,0,0,9.410449,16132
www.canada.ca/etc/designs/canada/cdts/app/cls/wet/gcweb/v4_0_22/js/compiled/soyutils.js,0,18.863274,0,0,0,0,0,0,0,0,14561,14561,0,0,0,9.681473,14565
mws.download.akamai.com/$(SERVE_503)/etc/designs/canada/cdts/gcweb/wet-boew/fonts/glyphicons-halflings-regular.eot,0,17.219032,0,0,0,0,0,0,0,0,0,0,0,32,0.233325,0,993
mws.download.akamai.com/$(SERVE_503)/etc/designs/canada/cdts/gcweb/v4_0_25/js/deps/template.min.js,0,1.000434,0,0,0,0,0,0,0,0,0,0,0,3,0.01954,0,52
mws.download.akamai.com/$(SERVE_503)/etc/designs/canada/cdts/gcweb/rn/GCWeb/assets/wmms-blk.svg,0,1.111548,0,0,0,0,0,0,0,0,0,0,0,3,0.031281,0,139
# ROW_DATA_END
