# HEADER_START,,,,,,,,,,,,,,,,,
time_zone,GMT,,,,,,,,,,,,,,,,
end_date,20171130,,,,,,,,,,,,,,,,
time_zone_offset,0,,,,,,,,,,,,,,,,
cpcode,368225,,,,,,,,,,,,,,,,
start_date,20171101,,,,,,,,,,,,,,,,
# HEADER_END,,,,,,,,,,,,,,,,,
# COLUMN_DEFINITION_START,,,,,,,,,,,,,,,,,
URL,Ok Volume (MB),Error Volume (MB),Ok Hits,0XX,200,206,2XX,302,304,3XX,404,4XX,Offloaded Hits,Origin Hits,Origin OK Volume (MB),Origin Error Volume (MB),Error Hits
# COLUMN_DEFINITION_END,,,,,,,,,,,,,,,,,
,,,,,,,,,,,,,,,,,
# ROW_DATA_START,,,,,,,,,,,,,,,,,
www.canada.ca/etc/designs/canada/cdts/gcweb/v4_0_24/css/theme.min.css,161846.2497,19.939286,7549201,0,2412537,886,2413423,0,5135778,5135778,0,19285,7534723,14478,581.488706,0.018311,19325
www.canada.ca/etc/designs/canada/cdts/gcweb/v4_0_24/js/wet-boew.min.js,118228.4224,0.002103,6552891,1,2361351,1462,2362813,0,4190077,4190077,0,0,6540490,12401,373.515877,0.010415,31
www.canada.ca/etc/designs/canada/cdts/gcweb/v4_0_26/css/theme.min.css,114050.6833,0.000749,6980659,1,1723299,528,1723827,0,5256831,5256831,0,0,6972338,8321,395.55233,0.003897,13
www.canada.ca/etc/designs/canada/cdts/gcweb/v4_0_26/js/wet-boew.min.js,88870.49579,0.001386,6007670,0,1724887,1216,1726103,0,4281567,4281567,0,0,6000178,7492,270.852075,0.005033,17
www.canada.ca/etc/designs/canada/cdts/gcweb/v4_0_24/js/jquery/2.1.4/jquery.min.js,88571.67113,0.026089,13099979,1,2471433,1707,2473140,0,10626838,10626838,0,0,13082175,17804,366.199597,0.018641,50
www.canada.ca/etc/designs/canada/cdts/gcweb/v4_0_25/css/theme.min.css,82511.08271,0.006725,1938303,0,1260051,178,1260229,0,678074,678074,0,0,1932253,6050,294.478631,0.013063,22
www.canada.ca/etc/designs/canada/cdts/gcweb/v4_0_26/js/jquery/2.1.4/jquery.min.js,69936.04905,0.009427,26059232,0,1776063,2588,1778651,0,24280581,24280581,0,0,26043166,16066,361.447738,0.020445,58
www.canada.ca/etc/designs/canada/cdts/gcweb/v4_0_24/fonts/glyphicons-halflings-regular.woff,61408.58974,0.021865,9513014,2,2029305,548,2029853,0,7483159,7483159,0,0,9498437,14577,247.557045,0.023701,42
www.canada.ca/etc/designs/canada/cdts/gcweb/v4_0_25/js/wet-boew.min.js,61334.53517,0.004751,1694606,1,1233158,344,1233502,0,461103,461103,0,0,1688766,5840,210.597792,0.00569,22
www.canada.ca/etc/designs/canada/cdts/gcweb/v4_0_25/js/jquery/2.1.4/jquery.min.js,42649.77524,0.085849,4727777,3,1269015,393,1269408,0,3458366,3458366,0,61,4719382,8395,189.46278,0.005974,80
www.canada.ca/etc/designs/canada/cdts/gcweb/v4_0_26/fonts/glyphicons-halflings-regular.woff,36386.90782,0.017253,8969755,1,1302591,556,1303147,0,7666607,7666607,0,0,8961000,8755,171.757303,0.008279,24
www.canada.ca/etc/designs/canada/cdts/gcweb/v4_0_25/fonts/glyphicons-halflings-regular.woff,30639.03441,0.005907,3555519,3,1152897,175,1153072,0,2402444,2402444,0,0,3548326,7193,133.169792,0.004257,12
www.canada.ca/etc/designs/canada/cdts/gcweb/v4_0_23/css/theme.min.css,30530.48736,0.000679,4130949,0,475296,93,475389,0,3655560,3655560,0,0,4125409,5540,229.74383,0.003967,12
www.canada.ca/etc/designs/canada/cdts/gcweb/v4_0_24/cdts/compiled/soyutils.js,29247.82321,10.780211,11145133,0,2940258,209,2940467,0,8204666,8204666,0,9465,11131207,13926,73.171158,0.027273,9533
www.canada.ca/etc/designs/canada/cdts/gcweb/v4_0_24/js/deps/jquery.magnific-popup.min.js,24302.54603,0.056506,8136101,0,2527290,286793,2814083,0,5322018,5322018,0,86,8123500,12601,72.623482,0.002299,96
www.canada.ca/etc/designs/canada/cdts/gcweb/v4_0_23/js/wet-boew.min.js,24205.29676,0.001938,3604886,0,474425,414,474839,0,3130047,3130047,0,0,3599749,5137,185.073895,0.006412,16
www.canada.ca/etc/designs/canada/cdts/gcweb/v4_0_23/assets/favicon.ico,23646.62112,0.006042,4398004,0,3605135,17,3605152,0,792852,792852,0,0,4393491,4513,16.949822,0.00375,12
www.canada.ca/etc/designs/canada/cdts/gcweb/v4_0_26/js/theme.min.js,23433.78226,0.005149,5130238,0,1714549,235,1714784,0,3415454,3415454,0,0,5122939,7299,75.06044,0.008878,19
www.canada.ca/etc/designs/canada/cdts/gcweb/v4_0_23/js/jquery/2.1.4/jquery.min.js,22398.41445,0.019602,13479142,1,510418,1449,511867,0,12967274,12967274,0,0,13464697,14445,260.955921,0.019337,52
www.canada.ca/etc/designs/canada/cdts/gcweb/v4_0_22/css/theme.min.css,22281.53072,0.010763,799895,0,355802,60,355862,0,444033,444033,0,0,795522,4373,200.187778,0.002737,12
www.canada.ca/etc/designs/canada/cdts/gcweb/v4_0_26/js/deps/jquery.magnific-popup.min.js,21936.54714,0.051849,11981930,0,2150137,274716,2424853,0,9557077,9557077,0,76,11973151,8779,55.58198,0.008243,108
www.canada.ca/etc/designs/canada/cdts/gcweb/v4_0_24/assets/wmms-blk.svg,20297.19112,28.488021,16920014,2,14200517,96,14200613,0,2719399,2719399,0,22079,16892312,27702,37.474927,0.03945,55732
www.canada.ca/etc/designs/canada/cdts/gcweb/v4_0_24/assets/sig-blk-en.svg,18639.13739,33.488453,13701773,1,10636480,37,10636517,0,3065255,3065255,0,26071,13676246,25527,38.020701,0.027501,64924
www.canada.ca/etc/designs/canada/cdts/gcweb/v4_0_24/cdts/compiled/wet-en.js,18417.16017,1.208668,7091092,1,2084775,125,2084900,0,5006191,5006191,0,501,7077940,13152,62.483311,0.030403,571
www.canada.ca/etc/designs/canada/cdts/gcweb/v4_0_26/cdts/compiled/soyutils.js,18398.44344,0.100292,14964952,0,1536882,90,1536972,0,13427980,13427980,0,84,14953801,11151,63.347761,0.037125,159
www.canada.ca/etc/designs/canada/cdts/gcweb/v4_0_25/js/theme.min.js,15019.00474,0.004987,1687906,0,1240680,118,1240798,0,447108,447108,0,0,1682083,5823,53.784463,0.009835,26
www.canada.ca/etc/designs/canada/cdts/gcweb/v4_0_23/assets/sig-blk-en.svg,14107.13345,16.985777,17992960,1,13501618,746,13502364,0,4490595,4490595,0,199,17973273,19687,29.719584,0.047859,44137
www.canada.ca/etc/designs/canada/cdts/gcweb/v4_0_23/fonts/glyphicons-halflings-regular.woff,14055.20955,0.009689,9724550,2,414097,676,414773,0,9309775,9309775,0,0,9712815,11735,169.66695,0.017498,52
www.canada.ca/etc/designs/canada/cdts/gcweb/v4_0_25/js/deps/jquery.magnific-popup.min.js,13869.5726,0.000664,2574664,0,1525280,212795,1738075,0,836589,836589,0,0,2567575,7089,46.528247,0.002188,7
www.canada.ca/etc/designs/canada/cdts/gcweb/v4_0_23/assets/wmms-blk.svg,13780.02706,40.044177,22032742,1,17336448,19,17336467,0,4696274,4696274,0,225,22010902,21840,29.471123,0.035801,112605
www.canada.ca/etc/designs/canada/cdts/gcweb/v4_0_22/js/wet-boew.min.js,12726.79236,0.000969,496029,1,261408,192,261600,0,234428,234428,0,0,492176,3853,139.435393,0.002554,11
www.canada.ca/etc/designs/canada/cdts/gcweb/v4_0_26/assets/favicon.ico,12510.44443,0.000328,3741963,0,2178394,47,2178441,0,1563522,1563522,0,0,3736161,5802,21.190052,0.00142,6
www.canada.ca/etc/designs/canada/cdts/gcweb/v4_0_26/cdts/compiled/wet-en.js,12264.68702,0.081311,11036423,1,1174984,59,1175043,0,9861379,9861379,0,88,11026695,9728,56.653394,0.035623,168
www.canada.ca/etc/designs/canada/cdts/gcweb/v4_0_24/js/deps/jquery.dataTables.min.js,11634.48834,0.000367,1392390,1,355962,91026,446988,0,945401,945401,0,0,1385547,6843,133.105685,0.002108,6
www.canada.ca/etc/designs/canada/cdts/gcweb/v4_0_24/fonts/glyphicons-halflings-regular.eot,11200.79396,0.011254,2332269,1,451844,1,451845,0,1880423,1880423,0,0,2324971,7298,155.976385,0.007173,22
www.canada.ca/etc/designs/canada/cdts/gcweb/v4_0_26/assets/wmms-blk.svg,11152.22315,0.365044,14497090,2,7965801,29,7965830,0,6531258,6531258,0,0,14481798,15292,23.24348,0.009507,743
www.canada.ca/etc/designs/canada/cdts/gcweb/v4_0_24/assets/favicon.ico,10399.61369,0.006231,3160513,0,1938916,59,1938975,0,1221538,1221538,0,0,3152529,7984,27.62913,0.009246,21
www.canada.ca/etc/designs/canada/cdts/gcweb/v4_0_26/js/i18n/en.min.js,10009.61503,0.000609,10578298,0,2290767,79798,2370565,0,8207733,8207733,0,0,10569291,9007,23.152582,0.00259,10
www.canada.ca/etc/designs/canada/cdts/gcweb/v4_0_22/js/jquery/2.1.4/jquery.min.js,9917.688319,0.000477,610331,0,307499,174,307673,0,302658,302658,0,0,606452,3879,93.807295,0.000621,3
www.canada.ca/etc/designs/canada/cdts/gcweb/v4_0_24/js/i18n/en.min.js,9530.710279,0.001693,7171038,0,2386250,115153,2501403,0,4669635,4669635,0,0,7157742,13296,29.321528,0.011938,25
www.canada.ca/etc/designs/canada/cdts/gcweb/v4_0_26/assets/sig-blk-en.svg,9154.795114,0.314099,11499804,0,5544187,24,5544211,0,5955593,5955593,0,0,11485480,14324,24.061151,0.006566,528
www.canada.ca/etc/designs/canada/cdts/gcweb/v4_0_22/fonts/glyphicons-halflings-regular.woff,9035.882129,0.00526,1115606,0,310778,117,310895,0,804711,804711,0,0,1110997,4609,84.021936,0.000621,3
www.canada.ca/etc/designs/canada/cdts/gcweb/v4_0_23/js/deps/jquery.magnific-popup.min.js,7972.201893,0.000657,4685510,0,747592,139913,887505,0,3798005,3798005,0,0,4678362,7148,43.234004,0.006331,12
www.canada.ca/etc/designs/canada/cdts/gcweb/v4_0_25/cdts/compiled/soyutils.js,7576.179754,0.004556,2757998,0,929929,125,930054,0,1827944,1827944,0,0,2751826,6172,33.971412,0.005898,12
www.canada.ca/etc/designs/canada/cdts/gcweb/v4_0_23/cdts/compiled/soyutils.js,7011.628542,0.009451,7318928,0,478219,85,478304,0,6840624,6840624,0,0,7309322,9606,43.588086,0.005283,13
www.canada.ca/etc/designs/canada/cdts/gcweb/v4_0_24/cdts/cdtsfixes.css,6315.796598,22.219473,7435835,3,2406429,0,2406429,0,5029403,5029403,0,21548,7422075,13760,20.212252,0.018907,21602
www.canada.ca/etc/designs/canada/cdts/gcweb/v4_0_26/js/polyfills/datalist.min.js,5981.809881,0.007725,8590556,1,1584223,0,1584223,0,7006332,7006332,0,0,8582952,7604,17.412425,0.011601,42
www.canada.ca/etc/designs/canada/cdts/gcweb/v4_0_25/cdts/compiled/wet-en.js,5626.772253,0.00149,2313532,0,764793,86,764879,0,1548653,1548653,0,0,2307643,5889,30.433246,0.009798,19
www.canada.ca/etc/designs/canada/cdts/gcweb/v4_0_26/fonts/glyphicons-halflings-regular.eot,5446.327679,0.004407,1913526,0,207400,0,207400,0,1706126,1706126,0,0,1909265,4261,91.710196,0.009387,24
www.canada.ca/etc/designs/canada/cdts/gcweb/v4_0_25/assets/wmms-blk.svg,5374.208405,9.461318,4728015,0,3743976,27,3744003,0,984012,984012,0,0,4714951,13064,19.468344,0.008818,26946
www.canada.ca/etc/designs/canada/cdts/gcweb/v4_0_24/js/theme.min.js,5207.035581,0.013844,6903112,5,2367009,666,2367675,0,4535432,4535432,0,0,6890762,12350,15.590941,0.024688,61
www.canada.ca/etc/designs/canada/cdts/gcweb/v4_0_25/assets/sig-blk-en.svg,4974.454002,3.340997,3676122,1,2968512,23,2968535,0,707586,707586,0,0,3663830,12292,20.208554,0.010913,8617
www.canada.ca/etc/designs/canada/cdts/gcweb/v4_0_23/assets/sig-blk-fr.svg,4930.052412,5.358337,6657893,1,5040125,129,5040254,0,1617638,1617638,0,0,6649413,8480,12.952532,0.011195,13893
www.canada.ca/etc/designs/canada/cdts/gcweb/v4_0_26/cdts/compiled/wet-fr.js,4898.218744,0.005634,5121690,0,430642,23,430665,0,4691025,4691025,0,0,5117279,4411,25.152429,0.004077,11
www.canada.ca/etc/designs/canada/cdts/gcweb/v4_0_25/assets/favicon.ico,4700.02485,0.009418,1116128,1,954056,88,954144,0,161983,161983,0,0,1111351,4777,17.035074,0.00259,10
www.canada.ca/etc/designs/canada/cdts/gcweb/v4_0_23/cdts/compiled/wet-en.js,4693.624195,0.005681,5570365,1,380310,58,380368,0,5189996,5189996,0,0,5562215,8150,33.269481,0.004877,13
www.canada.ca/etc/designs/canada/cdts/gcweb/v4_0_24/cdts/compiled/plugins-en.js,4575.58111,1.323644,3589666,0,1584916,8,1584924,0,2004742,2004742,0,607,3580989,8677,10.614841,0.022377,655
www.canada.ca/etc/designs/canada/cdts/gcweb/v4_0_25/js/i18n/en.min.js,4254.518974,0.000586,2301768,1,1176075,40238,1216313,0,1085454,1085454,0,0,2295467,6301,16.194906,0.001781,5
www.canada.ca/etc/designs/canada/cdts/gcweb/v4_0_26/js/i18n/fr.min.js,4254.348711,0.001477,3535981,0,756126,44166,800292,0,2735689,2735689,0,0,3531719,4262,15.917154,0.00219,10
www.canada.ca/etc/designs/canada/cdts/gcweb/v4_0_23/js/deps/jquery.validate.min.js,4060.962614,0.000055,651965,0,442503,136806,579309,0,72656,72656,0,0,648212,3753,25.386856,0.000219,1
www.canada.ca/etc/designs/canada/cdts/gcweb/v4_0_24/assets/sig-blk-fr.svg,3960.941261,4.114595,3483480,0,2610902,8,2610910,0,872570,872570,0,0,3473819,9661,14.811547,0.009246,8992
www.canada.ca/etc/designs/canada/cdts/gcweb/v4_0_22/cdts/compiled/soyutils.js,3887.283557,0.016523,1113594,1,347624,140,347764,0,765829,765829,0,0,1108624,4970,27.347357,0.00387,15
www.canada.ca/etc/designs/canada/cdts/gcweb/v4_0_26/assets/sig-blk-fr.svg,3695.847605,0.043351,4796633,0,2360676,4,2360680,0,2435953,2435953,0,0,4790056,6577,11.366371,0.003165,78
www.canada.ca/etc/designs/canada/cdts/gcweb/v4_0_26/cdts/compiled/plugins-en.js,3635.777596,0.076673,9859784,1,1088433,0,1088433,0,8771350,8771350,0,90,9851936,7848,6.027047,0.027703,194
www.canada.ca/etc/designs/canada/cdts/gcweb/v4_0_24/js/polyfills/datepicker.min.js,3552.428665,0.010264,4117093,2,801431,1,801432,0,3315659,3315659,0,0,4107177,9916,19.765346,0.007108,24
www.canada.ca/etc/designs/canada/cdts/gcweb/v4_0_23/js/i18n/en.min.js,3421.108833,0.000537,4876872,0,655688,45078,700766,0,4176106,4176106,0,0,4870383,6489,15.112406,0.001714,5
www.canada.ca/etc/designs/canada/cdts/gcweb/v4_0_24/js/wet-boew.min.js.map,3373.195185,0.000109,25584,0,23106,2,23108,0,2476,2476,0,0,25040,544,30.236752,0.000438,2
www.canada.ca/etc/designs/canada/cdts/gcweb/rn/js/compiled/soyutils.js,3368.388325,0.020647,552822,0,305221,25,305246,0,247576,247576,0,0,548697,4125,24.793208,0.002188,7
www.canada.ca/etc/designs/canada/cdts/gcweb/v4_0_24/cdts/compiled/wet-fr.js,3368.115704,0.006685,1909197,0,361920,33,361953,0,1547244,1547244,0,0,1904907,4290,22.162969,0.008169,22
www.canada.ca/etc/designs/canada/cdts/gcweb/v4_0_25/fonts/glyphicons-halflings-regular.eot,3104.146822,0.006094,388424,0,131309,4,131313,0,257111,257111,0,0,384980,3444,74.083934,0.006403,13
www.canada.ca/etc/designs/canada/cdts/gcweb/v4_0_26/cdts/exitScript.js,3069.19186,0.053793,7245283,1,1043665,0,1043665,0,6201617,6201617,0,76,7238693,6590,7.487878,0.017234,116
www.canada.ca/etc/designs/canada/cdts/gcweb/v4_0_22/assets/wmms-blk.svg,3002.209729,2.017792,2912301,0,2361322,197,2361519,0,550782,550782,0,191,2900099,12202,18.806727,0.020981,4244
www.canada.ca/etc/designs/canada/cdts/gcweb/v4_0_24/js/i18n/fr.min.js,2967.166359,0.0011,2739922,1,473547,35083,508630,0,2231291,2231291,0,0,2734497,5425,17.688318,0.003868,17
www.canada.ca/etc/designs/canada/cdts/gcweb/v4_0_26/cdts/cdtsfixes.css,2959.565507,0.00066,7610408,1,1702695,0,1702695,0,5907712,5907712,0,0,7601887,8521,6.614035,0.003244,11
www.canada.ca/etc/designs/canada/cdts/gcweb/v4_0_22/assets/sig-blk-en.svg,2858.630856,1.188645,2365210,0,1931729,107,1931836,0,433374,433374,0,124,2353624,11586,19.465676,0.006656,2147
www.canada.ca/etc/designs/canada/cdts/gcweb/v4_0_26/js/wet-boew.min.js.map,2857.127002,0.000703,19829,0,17770,0,17770,0,2059,2059,0,0,19414,415,24.048053,0.000438,2
www.canada.ca/etc/designs/canada/cdts/gcweb/v4_0_24/js/polyfills/datalist.min.js,2779.525665,0.002406,2846692,1,880664,2,880666,0,1966025,1966025,0,0,2838161,8531,18.759141,0.026179,44
www.canada.ca/etc/designs/canada/cdts/gcweb/v4_0_26/css/polyfills/datalist.min.css,2741.65483,0.01267,7638828,0,1584616,0,1584616,0,6054212,6054212,0,0,7632360,6468,5.537175,0.014373,45
www.canada.ca/etc/designs/canada/cdts/gcweb/v4_0_23/cdts/compiled/plugins-en.js,2491.009452,0.01198,5791767,2,364654,26,364680,0,5427085,5427085,0,0,5783055,8712,8.621652,0.007726,18
www.canada.ca/etc/designs/canada/cdts/gcweb/v4_0_26/js/polyfills/datepicker.min.js,2444.163787,0.036632,3392547,1,525347,13,525360,0,2867186,2867186,0,52,3386452,6095,12.535503,0.007476,75
www.canada.ca/etc/designs/canada/cdts/gcweb/v4_0_23/js/deps/additional-methods.min.js,2373.903556,0.000238,514378,0,361363,116441,477804,0,36574,36574,0,0,511498,2880,14.440381,0.001418,4
www.canada.ca/etc/designs/canada/cdts/gcweb/rn/cdts/compiled/soyutils.js,2328.637328,0.071994,487616,0,204361,60,204421,0,283195,283195,0,0,483265,4351,24.343228,0.02503,33
www.canada.ca/etc/designs/canada/cdts/gcweb/v4_0_24/js/polyfills/details.min.js,2326.766227,0.010171,4059135,1,662087,0,662087,0,3397047,3397047,0,0,4049316,9819,11.69106,0.016642,46
www.canada.ca/etc/designs/canada/cdts/gcweb/v4_0_24/js/polyfills/meter.min.js,2315.417622,0.004226,3312537,0,624428,0,624428,0,2688109,2688109,0,0,3302593,9944,10.733915,0.010373,24
www.canada.ca/etc/designs/canada/cdts/gcweb/v4_0_24/css/polyfills/datepicker.min.css,2268.637805,0.007593,4064026,0,772323,0,772323,0,3291703,3291703,0,0,4054301,9725,8.191423,0.007691,24
www.canada.ca/etc/designs/canada/cdts/gcweb/v4_0_24/css/polyfills/meter.min.css,2229.070329,0.008547,3904051,0,625468,0,625468,0,3278583,3278583,0,0,3894580,9471,7.566689,0.006301,23
www.canada.ca/etc/designs/canada/cdts/gcweb/v4_0_24/js/jquery/2.1.4/jquery.min.map,2194.673376,0.007078,22379,0,20090,2,20092,0,2287,2287,0,0,21804,575,23.672084,0.000438,2
www.canada.ca/etc/designs/canada/cdts/gcweb/v4_0_25/js/jquery/2.1.4/jquery.js,2174.878711,0.000593,99639,0,26863,79,26942,0,72697,72697,0,0,97527,2112,134.027538,0.005089,4
www.canada.ca/etc/designs/canada/cdts/gcweb/v4_0_26/assets/favicon-mobile.png,2156.984611,0.017067,1063747,1,438493,29,438522,0,625224,625224,0,0,1060260,3487,11.652996,0.021879,94
www.canada.ca/etc/designs/canada/cdts/gcweb/v4_0_24/cdts/exitScript.js,2133.675513,0.007864,3136487,1,1345226,0,1345226,0,1791260,1791260,0,0,3129546,6941,8.039618,0.013077,35
www.canada.ca/etc/designs/canada/cdts/gcweb/v4_0_26/cdts/compiled/plugins-fr.js,2098.123478,0.007598,5657461,1,394440,0,394440,0,5263020,5263020,0,0,5653605,3856,2.853709,0.004583,19
www.canada.ca/etc/designs/canada/cdts/gcweb/v4_0_26/js/polyfills/meter.min.js,1951.051895,0.011253,3599080,0,558278,0,558278,0,3040802,3040802,0,0,3593725,5355,6.634268,0.017453,59
www.canada.ca/etc/designs/canada/cdts/gcweb/v4_0_26/js/jquery/2.1.4/jquery.min.map,1938.481365,0.003562,20513,0,17771,0,17771,0,2742,2742,0,0,20099,414,18.74956,0.000438,2
www.canada.ca/etc/designs/canada/cdts/gcweb/rn/js/compiled/wet-en.js,1934.404481,0.010633,455924,1,246584,19,246603,0,209320,209320,0,0,452068,3856,22.50666,0.005226,6
www.canada.ca/etc/designs/canada/cdts/gcweb/v4_0_22/img/splash/sp-bg-2.jpg,1914.637435,0.000934,59657,0,48011,118,48129,0,11528,11528,0,0,57745,1912,63.614992,0.005082,7
www.canada.ca/etc/designs/canada/cdts/gcweb/v4_0_25/cdts/cdtsfixes.css,1829.677973,0.001167,2058775,1,1261229,0,1261229,0,797545,797545,0,0,2052702,6073,7.182026,0.011778,14
www.canada.ca/etc/designs/canada/cdts/gcweb/v4_0_24/css/polyfills/details.min.css,1741.350129,0.002814,3622304,1,634418,0,634418,0,2987885,2987885,0,0,3612285,10019,6.804401,0.012481,30
www.canada.ca/etc/designs/canada/cdts/gcweb/v4_0_26/js/polyfills/details.min.js,1705.93119,0.003667,3599806,0,395923,0,395923,0,3203883,3203883,0,0,3593596,6210,6.863777,0.008115,20
www.canada.ca/etc/designs/canada/cdts/gcweb/v4_0_26/css/polyfills/datepicker.min.css,1664.770713,0.002709,3820867,1,506004,0,506004,0,3314862,3314862,0,0,3814705,6162,5.160642,0.004918,15
www.canada.ca/etc/designs/canada/cdts/gcweb/rn/cdts/compiled/wet-en.js,1647.313509,0.014642,455799,0,186888,53,186941,0,268858,268858,0,0,451526,4273,24.377784,0.020247,38
www.canada.ca/etc/designs/canada/cdts/gcweb/v4_0_22/js/deps/jquery.magnific-popup.min.js,1632.558337,0.000108,390998,0,177056,19706,196762,0,194236,194236,0,0,387437,3561,24.055029,0.00091,2
www.canada.ca/etc/designs/canada/cdts/gcweb/v4_0_23/cdts/exitScript.js,1613.618325,0.006469,4212652,1,373011,16,373027,0,3839624,3839624,0,0,4206923,5729,5.864569,0.004744,17
www.canada.ca/etc/designs/canada/cdts/gcweb/v4_0_25/js/polyfills/datalist.min.js,1607.240146,0.000678,1435093,0,533230,0,533230,0,901863,901863,0,0,1430192,4901,11.239323,0.005674,11
www.canada.ca/etc/designs/canada/cdts/gcweb/v4_0_23/cdts/cdtsfixes.css,1603.272163,0.000347,3387643,0,470929,0,470929,0,2916714,2916714,0,0,3381795,5848,6.838582,0.002111,6
www.canada.ca/etc/designs/canada/cdts/gcweb/v4_0_22/cdts/compiled/wet-en.js,1545.402824,0.159474,678490,0,223941,95,224036,0,454454,454454,0,140,674147,4343,18.660426,0.010427,164
www.canada.ca/etc/designs/canada/cdts/gcweb/v4_0_26/css/polyfills/meter.min.css,1542.539276,0.004841,3265796,0,553803,0,553803,0,2711993,2711993,0,0,3260426,5370,4.486488,0.011846,48
www.canada.ca/etc/designs/canada/cdts/gcweb/v4_0_23/js/polyfills/datalist.min.js,1504.713654,0.000565,1992476,1,422506,0,422506,0,1569969,1569969,0,0,1988172,4304,9.219397,0.002335,10
www.canada.ca/etc/designs/canada/cdts/gcweb/v4_0_26/js/deps/jquery.dataTables.min.js,1502.816326,0.005203,144460,0,45750,6742,52492,0,91968,91968,0,0,142858,1602,41.315071,0.000804,4
www.canada.ca/etc/designs/canada/cdts/gcweb/v4_0_24/assets/favicon-mobile.png,1461.689811,0.00065,572540,0,349982,14,349996,0,222544,222544,0,0,568235,4305,14.04091,0.002551,10
www.canada.ca/etc/designs/canada/cdts/gcweb/v4_0_23/fonts/glyphicons-halflings-regular.eot,1446.435158,0.011865,844245,0,45041,0,45041,0,799204,799204,0,0,841644,2601,55.970718,0.005721,21
www.canada.ca/etc/designs/canada/cdts/gcweb/v4_0_23/cdts/compiled/wet-fr.js,1405.083969,0.004419,1768326,0,113525,30,113555,0,1654771,1654771,0,0,1765250,3076,15.261824,0.005069,12
www.canada.ca/etc/designs/canada/cdts/gcweb/v4_0_25/js/wet-boew.min.js.map,1401.999698,0.000055,10039,0,8996,0,8996,0,1043,1043,0,0,9770,269,15.383595,0.000219,1
www.canada.ca/etc/designs/canada/cdts/gcweb/v4_0_26/css/polyfills/details.min.css,1390.706039,0.002637,3593056,0,391005,0,391005,0,3202051,3202051,0,0,3586930,6126,3.981822,0.006164,22
www.canada.ca/etc/designs/canada/cdts/gcweb/v4_0_23/js/theme.min.js,1322.309007,0.001375,2615582,0,465759,22,465781,0,2149801,2149801,0,0,2611143,4439,6.11937,0.005469,19
www.canada.ca/etc/designs/canada/cdts/gcweb/v4_0_22/assets/favicon.ico,1313.043242,0.000425,324437,0,249880,17,249897,0,74540,74540,0,0,320911,3526,12.78498,0.001967,7
www.canada.ca/etc/designs/canada/cdts/gcweb/v4_0_25/js/i18n/fr.min.js,1272.668001,0.00015,457720,1,266914,14414,281328,0,176391,176391,0,0,455184,2536,9.680308,0.000944,2
www.canada.ca/etc/designs/canada/cdts/gcweb/v4_0_23/js/polyfills/datepicker.min.js,1254.819317,0.001556,2320849,0,173646,0,173646,0,2147203,2147203,0,0,2314941,5908,8.962173,0.002915,11
www.canada.ca/etc/designs/canada/cdts/gcweb/v4_0_25/cdts/compiled/wet-fr.js,1245.247631,0.079266,471334,1,178985,7,178992,0,292341,292341,0,54,468941,2393,12.724087,0.002662,62
www.canada.ca/etc/designs/canada/cdts/gcweb/v4_0_26/js/deps/template.min.js,1229.644708,0.004055,2413232,1,358421,0,358421,0,2054810,2054810,0,0,2408235,4997,4.272528,0.005726,24
www.canada.ca/etc/designs/canada/cdts/gcweb/v4_0_25/assets/sig-blk-fr.svg,1227.262334,1.189528,916419,0,739535,5,739540,0,176879,176879,0,104,911394,5025,8.406829,0.005135,2853
www.canada.ca/etc/designs/canada/cdts/gcweb/v4_0_25/js/deps/jquery.validate.min.js,1200.074337,0.006049,288656,1,133515,17447,150962,0,137693,137693,0,0,285263,3393,22.81934,0.006873,14
www.canada.ca/etc/designs/canada/cdts/gcweb/v4_0_24/css/polyfills/datalist.min.css,1123.472325,0.006886,2709539,0,896136,0,896136,0,1813403,1813403,0,0,2702343,7196,6.409019,0.017024,34
www.canada.ca/etc/designs/canada/cdts/gcweb/v4_0_25/cdts/exitScript.js,1104.669556,0.001739,1329165,0,836727,0,836727,0,492438,492438,0,0,1324664,4501,5.323293,0.01422,30
www.canada.ca/etc/designs/canada/cdts/gcweb/v4_0_23/js/i18n/fr.min.js,1030.519994,0.000054,839905,0,182940,26341,209281,0,630624,630624,0,0,837561,2344,8.44219,0.000397,1
www.canada.ca/etc/designs/canada/cdts/gcweb/v4_0_23/cdts/compiled/plugins-fr.js,1024.422297,0.020232,2480107,0,113675,21,113696,0,2366411,2366411,0,0,2475947,4160,4.080603,0.010228,19
www.canada.ca/etc/designs/canada/cdts/gcweb/v4_0_25/js/polyfills/datepicker.min.js,1020.269814,0.00479,946149,0,292880,2,292882,0,653267,653267,0,0,941884,4265,9.465068,0.0076,17
www.canada.ca/etc/designs/canada/cdts/gcweb/v4_0_25/js/jquery/2.1.4/jquery.min.map,974.634367,0.003623,10533,0,9057,2,9059,0,1474,1474,0,0,10220,313,12.315268,0.000691,2
www.canada.ca/etc/designs/canada/cdts/gcweb/v4_0_25/assets/favicon-mobile.png,943.357896,0.000277,316545,1,239210,4,239214,0,77330,77330,0,0,313668,2877,9.337408,0.001348,5
www.canada.ca/etc/designs/canada/cdts/gcweb/v4_0_23/css/polyfills/datepicker.min.css,922.11291,0.005968,2236709,0,163940,0,163940,0,2072769,2072769,0,0,2231276,5433,3.801009,0.001278,6
www.canada.ca/etc/designs/canada/cdts/gcweb/rn/assets/social.png,910.260026,0.000554,548963,0,310451,268,310719,0,238244,238244,0,0,544749,4214,9.55024,0.004466,4
www.canada.ca/etc/designs/canada/cdts/gcweb/v4_0_22/js/i18n/en.min.js,901.160534,0.005178,618860,0,236326,9583,245909,0,372951,372951,0,0,615011,3849,10.315406,0.000402,2
www.canada.ca/etc/designs/canada/cdts/gcweb/v4_0_22/fonts/glyphicons-halflings-regular.eot,885.876049,0.00279,131725,0,36989,0,36989,0,94736,94736,0,0,129197,2528,54.346304,0.00277,11
www.canada.ca/etc/designs/canada/cdts/gcweb/v4_0_23/js/polyfills/meter.min.js,849.347809,0.010488,1682377,0,147119,0,147119,0,1535258,1535258,0,0,1678354,4023,4.212447,0.006236,26
www.canada.ca/etc/designs/canada/cdts/gcweb/v4_0_25/js/deps/jquery.dataTables.min.js,845.910098,0.000293,57428,0,24907,7618,32525,0,24903,24903,0,0,55896,1532,39.431198,0.001059,5
www.canada.ca/etc/designs/canada/cdts/gcweb/v4_0_25/js/deps/additional-methods.min.js,822.313358,0.000669,279917,1,127860,12315,140175,0,139741,139741,0,0,276797,3120,15.449677,0.00625,10
www.canada.ca/etc/designs/canada/cdts/gcweb/v4_0_25/cdts/compiled/plugins-en.js,762.09794,0.002464,2130275,1,654704,0,654704,0,1475570,1475570,0,0,2125821,4454,3.349826,0.011203,21
www.canada.ca/etc/designs/canada/cdts/gcweb/v4_0_23/css/polyfills/meter.min.css,740.537798,0.005983,1612996,0,145381,0,145381,0,1467615,1467615,0,0,1609076,3920,2.925054,0.007936,22
www.canada.ca/etc/designs/canada/cdts/gcweb/v4_0_23/css/polyfills/datalist.min.css,691.743091,0.000108,1828805,0,429066,0,429066,0,1399739,1399739,0,0,1824904,3901,2.969096,0.000869,2
www.canada.ca/etc/designs/canada/cdts/gcweb/v4_0_23/js/polyfills/details.min.js,689.95999,0.003886,1551184,0,89793,0,89793,0,1461391,1461391,0,0,1547034,4150,4.584691,0.006857,28
www.canada.ca/etc/designs/canada/cdts/gcweb/v4_0_24/cdts/compiled/plugins-fr.js,667.193853,0.002108,670378,1,161693,8,161701,0,508676,508676,0,0,667402,2976,3.704608,0.005502,15
www.canada.ca/etc/designs/canada/cdts/gcweb/rn/assets/wmms-blk.svg,663.930738,0.021832,539792,0,503553,79,503632,0,36160,36160,0,0,533147,6645,10.96421,0.012196,25
www.canada.ca/etc/designs/canada/cdts/gcweb/v4_0_24/js/deps/jquery.validate.min.js,655.097663,0.000645,196901,0,70731,11416,82147,0,114754,114754,0,0,194407,2494,18.386463,0.001533,6
www.canada.ca/etc/designs/canada/cdts/gcweb/v4_0_25/css/polyfills/datalist.min.css,614.086096,0.000474,1393904,1,541821,0,541821,0,852082,852082,0,0,1389543,4361,3.775689,0.002113,8
www.canada.ca/etc/designs/canada/cdts/gcweb/v4_0_22/assets/sig-blk-fr.svg,597.501179,0.296207,483645,0,395517,13,395530,0,88115,88115,0,0,478992,4653,7.606645,0.008979,681
www.canada.ca/etc/designs/canada/cdts/gcweb/rn/assets/feedback.png,557.188014,0.010919,547186,0,311513,271,311784,0,235402,235402,0,0,542969,4217,5.649489,0.005917,8
www.canada.ca/etc/designs/canada/cdts/gcweb/v4_0_23/css/polyfills/details.min.css,554.362647,0.002761,1450817,0,85664,0,85664,0,1365153,1365153,0,0,1447340,3477,2.287354,0.006344,25
www.canada.ca/etc/designs/canada/cdts/gcweb/v4_0_25/js/polyfills/meter.min.js,530.811413,0.000324,702442,0,219308,0,219308,0,483134,483134,0,0,698814,3628,4.724944,0.004938,6
www.canada.ca/etc/designs/canada/cdts/gcweb/v4_0_22/js/theme.min.js,523.001822,0.000164,573366,0,307499,86,307585,0,265781,265781,0,0,569570,3796,5.24579,0.001704,3
www.canada.ca/etc/designs/canada/cdts/gcweb/rn/assets/mobile.png,505.0966,0.001036,541864,0,310840,270,311110,0,230754,230754,0,0,537611,4253,5.614499,0.002258,7
www.canada.ca/etc/designs/canada/cdts/gcweb/v4_0_25/js/polyfills/details.min.js,493.506722,0.000731,722231,0,223687,0,223687,0,498544,498544,0,0,718215,4016,4.88499,0.005051,8
www.canada.ca/etc/designs/canada/cdts/gcweb/v4_0_22/cdts/cdtsfixes.css,489.583123,0.004127,742347,0,324419,0,324419,0,417928,417928,0,0,738146,4201,4.02269,0.002619,8
www.canada.ca/etc/designs/canada/cdts/gcweb/rn/js/compiled/wet-fr.js,485.399432,0.014834,113309,1,63217,2,63219,0,50089,50089,0,0,111655,1654,9.233881,0.007976,15
www.canada.ca/etc/designs/canada/cdts/gcweb/v4_0_25/css/polyfills/datepicker.min.css,472.26564,0.004144,860705,0,276731,0,276731,0,583974,583974,0,0,856770,3935,3.631776,0.00364,11
www.canada.ca/etc/designs/canada/cdts/gcweb/v4_0_22/cdts/compiled/wet-fr.js,453.585732,0.01043,205556,0,73197,24,73221,0,132335,132335,0,0,203802,1754,7.423908,0.002485,7
www.canada.ca/etc/designs/canada/cdts/gcweb/v4_0_22/js/i18n/fr.min.js,450.137304,0,258111,0,86174,4443,90617,0,167494,167494,0,0,256352,1759,6.607513,0.000219,0
www.canada.ca/etc/designs/canada/cdts/gcweb/rn/css/theme.min.css,441.80374,0.016157,3799,0,3412,0,3412,0,387,387,0,0,3076,723,41.85285,0.00461,6
www.canada.ca/etc/designs/canada/cdts/gcweb/v4_0_24/js/deps/additional-methods.min.js,423.120573,0.000888,186324,0,62816,7704,70520,0,115804,115804,0,0,184151,2173,11.687113,0.002154,10
www.canada.ca/etc/designs/canada/cdts/gcweb/rn/assets/sig-blk-en.svg,398.72785,0.006622,366481,0,358031,5,358036,0,8445,8445,0,0,360996,5485,9.350279,0.015254,24
www.canada.ca/etc/designs/canada/cdts/gcweb/v4_0_25/css/polyfills/meter.min.css,379.652376,0.000789,574371,0,216742,0,216742,0,357629,357629,0,0,570961,3410,3.160046,0.008643,9
www.canada.ca/etc/designs/canada/cdts/gcweb/v4_0_24/fonts/glyphicons-halflings-regular.ttf,378.593241,0.002084,22801,1,14496,57,14553,0,8247,8247,0,0,21143,1658,32.476285,0.009503,22
www.canada.ca/etc/designs/canada/cdts/gcweb/v4_0_22/js/polyfills/datalist.min.js,374.518795,0.00033,323389,0,125369,0,125369,0,198020,198020,0,0,320767,2622,6.234329,0.005007,6
www.canada.ca/etc/designs/canada/cdts/gcweb/v4_0_23/assets/favicon-mobile.png,373.583456,0.003582,230226,0,73460,2,73462,0,156764,156764,0,0,228352,1874,5.929147,0.000616,2
www.canada.ca/etc/designs/canada/cdts/gcweb/v4_0_24/img/splash/sp-bg-2.jpg,369.385431,0.010151,8699,0,8400,3,8403,0,296,296,0,0,8161,538,18.680884,0.000876,3
www.canada.ca/etc/designs/canada/cdts/gcweb/v4_0_25/js/deps/template.min.js,352.553237,0.007582,557893,1,196969,0,196969,0,360923,360923,0,0,554294,3599,3.164892,0.002841,10
www.canada.ca/etc/designs/canada/cdts/gcweb/v4_0_25/css/polyfills/details.min.css,341.05371,0.000454,726163,1,215111,0,215111,0,511051,511051,0,0,722385,3778,2.723188,0.005017,8
www.canada.ca/etc/designs/canada/cdts/gcweb/v4_0_26/js/polyfills/slider.min.js,340.239992,0.000054,58648,0,44962,0,44962,0,13686,13686,0,0,57997,651,4.337515,0.000438,1
www.canada.ca/etc/designs/canada/cdts/gcweb/v4_0_24/js/deps/jquery.flot.min.js,331.0633,0.000055,97301,0,20986,2864,23850,0,73451,73451,0,0,96088,1213,15.39102,0.000183,1
www.canada.ca/etc/designs/canada/cdts/gcweb/v4_0_26/fonts/glyphicons-halflings-regular.ttf,323.303614,0.007726,19787,0,12542,48,12590,0,7197,7197,0,0,18863,924,18.232896,0.008137,31
www.canada.ca/etc/designs/canada/cdts/gcweb/v4_0_22/cdts/compiled/plugins-en.js,321.387678,0.011756,397549,1,95804,67,95871,0,301677,301677,0,0,394085,3464,4.318971,0.009234,21
www.canada.ca/etc/designs/canada/cdts/gcweb/v4_0_22/js/polyfills/datepicker.min.js,301.795179,0.002933,339465,0,68938,0,68938,0,270527,270527,0,0,336504,2961,6.479526,0.014085,48
www.canada.ca/etc/designs/canada/cdts/gcweb/v4_0_26/js/deps/jquery.validate.min.js,271.597468,0.000637,96456,0,28295,3869,32164,0,64292,64292,0,0,94648,1808,13.53493,0.002879,11
www.canada.ca/etc/designs/canada/cdts/gcweb/v4_0_23/js/wet-boew.min.js.map,268.276595,0.000054,2681,0,1905,0,1905,0,776,776,0,0,2451,230,13.884499,0.000219,1
www.canada.ca/etc/designs/canada/cdts/gcweb/v4_0_24/css/ie8-theme.min.css,254.672766,0.012212,5517,0,3815,0,3815,0,1702,1702,0,0,4803,714,40.618269,0.00219,9
www.canada.ca/etc/designs/canada/cdts/gcweb/v4_0_24/assets/sprites_share.png,215.234782,0.000055,3158,0,2867,5,2872,0,286,286,0,0,2637,521,34.874715,0.000219,1
www.canada.ca/etc/designs/canada/cdts/gcweb/v4_0_22/assets/favicon-mobile.png,208.003551,0.000108,67185,0,51644,4,51648,0,15537,15537,0,0,65433,1752,5.913233,0.000691,2
www.canada.ca/etc/designs/canada/cdts/gcweb/v4_0_22/js/polyfills/meter.min.js,202.6739,0.009064,300487,0,58394,0,58394,0,242093,242093,0,0,297796,2691,3.460779,0.002592,12
www.canada.ca/etc/designs/canada/cdts/gcweb/v4_0_26/js/deps/additional-methods.min.js,193.956978,0.000398,90337,0,27927,2609,30536,0,59801,59801,0,0,88536,1801,9.876311,0.001497,7
www.canada.ca/etc/designs/canada/cdts/gcweb/v4_0_22/css/polyfills/datepicker.min.css,191.959571,0.021522,351878,0,66646,0,66646,0,285232,285232,0,0,349047,2831,2.680022,0.011084,35
www.canada.ca/etc/designs/canada/cdts/gcweb/v4_0_23/js/jquery/2.1.4/jquery.min.map,190.109245,0.00031,2755,0,1921,0,1921,0,834,834,0,0,2511,244,10.684756,0.000219,1
www.canada.ca/etc/designs/canada/cdts/gcweb/v4_0_22/assets/sig-spl.svg,183.181765,0.046381,92504,0,85300,100,85400,0,7104,7104,0,0,88976,3528,7.348153,0.005206,109
www.canada.ca/etc/designs/canada/cdts/gcweb/v4_0_22/js/polyfills/details.min.js,181.211477,0.006701,301955,1,54664,0,54664,0,247290,247290,0,0,299026,2929,3.713457,0.007498,20
www.canada.ca/etc/designs/canada/cdts/gcweb/v4_0_22/css/polyfills/meter.min.css,180.800293,0.008956,313053,0,58308,0,58308,0,254745,254745,0,0,310442,2611,2.435117,0.00219,10
www.canada.ca/etc/designs/canada/cdts/gcweb/v4_0_25/cdts/compiled/plugins-fr.js,178.097871,0.079423,456242,1,159829,0,159829,0,296412,296412,0,56,454340,1902,1.284692,0.002879,64
www.canada.ca/etc/designs/canada/cdts/gcweb/rn/cdts/compiled/wet-fr.js,176.766595,0.000239,39769,0,20343,13,20356,0,19413,19413,0,0,38471,1298,7.901224,0.001054,4
www.canada.ca/etc/designs/canada/cdts/gcweb/v4_0_22/js/deps/jquery.dataTables.min.js,172.898352,0.000648,17052,0,5467,1026,6493,0,10559,10559,0,0,15923,1129,26.432775,0.00375,12
www.canada.ca/etc/designs/canada/cdts/gcweb/v4_0_24/js/deps/tableparser.min.js,163.479462,0.000109,99865,0,20457,1607,22064,0,77801,77801,0,0,98658,1207,7.453561,0.000655,2
www.canada.ca/etc/designs/canada/cdts/gcweb/v4_0_26/css/ie8-theme.min.css,162.193039,0.000055,3049,0,2533,0,2533,0,516,516,0,0,2679,370,21.388697,0.000219,1
www.canada.ca/etc/designs/canada/cdts/gcweb/v4_0_24/js/polyfills/slider.min.js,161.988012,0.000368,27916,0,21105,3,21108,0,6808,6808,0,0,26928,988,6.358248,0.000438,2
www.canada.ca/etc/designs/canada/cdts/gcweb/v4_0_23/css/theme-srv.min.css,161.052463,0.000436,4896,0,4564,0,4564,0,332,332,0,0,4419,477,14.69832,0.000657,3
www.canada.ca/etc/designs/canada/cdts/gcweb/v4_0_24/css/theme-srv.min.css,158.042778,0.003751,5455,0,4243,0,4243,0,1212,1212,0,0,4800,655,19.500705,0.000438,2
www.canada.ca/etc/designs/canada/cdts/gcweb/v4_0_22/cdts/compiled/plugins-fr.js,155.534522,0.005551,204106,0,45620,13,45633,0,158473,158473,0,0,202687,1419,1.850481,0.001456,5
www.canada.ca/etc/designs/canada/cdts/gcweb/v4_0_22/css/polyfills/details.min.css,153.155061,0.002022,312944,0,49719,0,49719,0,263225,263225,0,0,310140,2804,2.125061,0.00496,20
www.canada.ca/etc/designs/canada/cdts/gcweb/v4_0_22/assets/wmms-spl.svg,151.259109,0.017837,93040,0,85448,71,85519,0,7521,7521,0,0,89544,3496,6.49732,0.005017,47
www.canada.ca/etc/designs/canada/cdts/gcweb/v4_0_24/css/theme.css,149.643876,0.005284,2600,0,1856,0,1856,0,744,744,0,0,2075,525,36.12708,0.000219,1
www.canada.ca/etc/designs/canada/cdts/gcweb/v4_0_22/cdts/exitScript.js,146.91948,0.011204,219127,0,59863,4,59867,0,159260,159260,0,0,217523,1604,1.973178,0.002628,12
www.canada.ca/etc/designs/canada/cdts/gcweb/v4_0_24/js/jquery/1.11.1/jquery.min.js,140.028846,0.012212,5016,0,3641,0,3641,0,1375,1375,0,0,4330,686,21.657585,0.00219,9
www.canada.ca/etc/designs/canada/cdts/gcweb/v4_0_25/css/ie8-theme.min.css,139.456021,0.000376,3102,0,2101,2,2103,0,999,999,0,0,2784,318,18.392269,0.003556,1
www.canada.ca/etc/designs/canada/cdts/gcweb/v4_0_23/fonts/glyphicons-halflings-regular.ttf,138.010391,0.000401,7207,0,5351,5,5356,0,1851,1851,0,0,6699,508,10.519748,0.00219,7
www.canada.ca/etc/designs/canada/cdts/gcweb/v4_0_22/css/polyfills/datalist.min.css,136.428689,0.000274,308871,0,124951,0,124951,0,183920,183920,0,0,306650,2221,2.013702,0.001779,5
www.canada.ca/etc/designs/canada/cdts/gcweb/v4_0_24/js/ie8-wet-boew2.min.js,133.448259,0.000786,4611,0,3068,0,3068,0,1543,1543,0,0,3948,663,24.698604,0.000657,3
www.canada.ca/etc/designs/canada/cdts/gcweb/v4_0_26/js/polyfills/progress.min.js,129.632383,0.001036,129293,0,58666,0,58666,0,70627,70627,0,0,128414,879,1.081598,0.002149,8
www.canada.ca/etc/designs/canada/cdts/gcweb/v4_0_26/js/ie8-wet-boew2.min.js,108.811071,0.004971,2953,0,2433,0,2433,0,520,520,0,0,2586,367,14.541399,0.000219,1
www.canada.ca/etc/designs/canada/cdts/gcweb/v4_0_26/css/polyfills/slider.min.css,97.636564,0.000108,61313,0,47891,0,47891,0,13422,13422,0,0,60659,654,1.184375,0.000835,2
www.canada.ca/etc/designs/canada/cdts/gcweb/v4_0_24/js/deps/jquery.flot.pie.min.js,94.681661,0.000589,81324,0,20182,1255,21437,0,59887,59887,0,0,80106,1218,4.238469,0.001237,5
www.canada.ca/etc/designs/canada/cdts/gcweb/v4_0_24/js/polyfills/datepicker.min.js.map,93.820963,0.000109,16202,0,15860,0,15860,0,342,342,0,0,15762,440,0.859586,0.000438,2
www.canada.ca/etc/designs/canada/cdts/gcweb/v4_0_26/img/splash/sp-bg-2.jpg,92.539891,0,3079,0,2214,24,2238,0,841,841,0,0,2627,452,15.664243,0,0
www.canada.ca/etc/designs/canada/cdts/gcweb/rn/assets/favicon.ico,92.21848,0.009856,10959,0,10596,3,10599,0,360,360,0,0,9986,973,4.283155,0.001828,5
www.canada.ca/etc/designs/canada/cdts/gcweb/v4_0_25/assets/sprites_share.png,91.933497,0.005057,1419,0,1230,0,1230,0,189,189,0,0,1119,300,20.274673,0.000438,1
www.canada.ca/etc/designs/canada/cdts/gcweb/v4_0_22/css/noscript.min.css,91.386766,0.006376,127160,0,15236,0,15236,0,111924,111924,0,0,125562,1598,1.687125,0.001935,9
www.canada.ca/etc/designs/canada/cdts/gcweb/v4_0_26/js/polyfills/datepicker.min.js.map,91.089684,0.000055,16720,0,15796,0,15796,0,924,924,0,0,16404,316,0.793339,0.000219,1
www.canada.ca/etc/designs/canada/cdts/gcweb/v4_0_26/js/jquery/1.11.1/jquery.min.js,90.600874,0.000055,3023,0,2514,0,2514,0,509,509,0,0,2651,372,12.226259,0.000219,1
www.canada.ca/etc/designs/canada/cdts/gcweb/v4_0_24/js/ie8-wet-boew.min.js,89.727659,0.012212,5026,0,3688,0,3688,0,1338,1338,0,0,4324,702,13.818042,0.00219,9
www.canada.ca/etc/designs/canada/cdts/gcweb/rn/assets/sig-blk-fr.svg,88.662537,0.001573,81815,0,80281,1,80282,0,1533,1533,0,0,79752,2063,3.474113,0.004315,16
www.canada.ca/etc/designs/canada/cdts/gcweb/v4_0_22/js/deps/jquery.validate.min.js,85.142867,0.000108,27717,0,9224,1130,10354,0,17363,17363,0,0,26148,1569,11.29941,0.000438,2
www.canada.ca/etc/designs/canada/cdts/gcweb/v4_0_25/js/wet-boew.js,82.72657,0,224,0,224,0,224,0,0,0,0,0,220,4,0.374617,0,0
www.canada.ca/etc/designs/canada/cdts/gcweb/v4_0_25/fonts/glyphicons-halflings-regular.ttf,82.647021,0.005398,4600,0,3182,4,3186,0,1414,1414,0,0,3937,663,12.70049,0.001971,6
www.canada.ca/etc/designs/canada/cdts/gcweb/v4_0_26/css/polyfills/progress.min.css,78.044254,0.00068,115022,0,51310,0,51310,0,63712,63712,0,0,114186,836,0.577715,0.001567,6
www.canada.ca/etc/designs/canada/cdts/gcweb/v4_0_24/css/noscript.min.css,74.179513,22.331109,180009,0,1406,0,1406,0,178603,178603,0,21548,179559,450,0.532885,0.000876,21551
www.canada.ca/etc/designs/canada/cdts/gcweb/v4_0_22/js/wet-boew.min.js.map,70.31235,0,776,0,433,0,433,0,343,343,0,0,689,87,5.076128,0,0
www.canada.ca/etc/designs/canada/cdts/gcweb/v4_0_22/css/messages.min.css,66.204941,0.000221,56519,0,46310,0,46310,0,10209,10209,0,0,54616,1903,2.891811,0.000876,4
www.canada.ca/etc/designs/canada/cdts/gcweb/v4_0_26/js/polyfills/slider_wrapper.min.js,63.675785,0.000054,59486,0,46469,0,46469,0,13017,13017,0,0,58846,640,0.749924,0.000438,1
www.canada.ca/etc/designs/canada/cdts/gcweb/v4_0_22/js/deps/additional-methods.min.js,59.06729,0.000218,26605,0,8609,871,9480,0,17125,17125,0,0,25141,1464,7.812836,0.001232,4
www.canada.ca/etc/designs/canada/cdts/gcweb/v4_0_26/js/ie8-wet-boew.min.js,58.785231,0.000317,3001,0,2491,0,2491,0,510,510,0,0,2629,372,7.737418,0.000219,1
www.canada.ca/etc/designs/canada/cdts/gcweb/v4_0_24/js/deps/jquery.flot.canvas.min.js,57.451026,0,96543,0,20001,333,20334,0,76209,76209,0,0,95325,1218,2.243676,0,0
www.canada.ca/etc/designs/canada/cdts/gcweb/v4_0_24/js/deps/jquery.flot.orderBars.min.js,55.276767,0.000831,94541,0,19808,272,20080,0,74461,74461,0,0,93408,1133,2.091269,0.00084,4
www.canada.ca/etc/designs/canada/cdts/gcweb/v4_0_22/assets/sprites_share.png,50.570056,0,702,0,667,0,667,0,35,35,0,0,552,150,10.230159,0,0
www.canada.ca/etc/designs/canada/cdts/gcweb/v4_0_24/js/polyfills/progress.min.js,49.745599,0.000442,43567,0,26941,0,26941,0,16626,16626,0,0,42436,1131,1.518301,0.000585,3
www.canada.ca/etc/designs/canada/cdts/gcweb/v4_0_22/js/jquery/2.1.4/jquery.min.map,49.622724,0,702,0,425,0,425,0,277,277,0,0,623,79,3.777248,0,0
www.canada.ca/etc/designs/canada/cdts/gcweb/v4_0_23/img/splash/sp-bg-2.jpg,47.942875,0.000551,1735,0,1142,15,1157,0,578,578,0,0,1421,314,10.72551,0.001971,9
www.canada.ca/etc/designs/canada/cdts/gcweb/v4_0_22/fonts/glyphicons-halflings-regular.ttf,47.48047,0.000054,2586,0,1785,13,1798,0,788,788,0,0,2096,490,10.72027,0.000402,1
www.canada.ca/etc/designs/canada/cdts/gcweb/v4_0_22/css/ie8-theme.min.css,47.331574,0,4517,0,704,0,704,0,3813,3813,0,0,4217,300,16.129669,0,0
www.canada.ca/etc/designs/canada/cdts/gcweb/v4_0_24/css/polyfills/slider.min.css,46.232523,0.000313,28938,0,21265,0,21265,0,7673,7673,0,0,27910,1028,1.844969,0.000219,1
www.canada.ca/etc/designs/canada/cdts/gcweb/v4_0_24/css/polyfills/,45.004781,0,70401,0,0,0,0,0,0,70401,0,0,70401,0,0,0,0
www.canada.ca/etc/designs/canada/cdts/gcweb/v4_0_25/js/polyfills/datepicker.min.js.map,44.762285,0.00037,7989,0,7868,0,7868,0,121,121,0,0,7804,185,0.455018,0.000219,1
www.canada.ca/etc/designs/canada/cdts/gcweb/v4_0_26/js/jquery/2.1.4/jquery.js,42.683861,0,8848,0,465,0,465,0,8383,8383,0,0,8689,159,9.76641,0,0
www.canada.ca/etc/designs/canada/cdts/gcweb/v4_0_25/js/polyfills/slider.min.js,40.975259,0.000274,7198,0,5303,0,5303,0,1895,1895,0,0,6695,503,3.190952,0.001348,5
www.canada.ca/etc/designs/canada/cdts/gcweb/v4_0_24/js/jquery/2.1.4/jquery.js,40.782411,0.000055,591,0,520,0,520,0,71,71,0,0,566,25,1.461568,0.000219,1
www.canada.ca/etc/designs/canada/cdts/gcweb/v4_0_26/cdts/cdtsapps.css,40.35886,0.000669,41913,0,7636,0,7636,0,34277,34277,0,0,41510,403,0.80557,0.000402,2
www.canada.ca/etc/designs/canada/cdts/gcweb/v4_0_23/js/polyfills/slider.min.js,39.499716,0,8628,0,5078,0,5078,0,3550,3550,0,0,8288,340,2.241519,0,0
www.canada.ca/etc/designs/canada/cdts/gcweb/v4_0_24/js/polyfills/meter.min.js.map,37.829917,0.000109,14774,0,14494,0,14494,0,280,280,0,0,14366,408,0.490542,0.000438,2
www.canada.ca/etc/designs/canada/cdts/gcweb/v4_0_26/js/polyfills/meter.min.js.map,37.277676,0.000757,15373,0,14798,0,14798,0,575,575,0,0,15094,279,0.42331,0.003066,14
www.canada.ca/etc/designs/canada/cdts/gcweb/v4_0_24/js/polyfills/details.min.js.map,35.657926,0.000109,15345,0,14955,0,14955,0,390,390,0,0,15028,317,0.469311,0.000438,2
www.canada.ca/etc/designs/canada/cdts/gcweb/v4_0_26/js/polyfills/details.min.js.map,34.961832,0.000812,15743,1,15100,0,15100,0,642,642,0,0,15421,322,0.505107,0.003285,15
www.canada.ca/etc/designs/canada/cdts/gcweb/v4_0_25/img/splash/sp-bg-2.jpg,34.357904,0.005063,1338,0,814,4,818,0,520,520,0,0,1106,232,7.857903,0.000219,1
www.canada.ca/etc/designs/canada/cdts/gcweb/v4_0_24/css/polyfills/progress.min.css,32.447598,0.000109,45219,0,27641,0,27641,0,17578,17578,0,0,44073,1146,0.887876,0.000402,2
www.canada.ca/etc/designs/canada/cdts/gcweb/v4_0_25/js/ie8-wet-boew2.min.js,32.410523,0,920,0,744,0,744,0,176,176,0,0,707,213,8.224472,0,0
www.canada.ca/etc/designs/canada/cdts/gcweb/v4_0_25/js/jquery/1.11.1/jquery.min.js,32.070619,0,1059,0,881,0,881,0,178,178,0,0,811,248,7.884798,0,0
www.canada.ca/etc/designs/canada/cdts/gcweb/v4_0_24/js/polyfills/slider_wrapper.min.js,30.29702,0.000313,27370,0,20419,0,20419,0,6951,6951,0,0,26368,1002,1.198217,0.000472,1
www.canada.ca/etc/designs/canada/cdts/gcweb/v4_0_24/assets/sig-spl.svg,30.038574,0.00059,17269,0,17109,0,17109,0,160,160,0,0,15974,1295,2.138321,0.001378,6
www.canada.ca/etc/designs/canada/cdts/gcweb/v4_0_23/js/polyfills/progress.min.js,30.026507,0.007598,33022,0,7186,0,7186,0,25836,25836,0,0,32441,581,0.64099,0.005509,20
www.canada.ca/etc/designs/canada/cdts/gcweb/v4_0_26/js/wet-boew.js,29.055122,0,2778,0,178,0,178,0,2600,2600,0,0,2686,92,6.181834,0,0
www.canada.ca/etc/designs/canada/cdts/gcweb/v4_0_23/assets/sig-blk-en.png,28.436724,0,2077,0,1935,0,1935,0,142,142,0,0,1937,140,1.802377,0,0
www.canada.ca/etc/designs/canada/cdts/gcweb/v4_0_24/assets/wmms-spl.svg,25.951174,0.005581,17267,0,17096,0,17096,0,171,171,0,0,16003,1264,1.848123,0.0012,5
www.canada.ca/etc/designs/canada/cdts/gcweb/v4_0_22/js/polyfills/slider.min.js,25.675871,0.0102,3152,0,2511,0,2511,0,641,641,0,0,2792,360,2.441154,0.000438,2
www.canada.ca/etc/designs/canada/cdts/gcweb/v4_0_22/js/ie8-wet-boew2.min.js,25.373636,0,3999,0,535,0,535,0,3464,3464,0,0,3718,281,10.27704,0,0
www.canada.ca/etc/designs/canada/cdts/gcweb/v4_0_25/js/deps/tableparser.min.js,24.649666,0.000108,9582,0,3309,208,3517,0,6065,6065,0,0,9072,510,2.919581,0.000438,2
www.canada.ca/etc/designs/canada/cdts/gcweb/v4_0_25/css/theme-srv.min.css,23.897169,0,1443,0,613,0,613,0,830,830,0,0,1302,141,4.488057,0,0
www.canada.ca/etc/designs/canada/cdts/gcweb/v4_0_26/assets/wmms-blk.png,23.661186,0,4150,0,3706,0,3706,0,444,444,0,0,3960,190,0.955831,0,0
www.canada.ca/etc/designs/canada/cdts/gcweb/rn/css/noscript.min.css,23.500619,0.019311,6214,0,5900,0,5900,0,314,314,0,0,5479,735,1.00547,0.00193,7
www.canada.ca/etc/designs/canada/cdts/gcweb/rn/css/theme-srv.min.css,23.355004,0,6982,0,884,0,884,0,6098,6098,0,0,6956,26,0.909282,0,0
www.canada.ca/etc/designs/canada/cdts/gcweb/v4_0_23/css/polyfills/progress.min.css,20.912278,0.005962,28063,0,6587,0,6587,0,21476,21476,0,0,27491,572,0.324573,0.004852,18
www.canada.ca/etc/designs/canada/cdts/gcweb/v4_0_25/js/ie8-wet-boew.min.js,20.468441,0,1055,0,879,0,879,0,176,176,0,0,809,246,4.961936,0,0
www.canada.ca/etc/designs/canada/cdts/gcweb/rn/js/wet-boew.min.js,19.539189,0,6821,0,636,0,636,0,6185,6185,0,0,6793,28,1.395457,0,0
www.canada.ca/etc/designs/canada/cdts/gcweb/v4_0_25/js/polyfills/progress.min.js,17.321666,0.000594,16004,1,8650,0,8650,0,7353,7353,0,0,15365,639,0.793986,0.002628,11
www.canada.ca/etc/designs/canada/cdts/gcweb/rn/css/wet-boew.min.css,17.208899,0.019311,5048,0,4764,0,4764,0,284,284,0,0,4426,622,0.655442,0.008933,7
www.canada.ca/etc/designs/canada/cdts/gcweb/v4_0_25/js/polyfills/meter.min.js.map,17.200401,0.000055,6854,0,6739,0,6739,0,115,115,0,0,6680,174,0.214426,0.000219,1
www.canada.ca/etc/designs/canada/cdts/gcweb/v4_0_25/js/polyfills/details.min.js.map,15.908223,0.00037,6871,0,6777,0,6777,0,94,94,0,0,6694,177,0.240216,0.000472,1
www.canada.ca/etc/designs/canada/cdts/gcweb/v4_0_22/assets/sig-blk-en.png,15.790827,0,1148,0,1045,0,1045,0,103,103,0,0,982,166,2.244011,0,0
www.canada.ca/etc/designs/canada/cdts/gcweb/v4_0_23/assets/sig-blk-fr.png,15.509354,0,1098,0,1080,0,1080,0,18,18,0,0,1061,37,0.512697,0,0
www.canada.ca/etc/designs/canada/cdts/gcweb/v4_0_26/css/messages.min.css,13.981129,0.003198,10791,0,8947,0,8947,0,1844,1844,0,0,9601,1190,1.848151,0.000438,2
www.canada.ca/etc/designs/canada/cdts/gcweb/rn/cdts/compiled/plugins-en.js,13.595684,0.005202,12779,0,8515,0,8515,0,4264,4264,0,0,11538,1241,1.055769,0.001307,4
www.canada.ca/etc/designs/canada/cdts/gcweb/v4_0_24/assets/wmms-blk.png,12.902502,0,2854,0,2151,0,2151,0,703,703,0,0,2388,466,2.273164,0,0
www.canada.ca/etc/designs/canada/cdts/gcweb/v4_0_24/css/messages.min.css,12.766662,0.000165,8753,0,8427,0,8427,0,326,326,0,0,8187,566,0.850955,0.003994,3
www.canada.ca/etc/designs/canada/cdts/gcweb/v4_0_23/css/polyfills/slider.min.css,12.620916,0,9311,0,5492,0,5492,0,3819,3819,0,0,8948,363,0.599822,0,0
www.canada.ca/etc/designs/canada/cdts/gcweb/v4_0_25/css/polyfills/slider.min.css,11.75793,0.000164,7262,0,5384,0,5384,0,1878,1878,0,0,6752,510,0.90453,0.00091,3
www.canada.ca/etc/designs/canada/cdts/gcweb/v4_0_23/js/deps/jquery.dataTables.min.js,11.61665,0.002078,14891,0,188,0,188,0,14703,14703,0,0,14680,211,3.235298,0.009266,38
www.canada.ca/etc/designs/canada/cdts/gcweb/v4_0_24/assets/sig-blk-en.png,11.257369,0,1040,0,759,0,759,0,281,281,0,0,871,169,2.247194,0,0
www.canada.ca/etc/designs/canada/cdts/gcweb/v4_0_25/css/polyfills/progress.min.css,10.946478,0.00445,15952,0,8542,0,8542,0,7410,7410,0,0,15314,638,0.403911,0.00219,9
www.canada.ca/etc/designs/canada/cdts/gcweb/v4_0_26/assets/sig-spl.svg,10.171395,0.005946,6559,0,6325,0,6325,0,234,234,0,0,5406,1153,1.627066,0,15
www.canada.ca/etc/designs/canada/cdts/gcweb/v4_0_23/js/wet-boew.js,9.510818,0,52,0,28,0,28,0,24,24,0,0,47,5,0.463462,0,0
www.canada.ca/etc/designs/canada/cdts/gcweb/v4_0_26/assets/wmms-spl.svg,9.222691,0.003682,6579,0,6351,0,6351,0,228,228,0,0,5496,1083,1.424691,0,10
www.canada.ca/etc/designs/canada/cdts/gcweb/v4_0_24/css/wet-boew.min.css,8.860829,0.005284,2593,0,1840,0,1840,0,753,753,0,0,2074,519,0.496352,0.000219,1
www.canada.ca/etc/designs/canada/cdts/gcweb/v4_0_25/js/polyfills/slider_wrapper.min.js,8.670367,0.000164,7680,0,5789,0,5789,0,1891,1891,0,0,7178,502,0.576966,0.00091,3
www.canada.ca/etc/designs/canada/cdts/gcweb/v4_0_22/css/polyfills/slider.min.css,8.618844,0.0051,3271,0,2613,0,2613,0,658,658,0,0,2903,368,0.652529,0.000219,1
www.canada.ca/etc/designs/canada/cdts/gcweb/v4_0_24/js/deps/prettify.min.js,8.351332,0,2220,0,962,174,1136,0,1084,1084,0,0,1914,306,2.14729,0,0
www.canada.ca/etc/designs/canada/cdts/gcweb/v4_0_23/js/polyfills/slider_wrapper.min.js,8.311713,0,8604,0,5132,0,5132,0,3472,3472,0,0,8248,356,0.399684,0,0
www.canada.ca/etc/designs/canada/cdts/gcweb/v4_0_26/cdts/cdtscustom.js,7.995973,0.000054,8518,0,3436,0,3436,0,5082,5082,0,0,8300,218,0.275996,0.000219,1
www.canada.ca/etc/designs/canada/cdts/gcweb/v4_0_23/js/polyfills/datepicker.min.js.map,7.088409,0,1369,0,1225,0,1225,0,144,144,0,0,1296,73,0.224659,0,0
www.canada.ca/etc/designs/canada/cdts/gcweb/v4_0_26/assets/sprites_share.png,6.746769,0,105,0,90,0,90,0,15,15,0,0,76,29,2.131389,0,0
www.canada.ca/etc/designs/canada/cdts/gcweb/v4_0_22/js/polyfills/progress.min.js,6.611582,0.0051,4405,0,2910,0,2910,0,1495,1495,0,0,3992,413,0.537301,0.000219,1
www.canada.ca/etc/designs/canada/cdts/gcweb/rn/fonts/glyphicons-halflings-regular.woff,6.49729,0,6117,0,230,0,230,0,5887,5887,0,0,6050,67,1.656062,0,0
www.canada.ca/etc/designs/canada/cdts/gcweb/v4_0_26/js/deps/tableparser.min.js,6.372758,0,2591,0,838,98,936,0,1655,1655,0,0,2382,209,1.390978,0,0
www.canada.ca/etc/designs/canada/cdts/gcweb/v4_0_23/assets/sig-spl.svg,5.562785,0.006074,3525,0,3402,0,3402,0,123,123,0,0,2780,745,1.143117,0.001514,24
www.canada.ca/etc/designs/canada/cdts/gcweb/v4_0_26/css/noscript.min.css,5.45603,0,1671,0,1348,0,1348,0,323,323,0,0,1487,184,0.216192,0,0
www.canada.ca/etc/designs/canada/cdts/gcweb/v4_0_23/css/noscript.min.css,5.164212,0.005074,6841,0,1491,0,1491,0,5350,5350,0,0,6512,329,0.370456,0.000657,3
www.canada.ca/etc/designs/canada/cdts/gcweb/v4_0_24/fonts/gcweb_0c4a4eb7974d0a7287c93c02965f9b3f.eot,5.141516,0.000807,1989,0,865,0,865,0,1124,1124,0,0,1454,535,2.716813,0.001095,5
www.canada.ca/etc/designs/canada/cdts/gcweb/v4_0_23/assets/wmms-spl.svg,4.994986,0.004758,3518,0,3396,0,3396,0,122,122,0,0,2817,701,0.968161,0.001733,20
www.canada.ca/etc/designs/canada/cdts/gcweb/v4_0_22/js/polyfills/slider_wrapper.min.js,4.913027,0.0051,3184,0,2522,0,2522,0,662,662,0,0,2807,377,0.443597,0.000219,1
www.canada.ca/etc/designs/canada/cdts/gcweb/v4_0_26/assets/mediacontrols.html,4.703304,0,3846,0,3251,0,3251,0,595,595,0,0,1731,2115,2.737011,0.000219,0
www.canada.ca/etc/designs/canada/cdts/gcweb/v4_0_22/css/polyfills/progress.min.css,4.46791,0.0051,4765,0,3236,0,3236,0,1529,1529,0,0,4341,424,0.26892,0.000219,1
www.canada.ca/etc/designs/canada/cdts/gcweb/v4_0_26/cdts/cdtsnoscript.css,4.368577,0,1526,0,1291,0,1291,0,235,235,0,0,1357,169,0.170747,0,0
www.canada.ca/etc/designs/canada/cdts/gcweb/v4_0_25/assets/sig-spl.svg,4.282117,0.003368,2685,0,2561,0,2561,0,124,124,0,0,2157,528,0.867213,0.0004,8
www.canada.ca/etc/designs/canada/cdts/gcweb/v4_0_26/js/theme.js,3.989595,0,2637,0,24,0,24,0,2613,2613,0,0,2605,32,0.647207,0,0
www.canada.ca/etc/designs/canada/cdts/gcweb/v4_0_25/assets/wmms-spl.svg,3.906635,0.001765,2697,0,2544,0,2544,0,153,153,0,0,2188,509,0.724163,0.000619,6
www.canada.ca/etc/designs/canada/cdts/gcweb/v4_0_25/css/messages.min.css,3.730872,0.000055,2962,0,1796,0,1796,0,1166,1166,0,0,2702,260,0.435265,0.000219,1
www.canada.ca/etc/designs/canada/cdts/gcweb/v4_0_23/css/messages.min.css,3.377786,0.000313,1788,0,1152,0,1152,0,636,636,0,0,1467,321,0.471253,0.001095,5
www.canada.ca/etc/designs/canada/cdts/gcweb/v4_0_24/js/deps/OpenLayers.min.js,3.207006,0,87,0,15,4,19,0,68,68,0,0,84,3,0.599061,0,0
www.canada.ca/etc/designs/canada/cdts/gcweb/v4_0_23/js/polyfills/meter.min.js.map,3.026774,0,1327,0,1188,0,1188,0,139,139,0,0,1254,73,0.128508,0,0
www.canada.ca/etc/designs/canada/cdts/gcweb/v4_0_22/js/jquery/1.11.1/jquery.min.js,3.002225,0,120,0,80,0,80,0,40,40,0,0,100,20,0.706135,0,0
www.canada.ca/etc/designs/canada/cdts/gcweb/v4_0_23/js/polyfills/details.min.js.map,2.9247,0,1394,0,1222,0,1222,0,172,172,0,0,1313,81,0.12679,0,0
www.canada.ca/etc/designs/canada/cdts/gcweb/v4_0_24/css/polyfills.html,2.757681,0,5832,0,5832,0,5832,0,0,0,0,0,0,5832,2.423301,0,0
www.canada.ca/etc/designs/canada/cdts/gcweb/v4_0_25/css/noscript.min.css,2.741506,0,2256,0,1971,0,1971,0,285,285,0,0,2203,53,0.056773,0,0
www.canada.ca/etc/designs/canada/cdts/gcweb/rn/cdts/compiled/plugins-fr.js,2.638809,0.000054,2166,0,1407,0,1407,0,759,759,0,0,1879,287,0.21384,0.000219,1
www.canada.ca/etc/designs/canada/cdts/gcweb/v4_0_22/css/polyfills/,2.596185,0,4327,0,0,0,0,0,0,4327,0,0,4327,0,0,0,0
www.canada.ca/etc/designs/canada/cdts/gcweb/v4_0_26/css/polyfills/,2.441845,0,3756,0,0,0,0,0,0,3756,0,0,3756,0,0,0,0
www.canada.ca/etc/designs/canada/cdts/gcweb/v4_0_24/js/polyfills/svg.min.js,2.15457,0.001934,2851,0,1297,0,1297,0,1554,1554,0,0,2359,492,0.497901,0.003098,11
www.canada.ca/etc/designs/canada/cdts/gcweb/v4_0_22/js/polyfills/datepicker.min.js.map,2.11845,0,438,0,334,0,334,0,104,104,0,0,396,42,0.123012,0,0
www.canada.ca/etc/designs/canada/cdts/gcweb/v4_0_22/js/ie8-wet-boew.min.js,1.923954,0,121,0,81,0,81,0,40,40,0,0,99,22,0.487439,0,0
www.canada.ca/etc/designs/canada/cdts/gcweb/v4_0_26/js/polyfills/svg.min.js,1.822187,0,2416,0,1009,0,1009,0,1407,1407,0,0,2248,168,0.17036,0,0
www.canada.ca/etc/designs/canada/cdts/gcweb/v4_0_25/css/polyfills/,1.814847,0,2455,0,0,0,0,0,0,2455,0,0,2455,0,0,0,0
www.canada.ca/etc/designs/canada/cdts/gcweb/v4_0_26/js/deps/OpenLayers.min.js,1.77037,0,556,0,8,0,8,0,548,548,0,0,550,6,1.08291,0,0
www.canada.ca/etc/designs/canada/cdts/gcweb/v4_0_26/js/i18n/en.js,1.665917,0,2931,0,11,0,11,0,2920,2920,0,0,2906,25,0.08143,0,0
www.canada.ca/etc/designs/canada/cdts/gcweb/rn/fonts/glyphicons-halflings-regular.ttf,1.6588,0,98,0,98,0,98,0,0,0,0,0,93,5,0.124643,0,0
www.canada.ca/etc/designs/canada/cdts/gcweb/v4_0_26/fonts/glyphicons-halflings-regular.svg,1.563894,0,122,0,83,0,83,0,39,39,0,0,110,12,0.218128,0,0
www.canada.ca/etc/designs/canada/cdts/gcweb/v4_0_24/js/wet-boew.js,1.548137,0,69,0,16,0,16,0,53,53,0,0,65,4,0.278105,0,0
www.canada.ca/etc/designs/canada/cdts/gcweb/v4_0_26/js/deps/jquery.magnific-popup.js,1.450635,0,3251,0,10,0,10,0,3241,3241,0,0,3230,21,0.283505,0,0
www.canada.ca/etc/designs/canada/cdts/gcweb/v4_0_26/js/polyfills/datepicker.js,1.420418,0,3013,0,17,0,17,0,2996,2996,0,0,2987,26,0.089974,0,0
www.canada.ca/etc/designs/canada/cdts/gcweb/v4_0_25/assets/sig-blk-en.png,1.266818,0,105,0,88,0,88,0,17,17,0,0,88,17,0.234028,0,0
www.canada.ca/etc/designs/canada/cdts/gcweb/v4_0_26/assets/sig-blk-en.png,1.227354,0,118,0,86,0,86,0,32,32,0,0,95,23,0.31784,0,0
www.canada.ca/etc/designs/canada/cdts/gcweb/v4_0_26/css/polyfills/datepicker.css,1.122283,0,2352,0,10,0,10,0,2342,2342,0,0,2328,24,0.028802,0,0
www.canada.ca/etc/designs/canada/cdts/gcweb/v4_0_26/js/polyfills/details.js,0.992534,0,2033,0,69,0,69,0,1964,1964,0,0,1981,52,0.09955,0,0
www.canada.ca/etc/designs/canada/cdts/gcweb/v4_0_26/css/polyfills/details.css,0.951809,0,2345,0,7,0,7,0,2338,2338,0,0,2318,27,0.022936,0,0
www.canada.ca/etc/designs/canada/cdts/gcweb/v4_0_22/js/polyfills/meter.min.js.map,0.926031,0,435,0,332,0,332,0,103,103,0,0,398,37,0.060431,0,0
www.canada.ca/etc/designs/canada/cdts/gcweb/v4_0_22/js/polyfills/details.min.js.map,0.91175,0,439,0,336,0,336,0,103,103,0,0,402,37,0.061341,0,0
www.canada.ca/etc/designs/canada/cdts/gcweb/rn/cdts/cdtsfixes.css,0.655855,0,236,0,205,0,205,0,31,31,0,0,165,71,0.079101,0,0
www.canada.ca/etc/designs/canada/cdts/gcweb/v4_0_26/cdts/static/refTop.html,0.64474,0,127,0,127,0,127,0,0,0,0,0,89,38,0.03838,0,0
www.canada.ca/etc/designs/canada/cdts/gcweb/v4_0_26/css/polyfills/meter.css,0.627843,0,1081,0,5,0,5,0,1076,1076,0,0,1062,19,0.01736,0,0
www.canada.ca/etc/designs/canada/cdts/gcweb/v4_0_26/js/polyfills/meter.js,0.57709,0,1199,0,5,0,5,0,1194,1194,0,0,1175,24,0.046366,0,0
www.canada.ca/etc/designs/canada/cdts/gcweb/v4_0_26/js/deps/template.js,0.541196,0,1084,0,4,0,4,0,1080,1080,0,0,1062,22,0.024567,0,0
www.canada.ca/etc/designs/canada/cdts/gcweb/v4_0_26/js/deps/prettify.min.js,0.490818,0,670,0,36,0,36,0,634,634,0,0,650,20,0.145597,0,0
www.canada.ca/etc/designs/canada/cdts/gcweb/v4_0_26/js/deps/proj4.min.js,0.413831,0,558,0,11,0,11,0,547,547,0,0,552,6,0.147248,0,0
www.canada.ca/etc/designs/canada/cdts/gcweb/v4_0_26/assets/sig-blk-fr.png,0.388263,0,70,0,26,0,26,0,44,44,0,0,64,6,0.083018,0,0
www.canada.ca/etc/designs/canada/cdts/gcweb/v4_0_24/js/deps/proj4.min.js,0.38769,0,88,0,13,4,17,0,71,71,0,0,85,3,0.074169,0,0
www.canada.ca/etc/designs/canada/cdts/gcweb/v4_0_23/css/polyfills/,0.278519,0,422,0,0,0,0,0,0,422,0,0,422,0,0,0,0
www.canada.ca/etc/designs/canada/cdts/gcweb/v4_0_26/js/deps/jquery.dataTables.js,0.278191,0,669,0,0,0,0,0,669,669,0,0,661,8,0.355337,0,0
www.canada.ca/etc/designs/canada/cdts/gcweb/v4_0_25/assets/wmms-blk.png,0.27752,0,58,0,48,0,48,0,10,10,0,0,49,9,0.046317,0,0
www.canada.ca/etc/designs/canada/cdts/gcweb/v4_0_26/js/deps/geomap-lib.min.js,0.263445,0,505,0,10,0,10,0,495,495,0,0,499,6,0.081104,0,0
www.canada.ca/etc/designs/canada/cdts/gcweb/v4_0_26/css/polyfills.html,0.231269,0.000694,495,0,495,0,495,0,0,0,0,0,0,495,0.197652,0,1
www.canada.ca/etc/designs/canada/cdts/gcweb/v4_0_25/js/polyfills/svg.min.js,0.23027,0.010746,286,0,154,0,154,0,132,132,0,0,231,55,0.059313,0.003066,14
www.canada.ca/etc/designs/canada/cdts/gcweb/rn/js/i18n/en.min.js,0.199587,0,64,0,64,0,64,0,0,0,0,0,61,3,0.009955,0,0
www.canada.ca/etc/designs/canada/cdts/gcweb/v4_0_24/js/deps/geomap-lib.min.js,0.197344,0,85,0,13,2,15,0,70,70,0,0,82,3,0.041122,0,0
www.canada.ca/etc/designs/canada/cdts/gcweb/v4_0_25/js/deps/prettify.min.js,0.160939,0,124,0,18,0,18,0,106,106,0,0,122,2,0.015406,0,0
www.canada.ca/etc/designs/canada/cdts/gcweb/v4_0_22/css/,0.141997,0,210,0,0,0,0,0,0,210,0,0,210,0,0,0,0
www.canada.ca/etc/designs/canada/cdts/gcweb/v4_0_26/fonts/gcweb_0c4a4eb7974d0a7287c93c02965f9b3f.eot,0.117158,0,60,0,18,0,18,0,42,42,0,0,56,4,0.019753,0,0
www.canada.ca/etc/designs/canada/cdts/gcweb/v4_0_26/js/deps/jsonpointer.min.js,0.094296,0,359,0,2,0,2,0,357,357,0,0,354,5,0.008139,0,0
www.canada.ca/etc/designs/canada/cdts/gcweb/v4_0_26/css/theme-srv.min.css,0.093981,0,61,0,1,0,1,0,60,60,0,0,57,4,0.139168,0,0
www.canada.ca/etc/designs/canada/cdts/gcweb/v4_0_26/js/deps/lang-sql.min.js,0.081783,0,298,0,4,0,4,0,294,294,0,0,285,13,0.021321,0,0
www.canada.ca/etc/designs/canada/cdts/gcweb/v4_0_22/css/polyfills.html,0.080078,0,170,0,170,0,170,0,0,0,0,0,0,170,0.069197,0,0
www.canada.ca/etc/designs/canada/cdts/gcweb/rn/css/,0.078735,0,144,0,0,0,0,0,0,144,0,0,144,0,0,0,0
www.canada.ca/etc/designs/canada/cdts/gcweb/v4_0_25/assets/,0.075395,0,161,0,0,0,0,0,0,161,0,0,161,0,0,0,0
www.canada.ca/etc/designs/canada/cdts/gcweb/v4_0_26/assets/zoom-world-mini.png,0.045795,0,189,0,2,0,2,0,187,187,0,0,184,5,0.005292,0,0
www.canada.ca/etc/designs/canada/cdts/gcweb/v4_0_25/js/deps/lang-vb.min.js,0.045757,0,94,0,19,0,19,0,75,75,0,0,92,2,0.003278,0,0
www.canada.ca/etc/designs/canada/cdts/gcweb/v4_0_26/assets/zoom-plus-mini.png,0.045343,0,189,0,2,0,2,0,187,187,0,0,184,5,0.004182,0,0
www.canada.ca/etc/designs/canada/cdts/gcweb/v4_0_26/assets/zoom-minus-mini.png,0.04522,0,189,0,2,0,2,0,187,187,0,0,184,5,0.004222,0,0
www.canada.ca/etc/designs/canada/cdts/gcweb/v4_0_22/js/polyfills/svg.min.js,0.040585,0,77,0,9,0,9,0,68,68,0,0,71,6,0.005946,0,0
www.canada.ca/etc/designs/canada/cdts/gcweb/v4_0_24/js/theme.js,0.038823,0,60,0,8,0,8,0,52,52,0,0,58,2,0.002536,0,0
www.canada.ca/etc/designs/canada/cdts/gcweb/rn/css.html,0.034371,0,72,0,72,0,72,0,0,0,0,0,0,72,0.029512,0,0
www.canada.ca/etc/designs/canada/cdts/gcweb/v4_0_26/js/deps/lang-vb.min.js,0.032463,0,107,0,4,0,4,0,103,103,0,0,103,4,0.006824,0,0
www.canada.ca/etc/designs/canada/cdts/gcweb/v4_0_23/js/polyfills/svg.min.js,0.028861,0,51,0,14,0,14,0,37,37,0,0,43,8,0.007072,0,0
www.canada.ca/etc/designs/canada/cdts/gcweb/v4_0_27/js/wet-boew.min.js,0,0.289248,0,0,0,0,0,0,0,0,53,53,0,0,0,0.196405,53
www.canada.ca/etc/designs/canada/cdts/gcweb/v4_0_27/js/theme.min.js,0,0.326258,0,0,0,0,0,0,0,0,65,65,0,0,0,0.193287,65
www.canada.ca/etc/designs/canada/cdts/gcweb/v4_0_27/cdts/compiled/wet-en.js,0,0.530227,0,0,0,0,0,0,0,0,110,110,0,0,0,0.132239,110
www.canada.ca/etc/designs/canada/cdts/gcweb/v4_0_27/cdts/compiled/soyutils.js,0,0.367568,0,0,0,0,0,0,0,0,68,68,0,0,0,0.06289,68
www.canada.ca/etc/designs/canada/cdts/gcweb/v4_0_26/js/i18n/ko-x-mtfrom-en.min.js,0,0.60973,0,0,0,0,0,0,0,0,114,114,0,0,0,0.296728,114
www.canada.ca/etc/designs/canada/cdts/gcweb/v4_0_26/js/i18n/ar-x-mtfrom-en.min.js,0,0.334959,0,0,0,0,0,0,0,0,66,66,0,0,0,0.217057,66
"www.canada.ca/etc/designs/canada/cdts/gcweb/v4_0_26/fonts/gcweb_0c4a4eb7974d0a7287c93c02965f9b3f.eot),%20url(../fonts/gcweb_0c4a4eb7974d0a7287c93c02965f9b3f.eot",0,56.965827,0,0,0,0,0,0,0,0,9496,9496,0,0,0,34.152321,9496
"www.canada.ca/etc/designs/canada/cdts/gcweb/v4_0_25/fonts/gcweb_0c4a4eb7974d0a7287c93c02965f9b3f.eot),%20url(../fonts/gcweb_0c4a4eb7974d0a7287c93c02965f9b3f.eot",0,1.106339,0,0,0,0,0,0,0,0,166,166,0,0,0,0.786931,166
www.canada.ca/etc/designs/canada/cdts/gcweb/v4_0_24/wet-boew/js/wet-boew.min.js,0,44.549214,0,0,0,0,0,0,0,0,7812,7812,0,0,0,25.0783,7821
www.canada.ca/etc/designs/canada/cdts/gcweb/v4_0_24/js/i18n/zh-x-mtfrom-en.min.js,0,0.474691,0,0,0,0,0,0,0,0,90,90,0,0,0,0.258906,90
www.canada.ca/etc/designs/canada/cdts/gcweb/v4_0_24/js/i18n/vi-x-mtfrom-en.min.js,0,0.249728,0,0,0,0,0,0,0,0,57,57,0,0,0,0.112481,57
www.canada.ca/etc/designs/canada/cdts/gcweb/v4_0_24/js/i18n/ru-x-mtfrom-en.min.js,0,0.641059,0,0,0,0,0,0,0,0,120,120,0,0,0,0.352891,120
www.canada.ca/etc/designs/canada/cdts/gcweb/v4_0_24/js/i18n/es-x-mtfrom-en.min.js,0,0.271833,0,0,0,0,0,0,0,0,51,51,0,0,0,0.151086,51
www.canada.ca/etc/designs/canada/cdts/gcweb/v4_0_24/js/i18n/.min.js,0,20.963523,0,0,0,0,0,0,0,0,4048,4048,0,0,0,12.146393,4048
www.canada.ca/etc/designs/canada/cdts/gcweb/v4_0_24/cdts/js/compiled/plugins-fr.js,0,14.747853,0,0,0,0,0,0,0,0,2809,2809,0,0,0,9.6917,2809
www.canada.ca/etc/designs/canada/cdts/gcweb/v4_0_24/cdts/js/compiled/plugins-en.js,0,454.070437,0,0,0,0,0,0,0,0,83034,83070,0,31,0.008595,275.80577,83207
www.canada.ca/etc/designs/canada/cdts/gcweb/v4_0_24/cdts/compiled/%27+soy.$$escapeHtml(b.url)+%27,0,13.570742,0,0,0,0,0,0,0,0,1830,1830,0,0,0,8.940543,1832
www.canada.ca/etc/designs/canada/cdts/gcweb/v4_0_24/cdts/compiled/%27+soy.$$escapeHtml(b.transcript)+%27,0,10.745902,0,0,0,0,0,0,0,0,1417,1417,0,0,0,6.924497,1417
www.canada.ca/etc/designs/canada/cdts/gcweb/v4_0_24/cdts/compiled/%27+soy.$$escapeHtml(a.src)+%27,0,13.074005,0,0,0,0,0,0,0,0,1767,1767,0,0,0,8.686245,1769
www.canada.ca/etc/designs/canada/cdts/gcweb/v4_0_24/cdts/compiled/%27+soy.$$escapeHtml(a.href)+%27,0,32.590286,0,0,0,0,0,0,0,0,4436,4436,0,0,0,21.34258,4439
www.canada.ca/etc/designs/canada/cdts/gcweb/v4_0_24/cdts/compiled/%27+(null!=a.templateDomain,0,8.737717,0,0,0,0,0,0,0,0,1138,1138,0,0,0,5.680272,1138
www.canada.ca/etc/designs/canada/cdts/gcweb/v4_0_23/cdts/compiled/%27+soy.$$escapeHtml(b.url)+%27,0,0.389301,0,0,0,0,0,0,0,0,55,55,0,0,0,0.26476,55
www.canada.ca/etc/designs/canada/cdts/gcweb/v4_0_23/cdts/compiled/%27+soy.$$escapeHtml(a.src)+%27,0,0.350567,0,0,0,0,0,0,0,0,51,51,0,0,0,0.238983,51
www.canada.ca/etc/designs/canada/cdts/gcweb/v4_0_23/cdts/compiled/%27+soy.$$escapeHtml(a.href)+%27,0,0.680615,0,0,0,0,0,0,0,0,99,99,0,0,0,0.463648,99
www.canada.ca/etc/designs/canada/cdts/gcweb/v4_0_23/cdts/compiled/%27+(null!=a.templateDomain,0,0.646167,0,0,0,0,0,0,0,0,91,91,0,0,0,0.397817,91
www.canada.ca/etc/designs/canada/cdts/gcweb/v4_0_22/js/i18n/.min.js,0,0.481844,0,0,0,0,0,0,0,0,96,96,0,0,0,0.28159,96
www.canada.ca/etc/designs/canada/cdts/gcweb/v4_0_22/cdts/compiled/wet-en.debug.js,0,256.725536,0,0,0,0,0,0,0,0,13475,13475,0,0,0,2.058515,13475
www.canada.ca/etc/designs/canada/cdts/gcweb/v4_0_22/cdts/compiled/wet-en-vsdoc.js,0,256.769452,0,0,0,0,0,0,0,0,13475,13475,0,0,0,2.033628,13475
www.canada.ca/etc/designs/canada/cdts/gcweb/v4_0_22/cdts/compiled/soyutils.debug.js,0,257.691132,0,0,0,0,0,0,0,0,13526,13526,0,0,0,2.004134,13526
www.canada.ca/etc/designs/canada/cdts/gcweb/v4_0_22/cdts/compiled/soyutils-vsdoc.js,0,257.735378,0,0,0,0,0,0,0,0,13526,13526,0,0,0,2.039092,13526
www.canada.ca/etc/designs/canada/cdts/gcweb/v4_0_22/cdts/compiled/%27+soy.$$escapeHtml(b.url)+%27,0,1.02463,0,0,0,0,0,0,0,0,141,141,0,0,0,0.666211,141
www.canada.ca/etc/designs/canada/cdts/gcweb/v4_0_22/cdts/compiled/%27+soy.$$escapeHtml(b.transcript)+%27,0,0.462637,0,0,0,0,0,0,0,0,66,66,0,0,0,0.321435,66
www.canada.ca/etc/designs/canada/cdts/gcweb/v4_0_22/cdts/compiled/%27+soy.$$escapeHtml(a.src)+%27,0,1.006757,0,0,0,0,0,0,0,0,137,137,0,0,0,0.657787,137
www.canada.ca/etc/designs/canada/cdts/gcweb/v4_0_22/cdts/compiled/%27+soy.$$escapeHtml(a.href)+%27,0,2.076752,0,0,0,0,0,0,0,0,307,307,0,0,0,1.347904,307
www.canada.ca/etc/designs/canada/cdts/gcweb/v4_0_22/cdts/compiled/%27+(null!=a.templateDomain,0,2.788441,0,0,0,0,0,0,0,0,360,360,0,0,0,1.855274,360
www.canada.ca/etc/designs/canada/cdts/gcweb/rn/cdts/compiled/%27+soy.$$escapeHtml(d.href)+%27,0,0.422921,0,0,0,0,0,0,0,0,62,62,0,0,0,0.252331,62
www.canada.ca/etc/designs/canada/cdts/gcweb/rn/cdts/compiled/%22+wet.builder.environment(a)+,0,5.139756,0,0,0,0,0,0,0,0,673,673,0,0,0,3.363896,674
www.canada.ca/etc/designs/canada/cdts/gcweb/rn/GCWeb/assets/wmms-blk.svg,0,0.108517,0,0,0,0,0,0,0,0,131,131,0,0,0,0.051377,131
www.canada.ca/etc/designs/canada/cdts/app/cls/wet/gcweb/v4_0_22/js/compiled/wet-fr.js,0,1.498704,0,0,0,0,0,0,0,0,269,269,0,0,0,1.245349,269
www.canada.ca/etc/designs/canada/cdts/app/cls/wet/gcweb/v4_0_22/js/compiled/wet-en.js,0,31.578082,0,0,0,0,0,0,0,0,6382,6382,0,0,0,29.283591,6382
www.canada.ca/etc/designs/canada/cdts/app/cls/wet/gcweb/v4_0_22/js/compiled/soyutils.js,0,34.707647,0,0,0,0,0,0,0,0,6427,6427,0,0,0,31.492153,6427
mws.download.akamai.com/$(SERVE_503)/etc/designs/canada/cdts/gcweb/v4_0_26/js/polyfills/meter.min.js,0,0.894465,0,0,0,0,0,0,0,0,0,0,0,0,0,0,56
mws.download.akamai.com/$(SERVE_503)/etc/designs/canada/cdts/gcweb/v4_0_26/js/jquery/2.1.4/jquery.min.js,0,0.127273,0,0,0,0,0,0,0,0,0,0,0,2,0.036193,0,56
mws.download.akamai.com/$(SERVE_503)/etc/designs/canada/cdts/gcweb/v4_0_26/cdts/compiled/wet-en.js,0,0.960505,0,0,0,0,0,0,0,0,0,0,0,1,0.000303,0,53
mws.download.akamai.com/$(SERVE_503)/etc/designs/canada/cdts/gcweb/v4_0_26/cdts/compiled/plugins-en.js,0,1.491169,0,0,0,0,0,0,0,0,0,0,0,1,0.000303,0,82
mws.download.akamai.com/$(SERVE_503)/etc/designs/canada/cdts/gcweb/v4_0_26/assets/favicon-mobile.png,0,1.693109,0,0,0,0,0,0,0,0,0,0,0,0,0,0,90
mws.download.akamai.com/$(SERVE_503)/etc/designs/canada/cdts/gcweb/v4_0_25/css/theme.min.css,0,0.055941,0,0,0,0,0,0,0,0,0,0,0,0,0,0,66
mws.download.akamai.com/$(SERVE_503)/etc/designs/canada/cdts/gcweb/v4_0_25/css/polyfills/meter.min.css,0,0.054243,0,0,0,0,0,0,0,0,0,0,0,0,0,0,63
mws.download.akamai.com/$(SERVE_503)/etc/designs/canada/cdts/gcweb/v4_0_25/css/polyfills/details.min.css,0,0.057063,0,0,0,0,0,0,0,0,0,0,0,0,0,0,66
mws.download.akamai.com/$(SERVE_503)/etc/designs/canada/cdts/gcweb/v4_0_25/css/polyfills/datepicker.min.css,0,0.056355,0,0,0,0,0,0,0,0,0,0,0,0,0,0,65
mws.download.akamai.com/$(SERVE_503)/etc/designs/canada/cdts/gcweb/v4_0_25/cdts/cdtsfixes.css,0,0.055743,0,0,0,0,0,0,0,0,0,0,0,0,0,0,66
mws.download.akamai.com/$(SERVE_503)/etc/designs/canada/cdts/gcweb/v4_0_24/cdts/js/compiled/plugins-en.js,0,2.370394,0,0,0,0,0,0,0,0,0,0,0,1,0.000303,0,134
mws.download.akamai.com/$(SERVE_503)/etc/designs/canada/cdts/gcweb/v4_0_24/cdts/compiled/soyutils.js,0,0.332687,0,0,0,0,0,0,0,0,0,0,0,7,0.133129,0,52
mws.download.akamai.com/$(SERVE_503)/etc/designs/canada/cdts/gcweb/v4_0_24/cdts/cdtsfixes.css,0,0.279787,0,0,0,0,0,0,0,0,0,0,0,6,0.119116,0,51
mws.download.akamai.com/$(SERVE_503)/etc/designs/canada/cdts/gcweb/v4_0_24/assets/wmms-blk.svg,0,0.251359,0,0,0,0,0,0,0,0,0,0,0,12,0.107187,0,67
mws.download.akamai.com/$(SERVE_503)/etc/designs/canada/cdts/gcweb/v4_0_24/assets/sig-blk-en.svg,0,0.213892,0,0,0,0,0,0,0,0,0,0,0,12,0.113679,0,69
mws.download.akamai.com/$(SERVE_503)/etc/designs/canada/cdts/gcweb/v4_0_23/assets/wmms-blk.svg,0,0.210532,0,0,0,0,0,0,0,0,0,0,0,7,0.042854,0,70
mws.download.akamai.com/$(SERVE_503)/etc/designs/canada/cdts/gcweb/v4_0_23/assets/sig-blk-en.svg,0,0.417454,0,0,0,0,0,0,0,0,0,0,0,15,0.191831,0,130
# ROW_DATA_END,,,,,,,,,,,,,,,,,
,,Total,603117178,,,,,,,,,,,,,,
